%!PS-Adobe-3.0 EPSF-3.0
%%BoundingBox: 138 256 473 536
%%Pages: 0
%%Creator: (BLT 2.4 Graph)
%%CreationDate: (Thu Aug  4 21:38:28 2016)
%%Title: (/home/users/nanditha/sentaurus/65nm_mos/final/cmos_inv_3d/2inv/guardring/sim/GR_11MeV_3strikes.eps)
%%DocumentData: Clean7Bit
%%Orientation: Portrait
%%DocumentNeededResources: font Helvetica Courier
%%EndComments


% including file "/usr/local/Softwares/Sentaurus/Sentaurus_vG_2012.06/bin/../tcad/current/lib/bltGraph.pro"

%%BeginProlog
%
% PostScript prolog file of the BLT graph widget.
%
% Copyright 1989-1992 Regents of the University of California.
% Permission to use, copy, modify, and distribute this
% software and its documentation for any purpose and without
% fee is hereby granted, provided that the above copyright
% notice appear in all copies.  The University of California
% makes no representations about the suitability of this
% software for any purpose.  It is provided "as is" without
% express or implied warranty.
%
% Copyright 1991-1997 Bell Labs Innovations for Lucent Technologies.
%
% Permission to use, copy, modify, and distribute this software and its
% documentation for any purpose and without fee is hereby granted, provided
% that the above copyright notice appear in all copies and that both that the
% copyright notice and warranty disclaimer appear in supporting documentation,
% and that the names of Lucent Technologies any of their entities not be used
% in advertising or publicity pertaining to distribution of the software
% without specific, written prior permission.
%
% Lucent Technologies disclaims all warranties with regard to this software,
% including all implied warranties of merchantability and fitness.  In no event
% shall Lucent Technologies be liable for any special, indirect or
% consequential damages or any damages whatsoever resulting from loss of use,
% data or profits, whether in an action of contract, negligence or other
% tortuous action, arising out of or in connection with the use or performance
% of this software.
%

200 dict begin

/BaseRatio 1.3467736870885982 def	% Ratio triangle base / symbol size
/BgColorProc 0 def			% Background color routine (symbols)
/DrawSymbolProc 0 def			% Routine to draw symbol outline/fill
/StippleProc 0 def			% Stipple routine (bar segments)
/DashesProc 0 def			% Dashes routine (line segments)
  
% Define the array ISOLatin1Encoding (which specifies how characters are 
% encoded for ISO-8859-1 fonts), if it isn't already present (Postscript 
% level 2 is supposed to define it, but level 1 doesn't). 
 
systemdict /ISOLatin1Encoding known not { 
  /ISOLatin1Encoding [ 
    /space /space /space /space /space /space /space /space 
    /space /space /space /space /space /space /space /space 
    /space /space /space /space /space /space /space /space 
    /space /space /space /space /space /space /space /space 
    /space /exclam /quotedbl /numbersign /dollar /percent /ampersand 
    /quoteright 
    /parenleft /parenright /asterisk /plus /comma /minus /period /slash 
    /zero /one /two /three /four /five /six /seven 
    /eight /nine /colon /semicolon /less /equal /greater /question 
    /at /A /B /C /D /E /F /G 
    /H /I /J /K /L /M /N /O 
    /P /Q /R /S /T /U /V /W 
    /X /Y /Z /bracketleft /backslash /bracketright /asciicircum /underscore 
    /quoteleft /a /b /c /d /e /f /g 
    /h /i /j /k /l /m /n /o 
    /p /q /r /s /t /u /v /w 
    /x /y /z /braceleft /bar /braceright /asciitilde /space 
    /space /space /space /space /space /space /space /space 
    /space /space /space /space /space /space /space /space 
    /dotlessi /grave /acute /circumflex /tilde /macron /breve /dotaccent 
    /dieresis /space /ring /cedilla /space /hungarumlaut /ogonek /caron 
    /space /exclamdown /cent /sterling /currency /yen /brokenbar /section 
    /dieresis /copyright /ordfeminine /guillemotleft /logicalnot /hyphen 
    /registered /macron 
    /degree /plusminus /twosuperior /threesuperior /acute /mu /paragraph 
    /periodcentered 
    /cedillar /onesuperior /ordmasculine /guillemotright /onequarter 
    /onehalf /threequarters /questiondown 
    /Agrave /Aacute /Acircumflex /Atilde /Adieresis /Aring /AE /Ccedilla 
    /Egrave /Eacute /Ecircumflex /Edieresis /Igrave /Iacute /Icircumflex 
    /Idieresis 
    /Eth /Ntilde /Ograve /Oacute /Ocircumflex /Otilde /Odieresis /multiply 
    /Oslash /Ugrave /Uacute /Ucircumflex /Udieresis /Yacute /Thorn 
    /germandbls 
    /agrave /aacute /acircumflex /atilde /adieresis /aring /ae /ccedilla 
    /egrave /eacute /ecircumflex /edieresis /igrave /iacute /icircumflex 
    /idieresis 
    /eth /ntilde /ograve /oacute /ocircumflex /otilde /odieresis /divide 
    /oslash /ugrave /uacute /ucircumflex /udieresis /yacute /thorn 
    /ydieresis 
  ] def 
} if 

% font ISOEncode font 
% This procedure changes the encoding of a font from the default 
% Postscript encoding to ISOLatin1.  It is typically invoked just 
% before invoking "setfont".  The body of this procedure comes from 
% Section 5.6.1 of the Postscript book. 

/ISOEncode { 
  dup length dict
  begin 
    {1 index /FID ne {def} {pop pop} ifelse} forall 
    /Encoding ISOLatin1Encoding def 
    currentdict 
  end 

  % I'm not sure why it's necessary to use "definefont" on this new 
  % font, but it seems to be important; just use the name "Temporary" 
  % for the font. 

  /Temporary exch definefont 
} bind def 

/Stroke {
  gsave
    stroke
  grestore
} def

/Fill {
  gsave
    fill
  grestore
} def

/SetFont { 	
  % Stack: pointSize fontName
  findfont exch scalefont ISOEncode setfont
} def

/Box {
  % Stack: x y width height
  newpath
  exch 4 2 roll moveto
  dup 0 rlineto
  exch 0 exch rlineto
  neg 0 rlineto
  closepath
} def

/SetFgColor {
  % Stack: red green blue
  CL 0 eq { 
    pop pop pop 0 0 0 
  } if
  setrgbcolor
  CL 1 eq { 
    currentgray setgray 
  } if
} def

/SetBgColor {
  % Stack: red green blue
  CL 0 eq { 
    pop pop pop 1 1 1 
  } if
  setrgbcolor
  CL 1 eq { 
    currentgray setgray 
  } if
} def

% The next two definitions are taken from "$tk_library/prolog.ps"

% desiredSize EvenPixels closestSize
%
% The procedure below is used for stippling.  Given the optimal size
% of a dot in a stipple pattern in the current user coordinate system,
% compute the closest size that is an exact multiple of the device's
% pixel size.  This allows stipple patterns to be displayed without
% aliasing effects.

/EvenPixels {
  % Compute exact number of device pixels per stipple dot.
  dup 0 matrix currentmatrix dtransform
  dup mul exch dup mul add sqrt

  % Round to an integer, make sure the number is at least 1, and compute
  % user coord distance corresponding to this.
  dup round dup 1 lt {pop 1} if
  exch div mul
} bind def

% width height string filled StippleFill --
%
% Given a path and other graphics information already set up, this
% procedure will fill the current path in a stippled fashion.  "String"
% contains a proper image description of the stipple pattern and
% "width" and "height" give its dimensions.  If "filled" is true then
% it means that the area to be stippled is gotten by filling the
% current path (e.g. the interior of a polygon); if it's false, the
% area is gotten by stroking the current path (e.g. a wide line).
% Each stipple dot is assumed to be about one unit across in the
% current user coordinate system.

% width height string StippleFill --
%
% Given a path already set up and a clipping region generated from
% it, this procedure will fill the clipping region with a stipple
% pattern.  "String" contains a proper image description of the
% stipple pattern and "width" and "height" give its dimensions.  Each
% stipple dot is assumed to be about one unit across in the current
% user coordinate system.  This procedure trashes the graphics state.

/StippleFill {
    % The following code is needed to work around a NeWSprint bug.

    /tmpstip 1 index def

    % Change the scaling so that one user unit in user coordinates
    % corresponds to the size of one stipple dot.
    1 EvenPixels dup scale

    % Compute the bounding box occupied by the path (which is now
    % the clipping region), and round the lower coordinates down
    % to the nearest starting point for the stipple pattern.  Be
    % careful about negative numbers, since the rounding works
    % differently on them.

    pathbbox
    4 2 roll
    5 index div dup 0 lt {1 sub} if cvi 5 index mul 4 1 roll
    6 index div dup 0 lt {1 sub} if cvi 6 index mul 3 2 roll

    % Stack now: width height string y1 y2 x1 x2
    % Below is a doubly-nested for loop to iterate across this area
    % in units of the stipple pattern size, going up columns then
    % across rows, blasting out a stipple-pattern-sized rectangle at
    % each position

    6 index exch {
	2 index 5 index 3 index {
	    % Stack now: width height string y1 y2 x y

	    gsave
	    1 index exch translate
	    5 index 5 index true matrix tmpstip imagemask
	    grestore
	} for
	pop
    } for
    pop pop pop pop pop
} bind def


/LS {	% Stack: x1 y1 x2 y2
  newpath 4 2 roll moveto lineto stroke
} def

/EndText {
  %Stack :
  grestore
} def

/BeginText {
  %Stack :  w h theta centerX centerY
  gsave
    % Translate the origin to the center of bounding box and rotate
    translate neg rotate
    % Translate back to the origin of the text region
    -0.5 mul exch -0.5 mul exch translate
} def

/DrawAdjText {
  %Stack : str strWidth x y
  moveto				% Go to the text position
  exch dup dup 4 2 roll

  % Adjust character widths to get desired overall string width
  % adjust X = (desired width - real width)/#chars

  stringwidth pop sub exch
  length div
  0 3 -1 roll

  % Flip back the scale so that the string is not drawn in reverse

  gsave
    1 -1 scale
    ashow
  grestore
} def

/DrawBitmap {
  % Stack: ?bgColorProc? boolean centerX centerY width height theta imageStr
  gsave
    6 -2 roll translate			% Translate to center of bounding box
    4 1 roll neg rotate			% Rotate by theta
    
    % Find upperleft corner of bounding box
    
    2 copy -.5 mul exch -.5 mul exch translate
    2 copy scale			% Make pixel unit scale
    newpath
    0 0 moveto 0 1 lineto 1 1 lineto 1 0 lineto
    closepath
    
    % Fill rectangle with background color
    
    4 -1 roll { 
      gsave 
	4 -1 roll exec fill 
      grestore 
    } if
    
    % Paint the image string into the unit rectangle
    
    2 copy true 3 -1 roll 0 0 5 -1 roll 0 0 6 array astore 5 -1 roll
    imagemask
  grestore
} def

% Symbols:

% Skinny-cross
/Sc {
  % Stack: x y symbolSize
  gsave
    3 -2 roll translate 45 rotate
    0 0 3 -1 roll Sp
  grestore
} def

% Skinny-plus
/Sp {
  % Stack: x y symbolSize
  gsave
    3 -2 roll translate
    2 idiv
    dup 2 copy
    newpath neg 0 moveto 0 lineto
    DrawSymbolProc
    newpath neg 0 exch moveto 0 exch lineto
    DrawSymbolProc
  grestore
} def

% Cross
/Cr {
  % Stack: x y symbolSize
  gsave
    3 -2 roll translate 45 rotate
    0 0 3 -1 roll Pl
  grestore
} def

% Plus
/Pl {
  % Stack: x y symbolSize
  gsave
    3 -2 roll translate
    dup 2 idiv
    exch 6 idiv

    %
    %          2   3		The plus/cross symbol is a
    %				closed polygon of 12 points.
    %      0   1   4    5	The diagram to the left
    %           x,y		represents the positions of
    %     11  10   7    6	the points which are computed
    %				below.
    %          9   8
    %

    newpath
    2 copy exch neg exch neg moveto dup neg dup lineto
    2 copy neg exch neg lineto 2 copy exch neg lineto
    dup dup neg lineto 2 copy neg lineto 2 copy lineto
    dup dup lineto 2 copy exch lineto 2 copy neg exch lineto
    dup dup neg exch lineto exch neg exch lineto
    closepath
    DrawSymbolProc
  grestore
} def

% Circle
/Ci {
  % Stack: x y symbolSize
  gsave
    3 copy pop
    moveto newpath
    2 div 0 360 arc
    closepath DrawSymbolProc
  grestore
} def

% Square
/Sq {
  % Stack: x y symbolSize
  gsave
    dup dup 2 div dup
    6 -1 roll exch sub exch
    5 -1 roll exch sub 4 -2 roll Box
    DrawSymbolProc
  grestore
} def

% Line
/Li {
  % Stack: x y symbolSize
  gsave
    3 1 roll exch 3 -1 roll 2 div 3 copy
    newpath
    sub exch moveto add exch lineto
    stroke
  grestore
} def

% Diamond
/Di {
  % Stack: x y symbolSize
  gsave
    3 1 roll translate 45 rotate 0 0 3 -1 roll Sq
  grestore
} def
    
% Triangle
/Tr {
  % Stack: x y symbolSize
  gsave
    3 -2 roll translate
    BaseRatio mul 0.5 mul		% Calculate 1/2 base
    dup 0 exch 30 cos mul		% h1 = height above center point
    neg					% b2 0 -h1
    newpath moveto			% point 1;  b2
    dup 30 sin 30 cos div mul		% h2 = height below center point
    2 copy lineto			% point 2;  b2 h2
    exch neg exch lineto		% 
    closepath
    DrawSymbolProc
  grestore
} def

% Arrow
/Ar {
  % Stack: x y symbolSize
  gsave
    3 -2 roll translate
    BaseRatio mul 0.5 mul		% Calculate 1/2 base
    dup 0 exch 30 cos mul		% h1 = height above center point
					% b2 0 h1
    newpath moveto			% point 1;  b2
    dup 30 sin 30 cos div mul		% h2 = height below center point
    neg					% -h2 b2
    2 copy lineto			% point 2;  b2 h2
    exch neg exch lineto		% 
    closepath
    DrawSymbolProc
  grestore
} def

% Bitmap
/Bm {
  % Stack: x y symbolSize
  gsave
    3 1 roll translate pop DrawSymbolProc
  grestore
} def

%%EndProlog

%%BeginSetup
gsave					% Save the graphics state

% Default line/text style parameters

1 setlinewidth				% width
1 setlinejoin				% join
0 setlinecap				% cap
[] 0 setdash				% dashes

/CL 0 def				% Set color level mode
0 0 0 setrgbcolor			% color

% Transform coordinate system to use X11 coordinates

% 1. Flip y-axis over by reversing the scale,
% 2. Translate the origin to the other side of the page,
%    making the origin the upper left corner
0.749127 -0.749262 scale
0 -1057 translate

% User defined page layout

% Set color level
/CL 2 def

% Set origin
185 342 translate


%%EndSetup

9 /Courier SetFont
57 6 385 341 Box

1 1 1 SetBgColor
Fill
gsave clip


% Element "Current"

0 setlinejoin
0 setlinecap
0 0 0 SetFgColor
2 setlinewidth
[ ] 0 setdash
/DashesProc {} def
/DashesProc {} def
 newpath 59 46.1837 moveto
 76.5109 46.1837 lineto
DashesProc stroke
 newpath  76.5109 46.1837 moveto
 115.957 46.1837 lineto
 155.402 46.1837 lineto
 194.848 46.1837 lineto
 212.094 46.2068 lineto
 221.765 46.6404 lineto
 227.683 48.1753 lineto
 231.21 50.503 lineto
 235.289 55.6462 lineto
 238.824 63.4619 lineto
 241.483 72.8972 lineto
 243.675 83.7239 lineto
 245.717 97.1108 lineto
 246.214 102.38 lineto
 246.86 109.186 lineto
 247.7 119.25 lineto
 248.791 135.867 lineto
 250.211 160.194 lineto
 252.056 187.819 lineto
 254.069 208.633 lineto
 256.188 221.497 lineto
 258.585 219.09 lineto
 259.326 213.367 lineto
 260.289 201.457 lineto
 260.915 191.559 lineto
 261.729 177.936 lineto
 262.786 161.041 lineto
 264.161 142.213 lineto
 265.949 123.005 lineto
 268.273 104.285 lineto
 271.294 85.9842 lineto
 274.506 69.6981 lineto
 277.339 57.0225 lineto
 279.98 47.6709 lineto
 282.726 40.9113 lineto
 285.726 36.4014 lineto
 289.06 33.9788 lineto
 292.888 33.5198 lineto
 297.539 34.8611 lineto
 303.585 37.6492 lineto
 311.445 40.9563 lineto
 321.663 43.8078 lineto
 334.946 45.7388 lineto
 352.214 46.8362 lineto
 374.662 47.3276 lineto
 403.845 47.3972 lineto
 439 47.2085 lineto
DashesProc stroke

% Element "Current.1"

0 setlinejoin
0 setlinecap
1 0 0 SetFgColor
2 setlinewidth
[ ] 0 setdash
/DashesProc {} def
/DashesProc {} def
 newpath 59 46.1837 moveto
 76.5109 46.1837 lineto
DashesProc stroke
 newpath  76.5109 46.1837 moveto
 115.957 46.1837 lineto
 155.402 46.1837 lineto
 194.848 46.1837 lineto
 212.094 46.1826 lineto
 221.765 46.1478 lineto
 227.683 45.6898 lineto
 231.21 44.4116 lineto
 235.289 42.7809 lineto
 238.824 41.1666 lineto
 241.483 40.5838 lineto
 243.675 42.6465 lineto
 245.717 47.7324 lineto
 246.214 51.3507 lineto
 246.86 54.0586 lineto
 247.7 57.5805 lineto
 248.791 61.8625 lineto
 250.211 67.3787 lineto
 252.056 73.8658 lineto
 254.069 89.5225 lineto
 256.188 119.968 lineto
 258.585 152.331 lineto
 259.326 162.319 lineto
 260.289 161.651 lineto
 260.915 158.197 lineto
 261.729 150.491 lineto
 262.786 138.767 lineto
 264.161 124.235 lineto
 265.949 108.542 lineto
 268.273 93.0792 lineto
 271.294 78.6852 lineto
 274.506 65.9159 lineto
 277.339 55.8391 lineto
 279.98 49.1211 lineto
 282.726 44.9852 lineto
 285.726 42.6959 lineto
 289.06 41.8354 lineto
 292.888 42.1108 lineto
 297.539 43.329 lineto
 303.585 45.3323 lineto
 311.445 47.8722 lineto
 321.663 49.2478 lineto
 334.946 50.8161 lineto
 352.214 52.1253 lineto
 374.662 52.9618 lineto
 403.845 53.283 lineto
 439 53.1586 lineto
DashesProc stroke

% Element "Current.2"

0 setlinejoin
0 setlinecap
0 0 1 SetFgColor
2 setlinewidth
[  5 5] 0 setdash
/DashesProc {} def
/DashesProc {} def
 newpath 59 46.1837 moveto
 76.5109 46.1837 lineto
DashesProc stroke
 newpath  76.5109 46.1837 moveto
 115.957 46.1837 lineto
 155.402 46.1837 lineto
 194.848 46.1837 lineto
 212.094 46.1885 lineto
 221.765 46.3988 lineto
 227.683 48.3032 lineto
 231.21 52.9787 lineto
 235.289 63.8895 lineto
 238.824 72.0351 lineto
 241.483 83.0993 lineto
 243.675 98.9648 lineto
 245.717 117.342 lineto
 246.214 128.844 lineto
 246.86 144.424 lineto
 247.7 174.621 lineto
 248.791 227.776 lineto
 250.211 284.632 lineto
 252.056 327.006 lineto
 254.069 344 lineto
 256.188 340.048 lineto
 258.585 320.762 lineto
 259.326 298.969 lineto
 260.289 267.341 lineto
 260.915 226.46 lineto
 261.729 209.848 lineto
 262.786 191.276 lineto
 264.161 171.301 lineto
 265.949 150.533 lineto
 268.273 129.238 lineto
 271.294 107.006 lineto
 274.506 83.9221 lineto
 277.339 62.8093 lineto
 279.98 44.7042 lineto
 282.726 29.5083 lineto
 285.726 17.6579 lineto
 289.06 10.1282 lineto
 292.888 8 lineto
 297.539 11.4512 lineto
 303.585 18.5204 lineto
 311.445 26.2796 lineto
 321.663 32.7674 lineto
 334.946 37.3762 lineto
 352.214 40.3009 lineto
 374.662 42.0252 lineto
 403.845 42.9485 lineto
 439 43.4552 lineto
DashesProc stroke
1 1 1 SetBgColor
291 143 147 65 Box fill

0 0 0 SetBgColor
291 207 147 1 Box fill

437 143 1 65 Box fill

0 0 0 SetBgColor
newpath 291 208 moveto
291 143 lineto
438 143 lineto
437 144 lineto
292 144 lineto
292 207 lineto
291 208 lineto
291 208  lineto closepath Fill
0 setlinejoin
0 setlinecap
0 0 1 SetFgColor
4 setlinewidth
[  5 5] 0 setdash
/DashesProc {} def
308 154 24 Li
110 15 0 379 154.5 BeginText
12 /Courier SetFont
0 0 0 SetFgColor
(NMOS strike) 110 0 12 DrawAdjText
EndText
0 setlinejoin
0 setlinecap
1 0 0 SetFgColor
4 setlinewidth
[ ] 0 setdash
/DashesProc {} def
308 175 24 Li
110 15 0 379 175.5 BeginText
12 /Courier SetFont
0 0 0 SetFgColor
(Pmos strike) 110 0 12 DrawAdjText
EndText
0 setlinejoin
0 setlinecap
0 0 0 SetFgColor
4 setlinewidth
[ ] 0 setdash
/DashesProc {} def
308 196 24 Li
100 15 0 374 196.5 BeginText
12 /Courier SetFont
0 0 0 SetFgColor
(Mid strike) 100 0 12 DrawAdjText
EndText

% Unset clipping
grestore

1 1 1 SetBgColor
0 0 447 8 Box fill

0 8 59 336 Box fill

439 8 8 336 Box fill

0 344 447 29 Box fill

1 1 1 SetBgColor
57 344 384 2 Box fill

439 6 2 340 Box fill

newpath 57 346 moveto
57 6 lineto
441 6 lineto
439 8 lineto
59 8 lineto
59 344 lineto
57 346 lineto
57 346  lineto closepath Fill
0 setlinejoin
0 setlinecap
0 0 0 SetFgColor
1 setlinewidth
[ ] 0 setdash
/DashesProc {} def
 newpath 59 344 moveto
 439 344 lineto
DashesProc stroke
0 setlinejoin
0 setlinecap
0 0 0 SetFgColor
1 setlinewidth
[ ] 0 setdash
/DashesProc {} def
 newpath 59 344 moveto
 59 8 lineto
DashesProc stroke
0 setlinejoin
0 setlinecap
0 0 0 SetFgColor
1 setlinewidth
[ ] 0 setdash
/DashesProc {} def
 newpath 59 8 moveto
 439 8 lineto
DashesProc stroke
0 setlinejoin
0 setlinecap
0 0 0 SetFgColor
1 setlinewidth
[ ] 0 setdash
/DashesProc {} def
 newpath 439 344 moveto
 439 8 lineto
DashesProc stroke
34 10 0 64.3668 359 BeginText
9 /Courier SetFont
0 0 0 SetFgColor
(2e-11) 30 2 8 DrawAdjText
EndText
34 10 0 195.853 359 BeginText
9 /Courier SetFont
0 0 0 SetFgColor
(4e-11) 30 2 8 DrawAdjText
EndText
34 10 0 327.338 359 BeginText
9 /Courier SetFont
0 0 0 SetFgColor
(6e-11) 30 2 8 DrawAdjText
EndText
0 setlinejoin
0 setlinecap
0 0 0 SetFgColor
1 setlinewidth
[ ] 0 setdash
/DashesProc {} def
59 344 moveto
 439 344 lineto
DashesProc stroke
90.6639 344 moveto
 90.6639 349 lineto
DashesProc stroke
116.961 344 moveto
 116.961 349 lineto
DashesProc stroke
143.258 344 moveto
 143.258 349 lineto
DashesProc stroke
169.555 344 moveto
 169.555 349 lineto
DashesProc stroke
64.3668 344 moveto
 64.3668 352 lineto
DashesProc stroke
222.15 344 moveto
 222.15 349 lineto
DashesProc stroke
248.447 344 moveto
 248.447 349 lineto
DashesProc stroke
274.744 344 moveto
 274.744 349 lineto
DashesProc stroke
301.041 344 moveto
 301.041 349 lineto
DashesProc stroke
195.853 344 moveto
 195.853 352 lineto
DashesProc stroke
353.636 344 moveto
 353.636 349 lineto
DashesProc stroke
379.933 344 moveto
 379.933 349 lineto
DashesProc stroke
406.23 344 moveto
 406.23 349 lineto
DashesProc stroke
432.527 344 moveto
 432.527 349 lineto
DashesProc stroke
327.338 344 moveto
 327.338 352 lineto
DashesProc stroke
40 10 0 29 200.696 BeginText
9 /Courier SetFont
0 0 0 SetFgColor
(-1e-05) 36 2 8 DrawAdjText
EndText
10 10 0 44 46.1837 BeginText
9 /Courier SetFont
0 0 0 SetFgColor
(0) 6 2 8 DrawAdjText
EndText
0 setlinejoin
0 setlinecap
0 0 0 SetFgColor
1 setlinewidth
[ ] 0 setdash
/DashesProc {} def
59 344 moveto
 59 8 lineto
DashesProc stroke
59 324.307 moveto
 54 324.307 lineto
DashesProc stroke
59 293.404 moveto
 54 293.404 lineto
DashesProc stroke
59 262.502 moveto
 54 262.502 lineto
DashesProc stroke
59 231.599 moveto
 54 231.599 lineto
DashesProc stroke
59 169.794 moveto
 54 169.794 lineto
DashesProc stroke
59 138.891 moveto
 54 138.891 lineto
DashesProc stroke
59 107.989 moveto
 54 107.989 lineto
DashesProc stroke
59 77.0862 moveto
 54 77.0862 lineto
DashesProc stroke
59 200.696 moveto
 51 200.696 lineto
DashesProc stroke
59 15.2811 moveto
 54 15.2811 lineto
DashesProc stroke
59 46.1837 moveto
 51 46.1837 lineto
DashesProc stroke
showpage
%Trailer
grestore
end
%EOF
