Idrain1,Idrain2,Isource1,Isource2,Tau1-drain1,Tau1-drain2,Tau1-source1,Tau1-Source2,Tau2-drain1,Tau2-drain2,Tau2-source1,Tau2-Source2,Qcoll-drain1,Qcoll-drain2,Qcoll-Source1,Qcoll-Source2
-2.06764570938e-06,-3.08405616246e-06,1.0327594863e-05,1.11788304113e-05,6.19369192126e-12,6.9816216306e-12,5.98141831183e-12,5.98141831183e-12,1.07209087773e-10,1.06421158063e-10,1.08171361382e-10,1.59826674786e-11,1.17238385433e-16,1.74870270778e-16,1.04050975559e-15,1.09224543712e-15
-1.20417445128e-06,-1.76132731889e-06,9.77170245709e-06,1.0564939763e-05,7.27166558538e-12,6.23861384371e-12,6.73374338542e-12,5.68828802623e-12,1.06131114109e-10,1.0716416585e-10,2.11329606125e-11,1.78551696872e-11,6.8278365006e-17,9.98697069562e-17,1.03321321535e-15,1.08493827529e-15
-1.8284333111e-06,-2.34619041637e-06,9.57273662403e-06,1.03324812952e-05,3.55819014862e-12,4.30819014862e-12,6.89148711851e-12,6.89148711851e-12,1.09844589545e-10,1.09844589545e-10,1.07261292575e-10,1.07261292575e-10,1.03674709982e-16,1.3391207886e-16,9.88928203924e-16,1.03699510102e-15
-1.1346230344e-05,-1.42702327053e-05,1.58745350134e-05,1.74394166892e-05,4.33570979022e-12,4.33570979022e-12,7.5338281361e-12,7.5338281361e-12,5.5824241581e-12,5.5824241581e-12,1.57230542709e-11,1.57230542709e-11,5.62667161801e-17,7.07670397225e-17,1.37182272345e-15,1.45890200708e-15
-7.51620419797e-06,-5.87688093778e-06,1.28512450123e-05,1.32520882336e-05,4.05374988311e-12,2.96805475719e-12,8.45000633633e-12,4.61715845499e-12,4.2296200553e-12,4.2296200553e-12,1.11208512312e-11,1.49536991125e-11,3.11297499522e-17,2.11499389509e-17,1.3090378621e-15,1.34568920702e-15
-1.92745437511e-05,-2.39118828996e-05,1.7207659648e-05,1.90157785427e-05,6.69831245799e-12,9.26163162409e-12,8.18505960327e-12,8.18505960327e-12,6.69831245799e-12,9.26163162409e-12,1.57586236069e-11,1.57586236069e-11,0.0,0.0,1.36686798245e-15,1.45539496688e-15
