%!PS-Adobe-3.0 EPSF-3.0
%%BoundingBox: 123 237 488 554
%%Pages: 0
%%Creator: (BLT 2.4 Graph)
%%CreationDate: (Sun Mar 20 13:05:27 2016)
%%Title: (/home/users/nanditha/sentaurus/65nm_mos/final/cmos_inv_3d/2inv/guardring/sim/GR-NoGR-1_11MeV.eps)
%%DocumentData: Clean7Bit
%%Orientation: Portrait
%%DocumentNeededResources: font Helvetica Courier
%%EndComments


% including file "/usr/local/Softwares/Sentaurus/Sentaurus_vG_2012.06/bin/../tcad/current/lib/bltGraph.pro"

%%BeginProlog
%
% PostScript prolog file of the BLT graph widget.
%
% Copyright 1989-1992 Regents of the University of California.
% Permission to use, copy, modify, and distribute this
% software and its documentation for any purpose and without
% fee is hereby granted, provided that the above copyright
% notice appear in all copies.  The University of California
% makes no representations about the suitability of this
% software for any purpose.  It is provided "as is" without
% express or implied warranty.
%
% Copyright 1991-1997 Bell Labs Innovations for Lucent Technologies.
%
% Permission to use, copy, modify, and distribute this software and its
% documentation for any purpose and without fee is hereby granted, provided
% that the above copyright notice appear in all copies and that both that the
% copyright notice and warranty disclaimer appear in supporting documentation,
% and that the names of Lucent Technologies any of their entities not be used
% in advertising or publicity pertaining to distribution of the software
% without specific, written prior permission.
%
% Lucent Technologies disclaims all warranties with regard to this software,
% including all implied warranties of merchantability and fitness.  In no event
% shall Lucent Technologies be liable for any special, indirect or
% consequential damages or any damages whatsoever resulting from loss of use,
% data or profits, whether in an action of contract, negligence or other
% tortuous action, arising out of or in connection with the use or performance
% of this software.
%

200 dict begin

/BaseRatio 1.3467736870885982 def	% Ratio triangle base / symbol size
/BgColorProc 0 def			% Background color routine (symbols)
/DrawSymbolProc 0 def			% Routine to draw symbol outline/fill
/StippleProc 0 def			% Stipple routine (bar segments)
/DashesProc 0 def			% Dashes routine (line segments)
  
% Define the array ISOLatin1Encoding (which specifies how characters are 
% encoded for ISO-8859-1 fonts), if it isn't already present (Postscript 
% level 2 is supposed to define it, but level 1 doesn't). 
 
systemdict /ISOLatin1Encoding known not { 
  /ISOLatin1Encoding [ 
    /space /space /space /space /space /space /space /space 
    /space /space /space /space /space /space /space /space 
    /space /space /space /space /space /space /space /space 
    /space /space /space /space /space /space /space /space 
    /space /exclam /quotedbl /numbersign /dollar /percent /ampersand 
    /quoteright 
    /parenleft /parenright /asterisk /plus /comma /minus /period /slash 
    /zero /one /two /three /four /five /six /seven 
    /eight /nine /colon /semicolon /less /equal /greater /question 
    /at /A /B /C /D /E /F /G 
    /H /I /J /K /L /M /N /O 
    /P /Q /R /S /T /U /V /W 
    /X /Y /Z /bracketleft /backslash /bracketright /asciicircum /underscore 
    /quoteleft /a /b /c /d /e /f /g 
    /h /i /j /k /l /m /n /o 
    /p /q /r /s /t /u /v /w 
    /x /y /z /braceleft /bar /braceright /asciitilde /space 
    /space /space /space /space /space /space /space /space 
    /space /space /space /space /space /space /space /space 
    /dotlessi /grave /acute /circumflex /tilde /macron /breve /dotaccent 
    /dieresis /space /ring /cedilla /space /hungarumlaut /ogonek /caron 
    /space /exclamdown /cent /sterling /currency /yen /brokenbar /section 
    /dieresis /copyright /ordfeminine /guillemotleft /logicalnot /hyphen 
    /registered /macron 
    /degree /plusminus /twosuperior /threesuperior /acute /mu /paragraph 
    /periodcentered 
    /cedillar /onesuperior /ordmasculine /guillemotright /onequarter 
    /onehalf /threequarters /questiondown 
    /Agrave /Aacute /Acircumflex /Atilde /Adieresis /Aring /AE /Ccedilla 
    /Egrave /Eacute /Ecircumflex /Edieresis /Igrave /Iacute /Icircumflex 
    /Idieresis 
    /Eth /Ntilde /Ograve /Oacute /Ocircumflex /Otilde /Odieresis /multiply 
    /Oslash /Ugrave /Uacute /Ucircumflex /Udieresis /Yacute /Thorn 
    /germandbls 
    /agrave /aacute /acircumflex /atilde /adieresis /aring /ae /ccedilla 
    /egrave /eacute /ecircumflex /edieresis /igrave /iacute /icircumflex 
    /idieresis 
    /eth /ntilde /ograve /oacute /ocircumflex /otilde /odieresis /divide 
    /oslash /ugrave /uacute /ucircumflex /udieresis /yacute /thorn 
    /ydieresis 
  ] def 
} if 

% font ISOEncode font 
% This procedure changes the encoding of a font from the default 
% Postscript encoding to ISOLatin1.  It is typically invoked just 
% before invoking "setfont".  The body of this procedure comes from 
% Section 5.6.1 of the Postscript book. 

/ISOEncode { 
  dup length dict
  begin 
    {1 index /FID ne {def} {pop pop} ifelse} forall 
    /Encoding ISOLatin1Encoding def 
    currentdict 
  end 

  % I'm not sure why it's necessary to use "definefont" on this new 
  % font, but it seems to be important; just use the name "Temporary" 
  % for the font. 

  /Temporary exch definefont 
} bind def 

/Stroke {
  gsave
    stroke
  grestore
} def

/Fill {
  gsave
    fill
  grestore
} def

/SetFont { 	
  % Stack: pointSize fontName
  findfont exch scalefont ISOEncode setfont
} def

/Box {
  % Stack: x y width height
  newpath
  exch 4 2 roll moveto
  dup 0 rlineto
  exch 0 exch rlineto
  neg 0 rlineto
  closepath
} def

/SetFgColor {
  % Stack: red green blue
  CL 0 eq { 
    pop pop pop 0 0 0 
  } if
  setrgbcolor
  CL 1 eq { 
    currentgray setgray 
  } if
} def

/SetBgColor {
  % Stack: red green blue
  CL 0 eq { 
    pop pop pop 1 1 1 
  } if
  setrgbcolor
  CL 1 eq { 
    currentgray setgray 
  } if
} def

% The next two definitions are taken from "$tk_library/prolog.ps"

% desiredSize EvenPixels closestSize
%
% The procedure below is used for stippling.  Given the optimal size
% of a dot in a stipple pattern in the current user coordinate system,
% compute the closest size that is an exact multiple of the device's
% pixel size.  This allows stipple patterns to be displayed without
% aliasing effects.

/EvenPixels {
  % Compute exact number of device pixels per stipple dot.
  dup 0 matrix currentmatrix dtransform
  dup mul exch dup mul add sqrt

  % Round to an integer, make sure the number is at least 1, and compute
  % user coord distance corresponding to this.
  dup round dup 1 lt {pop 1} if
  exch div mul
} bind def

% width height string filled StippleFill --
%
% Given a path and other graphics information already set up, this
% procedure will fill the current path in a stippled fashion.  "String"
% contains a proper image description of the stipple pattern and
% "width" and "height" give its dimensions.  If "filled" is true then
% it means that the area to be stippled is gotten by filling the
% current path (e.g. the interior of a polygon); if it's false, the
% area is gotten by stroking the current path (e.g. a wide line).
% Each stipple dot is assumed to be about one unit across in the
% current user coordinate system.

% width height string StippleFill --
%
% Given a path already set up and a clipping region generated from
% it, this procedure will fill the clipping region with a stipple
% pattern.  "String" contains a proper image description of the
% stipple pattern and "width" and "height" give its dimensions.  Each
% stipple dot is assumed to be about one unit across in the current
% user coordinate system.  This procedure trashes the graphics state.

/StippleFill {
    % The following code is needed to work around a NeWSprint bug.

    /tmpstip 1 index def

    % Change the scaling so that one user unit in user coordinates
    % corresponds to the size of one stipple dot.
    1 EvenPixels dup scale

    % Compute the bounding box occupied by the path (which is now
    % the clipping region), and round the lower coordinates down
    % to the nearest starting point for the stipple pattern.  Be
    % careful about negative numbers, since the rounding works
    % differently on them.

    pathbbox
    4 2 roll
    5 index div dup 0 lt {1 sub} if cvi 5 index mul 4 1 roll
    6 index div dup 0 lt {1 sub} if cvi 6 index mul 3 2 roll

    % Stack now: width height string y1 y2 x1 x2
    % Below is a doubly-nested for loop to iterate across this area
    % in units of the stipple pattern size, going up columns then
    % across rows, blasting out a stipple-pattern-sized rectangle at
    % each position

    6 index exch {
	2 index 5 index 3 index {
	    % Stack now: width height string y1 y2 x y

	    gsave
	    1 index exch translate
	    5 index 5 index true matrix tmpstip imagemask
	    grestore
	} for
	pop
    } for
    pop pop pop pop pop
} bind def


/LS {	% Stack: x1 y1 x2 y2
  newpath 4 2 roll moveto lineto stroke
} def

/EndText {
  %Stack :
  grestore
} def

/BeginText {
  %Stack :  w h theta centerX centerY
  gsave
    % Translate the origin to the center of bounding box and rotate
    translate neg rotate
    % Translate back to the origin of the text region
    -0.5 mul exch -0.5 mul exch translate
} def

/DrawAdjText {
  %Stack : str strWidth x y
  moveto				% Go to the text position
  exch dup dup 4 2 roll

  % Adjust character widths to get desired overall string width
  % adjust X = (desired width - real width)/#chars

  stringwidth pop sub exch
  length div
  0 3 -1 roll

  % Flip back the scale so that the string is not drawn in reverse

  gsave
    1 -1 scale
    ashow
  grestore
} def

/DrawBitmap {
  % Stack: ?bgColorProc? boolean centerX centerY width height theta imageStr
  gsave
    6 -2 roll translate			% Translate to center of bounding box
    4 1 roll neg rotate			% Rotate by theta
    
    % Find upperleft corner of bounding box
    
    2 copy -.5 mul exch -.5 mul exch translate
    2 copy scale			% Make pixel unit scale
    newpath
    0 0 moveto 0 1 lineto 1 1 lineto 1 0 lineto
    closepath
    
    % Fill rectangle with background color
    
    4 -1 roll { 
      gsave 
	4 -1 roll exec fill 
      grestore 
    } if
    
    % Paint the image string into the unit rectangle
    
    2 copy true 3 -1 roll 0 0 5 -1 roll 0 0 6 array astore 5 -1 roll
    imagemask
  grestore
} def

% Symbols:

% Skinny-cross
/Sc {
  % Stack: x y symbolSize
  gsave
    3 -2 roll translate 45 rotate
    0 0 3 -1 roll Sp
  grestore
} def

% Skinny-plus
/Sp {
  % Stack: x y symbolSize
  gsave
    3 -2 roll translate
    2 idiv
    dup 2 copy
    newpath neg 0 moveto 0 lineto
    DrawSymbolProc
    newpath neg 0 exch moveto 0 exch lineto
    DrawSymbolProc
  grestore
} def

% Cross
/Cr {
  % Stack: x y symbolSize
  gsave
    3 -2 roll translate 45 rotate
    0 0 3 -1 roll Pl
  grestore
} def

% Plus
/Pl {
  % Stack: x y symbolSize
  gsave
    3 -2 roll translate
    dup 2 idiv
    exch 6 idiv

    %
    %          2   3		The plus/cross symbol is a
    %				closed polygon of 12 points.
    %      0   1   4    5	The diagram to the left
    %           x,y		represents the positions of
    %     11  10   7    6	the points which are computed
    %				below.
    %          9   8
    %

    newpath
    2 copy exch neg exch neg moveto dup neg dup lineto
    2 copy neg exch neg lineto 2 copy exch neg lineto
    dup dup neg lineto 2 copy neg lineto 2 copy lineto
    dup dup lineto 2 copy exch lineto 2 copy neg exch lineto
    dup dup neg exch lineto exch neg exch lineto
    closepath
    DrawSymbolProc
  grestore
} def

% Circle
/Ci {
  % Stack: x y symbolSize
  gsave
    3 copy pop
    moveto newpath
    2 div 0 360 arc
    closepath DrawSymbolProc
  grestore
} def

% Square
/Sq {
  % Stack: x y symbolSize
  gsave
    dup dup 2 div dup
    6 -1 roll exch sub exch
    5 -1 roll exch sub 4 -2 roll Box
    DrawSymbolProc
  grestore
} def

% Line
/Li {
  % Stack: x y symbolSize
  gsave
    3 1 roll exch 3 -1 roll 2 div 3 copy
    newpath
    sub exch moveto add exch lineto
    stroke
  grestore
} def

% Diamond
/Di {
  % Stack: x y symbolSize
  gsave
    3 1 roll translate 45 rotate 0 0 3 -1 roll Sq
  grestore
} def
    
% Triangle
/Tr {
  % Stack: x y symbolSize
  gsave
    3 -2 roll translate
    BaseRatio mul 0.5 mul		% Calculate 1/2 base
    dup 0 exch 30 cos mul		% h1 = height above center point
    neg					% b2 0 -h1
    newpath moveto			% point 1;  b2
    dup 30 sin 30 cos div mul		% h2 = height below center point
    2 copy lineto			% point 2;  b2 h2
    exch neg exch lineto		% 
    closepath
    DrawSymbolProc
  grestore
} def

% Arrow
/Ar {
  % Stack: x y symbolSize
  gsave
    3 -2 roll translate
    BaseRatio mul 0.5 mul		% Calculate 1/2 base
    dup 0 exch 30 cos mul		% h1 = height above center point
					% b2 0 h1
    newpath moveto			% point 1;  b2
    dup 30 sin 30 cos div mul		% h2 = height below center point
    neg					% -h2 b2
    2 copy lineto			% point 2;  b2 h2
    exch neg exch lineto		% 
    closepath
    DrawSymbolProc
  grestore
} def

% Bitmap
/Bm {
  % Stack: x y symbolSize
  gsave
    3 1 roll translate pop DrawSymbolProc
  grestore
} def

%%EndProlog

%%BeginSetup
gsave					% Save the graphics state

% Default line/text style parameters

1 setlinewidth				% width
1 setlinejoin				% join
0 setlinecap				% cap
[] 0 setdash				% dashes

/CL 0 def				% Set color level mode
0 0 0 setrgbcolor			% color

% Transform coordinate system to use X11 coordinates

% 1. Flip y-axis over by reversing the scale,
% 2. Translate the origin to the other side of the page,
%    making the origin the upper left corner
0.75 -0.748031 scale
0 -1056 translate

% User defined page layout

% Set color level
/CL 2 def

% Set origin
164 316 translate


%%EndSetup

12 /Helvetica-Bold SetFont
81 6 401 373 Box

1 1 1 SetBgColor
Fill
gsave clip


% Element "Current"

0 setlinejoin
0 setlinecap
0 0.6 0 SetFgColor
2 setlinewidth
[  5 5] 0 setdash
/DashesProc {} def
/DashesProc {} def
 newpath 83 27.5707 moveto
 129.536 27.5707 lineto
DashesProc stroke
 newpath  129.536 27.5707 moveto
 136.256 27.5708 lineto
 144.992 27.5717 lineto
 147.831 27.5726 lineto
 149.677 27.5736 lineto
 152.076 27.5761 lineto
 155.195 27.5822 lineto
 159.25 27.5988 lineto
 164.521 27.6512 lineto
 171.373 27.8398 lineto
 180.281 28.5991 lineto
 191.861 31.6242 lineto
 198.082 35.2562 lineto
 205.031 41.0876 lineto
 212.615 48.1728 lineto
 220.345 54.7976 lineto
 229.339 59.5557 lineto
 239.924 71.0321 lineto
 249.049 91.8946 lineto
 256.757 99.5042 lineto
 265.316 93.7367 lineto
 276.444 77.5022 lineto
 290.909 57.2852 lineto
 309.713 42.2069 lineto
 334.16 37.1826 lineto
 365.94 37.1358 lineto
 407.254 36.9558 lineto
 460.962 35.6154 lineto
 479 35.0714 lineto
DashesProc stroke

% Element "Current.1"

0 setlinejoin
0 setlinecap
0.647059 0.164706 0.164706 SetFgColor
2 setlinewidth
[ ] 0 setdash
/DashesProc {} def
/DashesProc {} def
 newpath 83 27.5707 moveto
 129.536 27.5707 lineto
DashesProc stroke
 newpath  129.536 27.5707 moveto
 183.297 28.0271 lineto
 190.017 30.7973 lineto
 197.457 36.0827 lineto
 205.493 43.7812 lineto
 212.553 51.1247 lineto
 219.301 56.3535 lineto
 227.333 57.8425 lineto
 236.892 65.3745 lineto
 245.514 76.9425 lineto
 252.574 76.7224 lineto
 259.781 67.7518 lineto
 260.354 66.6352 lineto
 260.727 65.9258 lineto
 261.211 65.0143 lineto
 261.841 63.7934 lineto
 262.659 62.1534 lineto
 263.723 60.0155 lineto
 265.106 57.3568 lineto
 266.005 55.6522 lineto
 267.174 53.628 lineto
 268.693 51.2636 lineto
 270.668 48.587 lineto
 273.236 45.7354 lineto
 276.574 42.965 lineto
 280.913 40.6286 lineto
 286.554 39.0607 lineto
 293.888 38.3151 lineto
 303.421 38.1132 lineto
 315.814 38.0055 lineto
 331.926 37.6217 lineto
 352.871 36.8002 lineto
 380.099 35.5859 lineto
 415.496 34.1222 lineto
 461.512 32.57 lineto
 479 32.1187 lineto
DashesProc stroke

% Element "Current.2"

0 setlinejoin
0 setlinecap
0 0 1 SetFgColor
2 setlinewidth
[  5 5] 0 setdash
/DashesProc {} def
/DashesProc {} def
 newpath 83 27.5707 moveto
 129.536 27.5707 lineto
DashesProc stroke
 newpath  129.536 27.5707 moveto
 130.376 27.5707 lineto
 130.649 27.5707 lineto
 130.738 27.5707 lineto
 130.795 27.5707 lineto
 130.814 27.5707 lineto
 130.826 27.5707 lineto
 130.842 27.5707 lineto
 130.863 27.5707 lineto
 130.889 27.5707 lineto
 130.924 27.5707 lineto
 130.969 27.5707 lineto
 131.028 27.5707 lineto
 131.105 27.5707 lineto
 131.204 27.5707 lineto
 131.333 27.5707 lineto
 131.501 27.5707 lineto
 131.719 27.5707 lineto
 132.003 27.5707 lineto
 132.372 27.5707 lineto
 132.852 27.5707 lineto
 133.476 27.5708 lineto
 134.286 27.5709 lineto
 135.34 27.571 lineto
 136.71 27.5713 lineto
 138.491 27.5718 lineto
 140.807 27.5731 lineto
 143.817 27.5762 lineto
 147.73 27.5859 lineto
 152.817 27.6209 lineto
 159.43 27.7757 lineto
 168.027 28.5941 lineto
 179.203 33.3914 lineto
 183.7 38.9591 lineto
 187.912 48.3167 lineto
 192.017 63.1021 lineto
 195.61 82.9837 lineto
 198.762 107.564 lineto
 200.234 123.712 lineto
 202.148 147.587 lineto
 204.635 194.048 lineto
 207.695 263.009 lineto
 209.181 301.195 lineto
 211.114 342.596 lineto
 213.627 376 lineto
 216.894 370.237 lineto
 217.956 349.381 lineto
 219.336 317.447 lineto
 220.233 293.272 lineto
 221.399 263.675 lineto
 222.916 229.57 lineto
 224.887 193.209 lineto
 227.449 157.533 lineto
 230.78 124.799 lineto
 235.11 95.5159 lineto
 239.811 71.3 lineto
 244.06 53.305 lineto
 248.108 40.4091 lineto
 252.415 31.2541 lineto
 257.258 25.2267 lineto
 262.863 22.0428 lineto
 269.699 21.458 lineto
 278.586 23.0295 lineto
 284.363 24.2681 lineto
 291.873 26.1831 lineto
 301.635 28.1301 lineto
 314.326 29.8295 lineto
 330.825 31.1803 lineto
 352.273 32.1127 lineto
 380.156 32.5493 lineto
 416.404 32.4456 lineto
 463.526 31.8328 lineto
 479 31.5775 lineto
DashesProc stroke

% Element "Current.3"

0 setlinejoin
0 setlinecap
1 0 0 SetFgColor
2 setlinewidth
[ ] 0 setdash
/DashesProc {} def
/DashesProc {} def
 newpath 83 27.5707 moveto
 129.536 27.5707 lineto
DashesProc stroke
 newpath  129.536 27.5707 moveto
 153.04 27.6064 lineto
 166.221 28.2764 lineto
 174.287 30.6484 lineto
 179.094 34.2457 lineto
 184.653 42.194 lineto
 189.472 54.2723 lineto
 193.095 68.8536 lineto
 196.083 85.5849 lineto
 198.866 106.273 lineto
 199.543 114.416 lineto
 200.423 124.935 lineto
 201.568 140.486 lineto
 203.056 166.167 lineto
 204.99 203.76 lineto
 207.505 246.453 lineto
 210.249 278.618 lineto
 213.136 298.499 lineto
 216.404 294.778 lineto
 217.414 285.935 lineto
 218.726 267.529 lineto
 219.579 252.232 lineto
 220.688 231.18 lineto
 222.13 205.07 lineto
 224.004 175.973 lineto
 226.44 146.29 lineto
 229.608 117.361 lineto
 233.725 89.0781 lineto
 238.103 63.9096 lineto
 241.964 44.3209 lineto
 245.563 29.869 lineto
 249.306 19.4227 lineto
 253.395 12.4532 lineto
 257.939 8.70934 lineto
 263.156 8 lineto
 269.494 10.0729 lineto
 277.735 14.3815 lineto
 288.447 19.4923 lineto
 302.373 23.899 lineto
 320.477 26.8831 lineto
 344.011 28.579 lineto
 374.607 29.3385 lineto
 414.381 29.446 lineto
 463.866 29.1448 lineto
 479 29.0195 lineto
DashesProc stroke
1 1 1 SetBgColor
317 147 161 90 Box fill

0 0 0 SetBgColor
317 236 161 1 Box fill

477 147 1 90 Box fill

0 0 0 SetBgColor
newpath 317 237 moveto
317 147 lineto
478 147 lineto
477 148 lineto
318 148 lineto
318 236 lineto
317 237 lineto
317 237  lineto closepath Fill
0 setlinejoin
0 setlinecap
1 0 0 SetFgColor
4 setlinewidth
[ ] 0 setdash
/DashesProc {} def
336 159 28 Li
90 16 0 399 159 BeginText
12 /Helvetica-Bold SetFont
0 0 0 SetFgColor
(GR- 11MeV) 90 0 14 DrawAdjText
EndText
0 setlinejoin
0 setlinecap
0 0 1 SetFgColor
4 setlinewidth
[  5 5] 0 setdash
/DashesProc {} def
336 181 28 Li
120 16 0 414 181 BeginText
12 /Helvetica-Bold SetFont
0 0 0 SetFgColor
(No GR- 11MeV) 120 0 14 DrawAdjText
EndText
0 setlinejoin
0 setlinecap
0.647059 0.164706 0.164706 SetFgColor
4 setlinewidth
[ ] 0 setdash
/DashesProc {} def
336 203 28 Li
80 16 0 394 203 BeginText
12 /Helvetica-Bold SetFont
0 0 0 SetFgColor
(GR- 1MeV) 80 0 14 DrawAdjText
EndText
0 setlinejoin
0 setlinecap
0 0.6 0 SetFgColor
4 setlinewidth
[  5 5] 0 setdash
/DashesProc {} def
336 225 28 Li
110 16 0 409 225 BeginText
12 /Helvetica-Bold SetFont
0 0 0 SetFgColor
(No GR- 1MeV) 110 0 14 DrawAdjText
EndText

% Unset clipping
grestore

1 1 1 SetBgColor
0 0 487 8 Box fill

0 8 83 368 Box fill

479 8 8 368 Box fill

0 376 487 48 Box fill

1 1 1 SetBgColor
81 376 400 2 Box fill

479 6 2 372 Box fill

newpath 81 378 moveto
81 6 lineto
481 6 lineto
479 8 lineto
83 8 lineto
83 376 lineto
81 378 lineto
81 378  lineto closepath Fill
0 setlinejoin
0 setlinecap
0 0 0 SetFgColor
1 setlinewidth
[ ] 0 setdash
/DashesProc {} def
 newpath 83 376 moveto
 479 376 lineto
DashesProc stroke
0 setlinejoin
0 setlinecap
0 0 0 SetFgColor
1 setlinewidth
[ ] 0 setdash
/DashesProc {} def
 newpath 83 376 moveto
 83 8 lineto
DashesProc stroke
0 setlinejoin
0 setlinecap
0 0 0 SetFgColor
1 setlinewidth
[ ] 0 setdash
/DashesProc {} def
 newpath 83 8 moveto
 479 8 lineto
DashesProc stroke
0 setlinejoin
0 setlinecap
0 0 0 SetFgColor
1 setlinewidth
[ ] 0 setdash
/DashesProc {} def
 newpath 479 376 moveto
 479 8 lineto
DashesProc stroke
80 16 0 281 413 BeginText
12 /Helvetica-Bold SetFont
0 0 0 SetFgColor
(Time \(s\)) 80 0 14 DrawAdjText
EndText
39 11 0 130.905 391.5 BeginText
12 /Helvetica-Bold SetFont
0 0 0 SetFgColor
(4e-11) 35 2 10 DrawAdjText
EndText
39 11 0 220.507 391.5 BeginText
12 /Helvetica-Bold SetFont
0 0 0 SetFgColor
(5e-11) 35 2 10 DrawAdjText
EndText
39 11 0 310.109 391.5 BeginText
12 /Helvetica-Bold SetFont
0 0 0 SetFgColor
(6e-11) 35 2 10 DrawAdjText
EndText
39 11 0 399.71 391.5 BeginText
12 /Helvetica-Bold SetFont
0 0 0 SetFgColor
(7e-11) 35 2 10 DrawAdjText
EndText
0 setlinejoin
0 setlinecap
0 0 0 SetFgColor
1 setlinewidth
[ ] 0 setdash
/DashesProc {} def
83 376 moveto
 479 376 lineto
DashesProc stroke
95.0639 376 moveto
 95.0639 381 lineto
DashesProc stroke
112.984 376 moveto
 112.984 381 lineto
DashesProc stroke
148.825 376 moveto
 148.825 381 lineto
DashesProc stroke
166.745 376 moveto
 166.745 381 lineto
DashesProc stroke
184.666 376 moveto
 184.666 381 lineto
DashesProc stroke
202.586 376 moveto
 202.586 381 lineto
DashesProc stroke
130.905 376 moveto
 130.905 384 lineto
DashesProc stroke
238.427 376 moveto
 238.427 381 lineto
DashesProc stroke
256.347 376 moveto
 256.347 381 lineto
DashesProc stroke
274.268 376 moveto
 274.268 381 lineto
DashesProc stroke
292.188 376 moveto
 292.188 381 lineto
DashesProc stroke
220.507 376 moveto
 220.507 384 lineto
DashesProc stroke
328.029 376 moveto
 328.029 381 lineto
DashesProc stroke
345.949 376 moveto
 345.949 381 lineto
DashesProc stroke
363.87 376 moveto
 363.87 381 lineto
DashesProc stroke
381.79 376 moveto
 381.79 381 lineto
DashesProc stroke
310.109 376 moveto
 310.109 384 lineto
DashesProc stroke
417.631 376 moveto
 417.631 381 lineto
DashesProc stroke
435.551 376 moveto
 435.551 381 lineto
DashesProc stroke
453.472 376 moveto
 453.472 381 lineto
DashesProc stroke
471.392 376 moveto
 471.392 381 lineto
DashesProc stroke
399.71 376 moveto
 399.71 384 lineto
DashesProc stroke
110 16 90 11 192 BeginText
12 /Helvetica-Bold SetFont
0 0 0 SetFgColor
(Current \(A\)) 110 0 14 DrawAdjText
EndText
46 11 0 50 266.353 BeginText
12 /Helvetica-Bold SetFont
0 0 0 SetFgColor
(-1e-05) 42 2 10 DrawAdjText
EndText
46 11 0 50 146.962 BeginText
12 /Helvetica-Bold SetFont
0 0 0 SetFgColor
(-5e-06) 42 2 10 DrawAdjText
EndText
11 11 0 67.5 27.5707 BeginText
12 /Helvetica-Bold SetFont
0 0 0 SetFgColor
(0) 7 2 10 DrawAdjText
EndText
0 setlinejoin
0 setlinecap
0 0 0 SetFgColor
1 setlinewidth
[ ] 0 setdash
/DashesProc {} def
83 376 moveto
 83 8 lineto
DashesProc stroke
83 361.866 moveto
 78 361.866 lineto
DashesProc stroke
83 337.988 moveto
 78 337.988 lineto
DashesProc stroke
83 314.11 moveto
 78 314.11 lineto
DashesProc stroke
83 290.232 moveto
 78 290.232 lineto
DashesProc stroke
83 242.475 moveto
 78 242.475 lineto
DashesProc stroke
83 218.597 moveto
 78 218.597 lineto
DashesProc stroke
83 194.719 moveto
 78 194.719 lineto
DashesProc stroke
83 170.84 moveto
 78 170.84 lineto
DashesProc stroke
83 266.353 moveto
 75 266.353 lineto
DashesProc stroke
83 123.084 moveto
 78 123.084 lineto
DashesProc stroke
83 99.2055 moveto
 78 99.2055 lineto
DashesProc stroke
83 75.3272 moveto
 78 75.3272 lineto
DashesProc stroke
83 51.449 moveto
 78 51.449 lineto
DashesProc stroke
83 146.962 moveto
 75 146.962 lineto
DashesProc stroke
83 27.5707 moveto
 75 27.5707 lineto
DashesProc stroke
showpage
%Trailer
grestore
end
%EOF
