Time,Inv1_out,Inv2_out,Subs,Subs2
2.18472203061060E-11,3.97891016742314E-14,-1.57478287208929E-13,-1.55013289505640E-15,-1.54229159800353E-15
2.78472203061060E-11,1.90053383256766E-13,-1.31831752377824E-13,-1.41194664579741E-15,-1.39066015429233E-15
3.38472203061060E-11,3.40388936785856E-13,-1.05889633088561E-13,-9.15010308952129E-16,-1.88543914828618E-15
3.98472203061060E-11,-3.10159607688136E-12,-3.00126815889198E-12,4.74393552976451E-11,5.38683485529445E-11
4.13472203061060E-11,-3.11484089213321E-10,-3.74487603776765E-10,1.30878503998594E-09,1.56069462715699E-09
4.32972203061060E-11,-1.39234137485299E-08,-1.67595018730704E-08,7.33532557655072E-08,8.66982405841479E-08
4.45555422372200E-11,-1.37171400705966E-07,-1.62715823426139E-07,5.23379690090573E-07,6.27395317344422E-07
4.52969547051518E-11,-4.39770806388550E-07,-5.16474668404933E-07,1.37166617179980E-06,1.65914272376540E-06
4.60957501257383E-11,-1.14591268636703E-06,-1.35741090168747E-06,3.54157076215987E-06,4.27272208283054E-06
4.63955374139121E-11,-1.67309187659447E-06,-1.97201542479540E-06,4.68789659766787E-06,5.65648047794856E-06
4.67342740709239E-11,-2.38916048623479E-06,-2.83215964538002E-06,6.32985711189462E-06,7.61652211995803E-06
4.71431678555314E-11,-3.41597072462904E-06,-4.09438692281972E-06,8.70075707065283E-06,1.03820820675916E-05
4.75287794411286E-11,-4.60535902102747E-06,-5.57833380135002E-06,1.10818283903333E-05,1.30798267323771E-05
4.76997113273653E-11,-5.34971663179853E-06,-6.50156866702543E-06,1.20821022642936E-05,1.41839036288211E-05
4.79219227794731E-11,-6.35809060722240E-06,-7.78548430231786E-06,1.33063492550124E-05,1.54694881671129E-05
4.82107976672131E-11,-8.31238821811333E-06,-1.01812113125188E-05,1.44529395645300E-05,1.64509085113438E-05
4.85559254964208E-11,-1.17525536170663E-05,-1.38136539062528E-05,1.50198174178407E-05,1.67134852568151E-05
4.89000914084054E-11,-1.54322432995476E-05,-1.76180165453887E-05,1.50978778226207E-05,1.64889347673942E-05
4.92350236528914E-11,-1.81746757277127E-05,-2.10120102896086E-05,1.51231332788446E-05,1.63750614123702E-05
4.95960929913945E-11,-1.92745468527456E-05,-2.33726477992862E-05,1.53512277912287E-05,1.66392379888623E-05
4.98168794476946E-11,-1.90187693662266E-05,-2.39118859009000E-05,1.55929051319788E-05,1.69462254655826E-05
5.01039018408847E-11,-1.77705992530968E-05,-2.34605778474606E-05,1.59810259847972E-05,1.74307424778477E-05
5.02904663964583E-11,-1.63601577565307E-05,-2.22860941031774E-05,1.62511081426442E-05,1.77722386121749E-05
5.05330003187039E-11,-1.43131957931619E-05,-2.03079036051505E-05,1.65664900053160E-05,1.81748843733560E-05
5.08482944176233E-11,-1.16673894276302E-05,-1.75416693179638E-05,1.68897049755555E-05,1.85916476152933E-05
5.09507649997721E-11,-1.05923152880932E-05,-1.63689593846724E-05,1.69793378841715E-05,1.87097728450420E-05
5.10839767565655E-11,-9.39033064482902E-06,-1.50681340523584E-05,1.70718801548586E-05,1.88316071404386E-05
5.12571520403969E-11,-8.09754536595742E-06,-1.36593608252033E-05,1.71552636405747E-05,1.89425838080187E-05
5.14822799093778E-11,-6.75345825549507E-06,-1.21617456878213E-05,1.72077070873180E-05,1.90158324110817E-05
5.17749461390530E-11,-5.37522690896445E-06,-1.05789849779034E-05,1.71916164410331E-05,1.90048952219697E-05
5.21554122376307E-11,-3.93636454992611E-06,-8.87248641488098E-06,1.70482949179696E-05,1.88379665475379E-05
5.26201955747432E-11,-2.44241548174812E-06,-7.04228109851864E-06,1.67226787759527E-05,1.84479482453484E-05
5.30845154003518E-11,-1.07600446986204E-06,-5.31896294519428E-06,1.62719314042641E-05,1.79046995100166E-05
5.35492001599414E-11,9.57529084356619E-08,-3.75957403302283E-06,1.57493129759460E-05,1.72738514099200E-05
5.40569842298761E-11,1.07922343708179E-06,-2.32265229516108E-06,1.51579749771409E-05,1.65603411107491E-05
5.46470056728158E-11,1.84617670182951E-06,-1.02348205675547E-06,1.45048345012901E-05,1.57736087057285E-05
5.53632664452367E-11,2.33349689269990E-06,6.61197251184867E-08,1.38142259864543E-05,1.49435505226382E-05
5.62944054493838E-11,2.47123267724966E-06,8.58223672902016E-07,1.31130115020990E-05,1.41032548914869E-05
5.75048861547751E-11,2.24787256332466E-06,1.25878466824342E-06,1.24812945591266E-05,1.33510168058077E-05
5.90785110717838E-11,1.79035941238754E-06,1.30550313341559E-06,1.19831750812622E-05,1.27636589868221E-05
6.11242234638950E-11,1.28818658426420E-06,1.13277923497895E-06,1.16485035838082E-05,1.23733137333034E-05
6.37836495736397E-11,8.68299329812638E-07,8.71326567742397E-07,1.14719760501213E-05,1.21671302478860E-05
6.72409035163077E-11,5.70020312039651E-07,6.14530687650553E-07,1.14183145772856E-05,1.20989016993115E-05
7.17353336417762E-11,3.80731164617112E-07,4.18587930581466E-07,1.14417090394479E-05,1.21148480675631E-05
7.75780928048852E-11,2.69136321302615E-07,3.01462567363911E-07,1.15058412937048E-05,1.21753148658042E-05
8.35780928048852E-11,2.09381961627757E-07,2.52113205879238E-07,1.15727082541336E-05,1.22417777547623E-05
8.95780928048853E-11,1.75508072315750E-07,2.34886861949436E-07,1.16326898588343E-05,1.23036073702708E-05
9.55780928048853E-11,1.53361692657606E-07,2.29735395890411E-07,1.16847066673604E-05,1.23589640667170E-05
1.01578092804885E-10,1.36773030130210E-07,2.27312173151122E-07,1.17291862271519E-05,1.24078865487848E-05
1.07578092804885E-10,1.23127076522955E-07,2.23841370987680E-07,1.17671128458270E-05,1.24509088176154E-05
1.13578092804885E-10,1.11318091671289E-07,2.18197599058295E-07,1.17994386243662E-05,1.24886939486780E-05
1.19578092804885E-10,1.00826727832381E-07,2.10397459689265E-07,1.18269925050363E-05,1.25218897771927E-05
1.25578092804885E-10,9.14011517572349E-08,2.00890543500045E-07,1.18504883578550E-05,1.25510863405429E-05
1.31578092804885E-10,8.26408177306023E-08,1.90044434178515E-07,1.18705313821640E-05,1.25767541448914E-05
1.37578092804885E-10,7.51937980146523E-08,1.78825182841082E-07,1.18877148697013E-05,1.25995575347894E-05
1.43578092804885E-10,6.82367317980372E-08,1.67174069021946E-07,1.19024501370307E-05,1.26197265729357E-05
1.49578092804885E-10,6.19360513454147E-08,1.55548318333989E-07,1.19151473016647E-05,1.26376533670499E-05
1.55578092804885E-10,5.60192324160349E-08,1.43844703046092E-07,1.19261124584527E-05,1.26536420479202E-05
1.60000000000000E-10,5.21007693744585E-08,1.35589021046969E-07,1.19334062548779E-05,1.26645489167815E-05
