%!PS-Adobe-3.0 EPSF-3.0
%%BoundingBox: 110 214 502 579
%%Pages: 0
%%Creator: (BLT 2.4 Graph)
%%CreationDate: (Tue Nov  8 17:10:16 2016)
%%Title: (/home/users/nanditha/sentaurus/65nm_mos/final/cmos_inv_3d/2inv/guardring/guard_5MeV/GR-no_GR_body_5MeV.eps)
%%DocumentData: Clean7Bit
%%Orientation: Portrait
%%DocumentNeededResources: font Helvetica Courier
%%EndComments


% including file "/usr/local/Softwares/Sentaurus/Sentaurus_vG_2012.06/bin/../tcad/current/lib/bltGraph.pro"

%%BeginProlog
%
% PostScript prolog file of the BLT graph widget.
%
% Copyright 1989-1992 Regents of the University of California.
% Permission to use, copy, modify, and distribute this
% software and its documentation for any purpose and without
% fee is hereby granted, provided that the above copyright
% notice appear in all copies.  The University of California
% makes no representations about the suitability of this
% software for any purpose.  It is provided "as is" without
% express or implied warranty.
%
% Copyright 1991-1997 Bell Labs Innovations for Lucent Technologies.
%
% Permission to use, copy, modify, and distribute this software and its
% documentation for any purpose and without fee is hereby granted, provided
% that the above copyright notice appear in all copies and that both that the
% copyright notice and warranty disclaimer appear in supporting documentation,
% and that the names of Lucent Technologies any of their entities not be used
% in advertising or publicity pertaining to distribution of the software
% without specific, written prior permission.
%
% Lucent Technologies disclaims all warranties with regard to this software,
% including all implied warranties of merchantability and fitness.  In no event
% shall Lucent Technologies be liable for any special, indirect or
% consequential damages or any damages whatsoever resulting from loss of use,
% data or profits, whether in an action of contract, negligence or other
% tortuous action, arising out of or in connection with the use or performance
% of this software.
%

200 dict begin

/BaseRatio 1.3467736870885982 def	% Ratio triangle base / symbol size
/BgColorProc 0 def			% Background color routine (symbols)
/DrawSymbolProc 0 def			% Routine to draw symbol outline/fill
/StippleProc 0 def			% Stipple routine (bar segments)
/DashesProc 0 def			% Dashes routine (line segments)
  
% Define the array ISOLatin1Encoding (which specifies how characters are 
% encoded for ISO-8859-1 fonts), if it isn't already present (Postscript 
% level 2 is supposed to define it, but level 1 doesn't). 
 
systemdict /ISOLatin1Encoding known not { 
  /ISOLatin1Encoding [ 
    /space /space /space /space /space /space /space /space 
    /space /space /space /space /space /space /space /space 
    /space /space /space /space /space /space /space /space 
    /space /space /space /space /space /space /space /space 
    /space /exclam /quotedbl /numbersign /dollar /percent /ampersand 
    /quoteright 
    /parenleft /parenright /asterisk /plus /comma /minus /period /slash 
    /zero /one /two /three /four /five /six /seven 
    /eight /nine /colon /semicolon /less /equal /greater /question 
    /at /A /B /C /D /E /F /G 
    /H /I /J /K /L /M /N /O 
    /P /Q /R /S /T /U /V /W 
    /X /Y /Z /bracketleft /backslash /bracketright /asciicircum /underscore 
    /quoteleft /a /b /c /d /e /f /g 
    /h /i /j /k /l /m /n /o 
    /p /q /r /s /t /u /v /w 
    /x /y /z /braceleft /bar /braceright /asciitilde /space 
    /space /space /space /space /space /space /space /space 
    /space /space /space /space /space /space /space /space 
    /dotlessi /grave /acute /circumflex /tilde /macron /breve /dotaccent 
    /dieresis /space /ring /cedilla /space /hungarumlaut /ogonek /caron 
    /space /exclamdown /cent /sterling /currency /yen /brokenbar /section 
    /dieresis /copyright /ordfeminine /guillemotleft /logicalnot /hyphen 
    /registered /macron 
    /degree /plusminus /twosuperior /threesuperior /acute /mu /paragraph 
    /periodcentered 
    /cedillar /onesuperior /ordmasculine /guillemotright /onequarter 
    /onehalf /threequarters /questiondown 
    /Agrave /Aacute /Acircumflex /Atilde /Adieresis /Aring /AE /Ccedilla 
    /Egrave /Eacute /Ecircumflex /Edieresis /Igrave /Iacute /Icircumflex 
    /Idieresis 
    /Eth /Ntilde /Ograve /Oacute /Ocircumflex /Otilde /Odieresis /multiply 
    /Oslash /Ugrave /Uacute /Ucircumflex /Udieresis /Yacute /Thorn 
    /germandbls 
    /agrave /aacute /acircumflex /atilde /adieresis /aring /ae /ccedilla 
    /egrave /eacute /ecircumflex /edieresis /igrave /iacute /icircumflex 
    /idieresis 
    /eth /ntilde /ograve /oacute /ocircumflex /otilde /odieresis /divide 
    /oslash /ugrave /uacute /ucircumflex /udieresis /yacute /thorn 
    /ydieresis 
  ] def 
} if 

% font ISOEncode font 
% This procedure changes the encoding of a font from the default 
% Postscript encoding to ISOLatin1.  It is typically invoked just 
% before invoking "setfont".  The body of this procedure comes from 
% Section 5.6.1 of the Postscript book. 

/ISOEncode { 
  dup length dict
  begin 
    {1 index /FID ne {def} {pop pop} ifelse} forall 
    /Encoding ISOLatin1Encoding def 
    currentdict 
  end 

  % I'm not sure why it's necessary to use "definefont" on this new 
  % font, but it seems to be important; just use the name "Temporary" 
  % for the font. 

  /Temporary exch definefont 
} bind def 

/Stroke {
  gsave
    stroke
  grestore
} def

/Fill {
  gsave
    fill
  grestore
} def

/SetFont { 	
  % Stack: pointSize fontName
  findfont exch scalefont ISOEncode setfont
} def

/Box {
  % Stack: x y width height
  newpath
  exch 4 2 roll moveto
  dup 0 rlineto
  exch 0 exch rlineto
  neg 0 rlineto
  closepath
} def

/SetFgColor {
  % Stack: red green blue
  CL 0 eq { 
    pop pop pop 0 0 0 
  } if
  setrgbcolor
  CL 1 eq { 
    currentgray setgray 
  } if
} def

/SetBgColor {
  % Stack: red green blue
  CL 0 eq { 
    pop pop pop 1 1 1 
  } if
  setrgbcolor
  CL 1 eq { 
    currentgray setgray 
  } if
} def

% The next two definitions are taken from "$tk_library/prolog.ps"

% desiredSize EvenPixels closestSize
%
% The procedure below is used for stippling.  Given the optimal size
% of a dot in a stipple pattern in the current user coordinate system,
% compute the closest size that is an exact multiple of the device's
% pixel size.  This allows stipple patterns to be displayed without
% aliasing effects.

/EvenPixels {
  % Compute exact number of device pixels per stipple dot.
  dup 0 matrix currentmatrix dtransform
  dup mul exch dup mul add sqrt

  % Round to an integer, make sure the number is at least 1, and compute
  % user coord distance corresponding to this.
  dup round dup 1 lt {pop 1} if
  exch div mul
} bind def

% width height string filled StippleFill --
%
% Given a path and other graphics information already set up, this
% procedure will fill the current path in a stippled fashion.  "String"
% contains a proper image description of the stipple pattern and
% "width" and "height" give its dimensions.  If "filled" is true then
% it means that the area to be stippled is gotten by filling the
% current path (e.g. the interior of a polygon); if it's false, the
% area is gotten by stroking the current path (e.g. a wide line).
% Each stipple dot is assumed to be about one unit across in the
% current user coordinate system.

% width height string StippleFill --
%
% Given a path already set up and a clipping region generated from
% it, this procedure will fill the clipping region with a stipple
% pattern.  "String" contains a proper image description of the
% stipple pattern and "width" and "height" give its dimensions.  Each
% stipple dot is assumed to be about one unit across in the current
% user coordinate system.  This procedure trashes the graphics state.

/StippleFill {
    % The following code is needed to work around a NeWSprint bug.

    /tmpstip 1 index def

    % Change the scaling so that one user unit in user coordinates
    % corresponds to the size of one stipple dot.
    1 EvenPixels dup scale

    % Compute the bounding box occupied by the path (which is now
    % the clipping region), and round the lower coordinates down
    % to the nearest starting point for the stipple pattern.  Be
    % careful about negative numbers, since the rounding works
    % differently on them.

    pathbbox
    4 2 roll
    5 index div dup 0 lt {1 sub} if cvi 5 index mul 4 1 roll
    6 index div dup 0 lt {1 sub} if cvi 6 index mul 3 2 roll

    % Stack now: width height string y1 y2 x1 x2
    % Below is a doubly-nested for loop to iterate across this area
    % in units of the stipple pattern size, going up columns then
    % across rows, blasting out a stipple-pattern-sized rectangle at
    % each position

    6 index exch {
	2 index 5 index 3 index {
	    % Stack now: width height string y1 y2 x y

	    gsave
	    1 index exch translate
	    5 index 5 index true matrix tmpstip imagemask
	    grestore
	} for
	pop
    } for
    pop pop pop pop pop
} bind def


/LS {	% Stack: x1 y1 x2 y2
  newpath 4 2 roll moveto lineto stroke
} def

/EndText {
  %Stack :
  grestore
} def

/BeginText {
  %Stack :  w h theta centerX centerY
  gsave
    % Translate the origin to the center of bounding box and rotate
    translate neg rotate
    % Translate back to the origin of the text region
    -0.5 mul exch -0.5 mul exch translate
} def

/DrawAdjText {
  %Stack : str strWidth x y
  moveto				% Go to the text position
  exch dup dup 4 2 roll

  % Adjust character widths to get desired overall string width
  % adjust X = (desired width - real width)/#chars

  stringwidth pop sub exch
  length div
  0 3 -1 roll

  % Flip back the scale so that the string is not drawn in reverse

  gsave
    1 -1 scale
    ashow
  grestore
} def

/DrawBitmap {
  % Stack: ?bgColorProc? boolean centerX centerY width height theta imageStr
  gsave
    6 -2 roll translate			% Translate to center of bounding box
    4 1 roll neg rotate			% Rotate by theta
    
    % Find upperleft corner of bounding box
    
    2 copy -.5 mul exch -.5 mul exch translate
    2 copy scale			% Make pixel unit scale
    newpath
    0 0 moveto 0 1 lineto 1 1 lineto 1 0 lineto
    closepath
    
    % Fill rectangle with background color
    
    4 -1 roll { 
      gsave 
	4 -1 roll exec fill 
      grestore 
    } if
    
    % Paint the image string into the unit rectangle
    
    2 copy true 3 -1 roll 0 0 5 -1 roll 0 0 6 array astore 5 -1 roll
    imagemask
  grestore
} def

% Symbols:

% Skinny-cross
/Sc {
  % Stack: x y symbolSize
  gsave
    3 -2 roll translate 45 rotate
    0 0 3 -1 roll Sp
  grestore
} def

% Skinny-plus
/Sp {
  % Stack: x y symbolSize
  gsave
    3 -2 roll translate
    2 idiv
    dup 2 copy
    newpath neg 0 moveto 0 lineto
    DrawSymbolProc
    newpath neg 0 exch moveto 0 exch lineto
    DrawSymbolProc
  grestore
} def

% Cross
/Cr {
  % Stack: x y symbolSize
  gsave
    3 -2 roll translate 45 rotate
    0 0 3 -1 roll Pl
  grestore
} def

% Plus
/Pl {
  % Stack: x y symbolSize
  gsave
    3 -2 roll translate
    dup 2 idiv
    exch 6 idiv

    %
    %          2   3		The plus/cross symbol is a
    %				closed polygon of 12 points.
    %      0   1   4    5	The diagram to the left
    %           x,y		represents the positions of
    %     11  10   7    6	the points which are computed
    %				below.
    %          9   8
    %

    newpath
    2 copy exch neg exch neg moveto dup neg dup lineto
    2 copy neg exch neg lineto 2 copy exch neg lineto
    dup dup neg lineto 2 copy neg lineto 2 copy lineto
    dup dup lineto 2 copy exch lineto 2 copy neg exch lineto
    dup dup neg exch lineto exch neg exch lineto
    closepath
    DrawSymbolProc
  grestore
} def

% Circle
/Ci {
  % Stack: x y symbolSize
  gsave
    3 copy pop
    moveto newpath
    2 div 0 360 arc
    closepath DrawSymbolProc
  grestore
} def

% Square
/Sq {
  % Stack: x y symbolSize
  gsave
    dup dup 2 div dup
    6 -1 roll exch sub exch
    5 -1 roll exch sub 4 -2 roll Box
    DrawSymbolProc
  grestore
} def

% Line
/Li {
  % Stack: x y symbolSize
  gsave
    3 1 roll exch 3 -1 roll 2 div 3 copy
    newpath
    sub exch moveto add exch lineto
    stroke
  grestore
} def

% Diamond
/Di {
  % Stack: x y symbolSize
  gsave
    3 1 roll translate 45 rotate 0 0 3 -1 roll Sq
  grestore
} def
    
% Triangle
/Tr {
  % Stack: x y symbolSize
  gsave
    3 -2 roll translate
    BaseRatio mul 0.5 mul		% Calculate 1/2 base
    dup 0 exch 30 cos mul		% h1 = height above center point
    neg					% b2 0 -h1
    newpath moveto			% point 1;  b2
    dup 30 sin 30 cos div mul		% h2 = height below center point
    2 copy lineto			% point 2;  b2 h2
    exch neg exch lineto		% 
    closepath
    DrawSymbolProc
  grestore
} def

% Arrow
/Ar {
  % Stack: x y symbolSize
  gsave
    3 -2 roll translate
    BaseRatio mul 0.5 mul		% Calculate 1/2 base
    dup 0 exch 30 cos mul		% h1 = height above center point
					% b2 0 h1
    newpath moveto			% point 1;  b2
    dup 30 sin 30 cos div mul		% h2 = height below center point
    neg					% -h2 b2
    2 copy lineto			% point 2;  b2 h2
    exch neg exch lineto		% 
    closepath
    DrawSymbolProc
  grestore
} def

% Bitmap
/Bm {
  % Stack: x y symbolSize
  gsave
    3 1 roll translate pop DrawSymbolProc
  grestore
} def

%%EndProlog

%%BeginSetup
gsave					% Save the graphics state

% Default line/text style parameters

1 setlinewidth				% width
1 setlinejoin				% join
0 setlinecap				% cap
[] 0 setdash				% dashes

/CL 0 def				% Set color level mode
0 0 0 setrgbcolor			% color

% Transform coordinate system to use X11 coordinates

% 1. Flip y-axis over by reversing the scale,
% 2. Translate the origin to the other side of the page,
%    making the origin the upper left corner
0.749127 -0.749262 scale
0 -1057 translate

% User defined page layout

% Set color level
/CL 2 def

% Set origin
147 285 translate


%%EndSetup

9 /Courier SetFont
69 6 449 455 Box

1 1 1 SetBgColor
Fill
gsave clip


% Element "Current"

0 setlinejoin
0 setlinecap
1 0 1 SetFgColor
2 setlinewidth
[ ] 0 setdash
/DashesProc {} def
/DashesProc {} def
 newpath 71 57.6251 moveto
 77.3861 57.6251 lineto
DashesProc stroke
 newpath  77.3861 57.6251 moveto
 117.205 57.6251 lineto
 157.024 57.6251 lineto
 196.843 57.6251 lineto
 206.798 57.6288 lineto
 219.739 57.7848 lineto
 236.563 63.1713 lineto
 240.979 76.7945 lineto
 244.764 93.8455 lineto
 248.533 115.002 lineto
 252.008 138.571 lineto
 255.239 164.337 lineto
 256.861 183.129 lineto
 257.914 197.679 lineto
 258.599 209.363 lineto
 259.49 226.607 lineto
 260.647 250.939 lineto
 262.152 285.168 lineto
 264.109 330.649 lineto
 265.38 361.799 lineto
 267.033 393.486 lineto
 269.182 417.972 lineto
 269.881 422.402 lineto
 270.789 424.388 lineto
 271.969 421.463 lineto
 273.503 410.302 lineto
 274.501 398.279 lineto
 275.797 379.979 lineto
 277.483 352.488 lineto
 279.674 312.119 lineto
 281.098 280.161 lineto
 282.024 257.846 lineto
 282.626 242.954 lineto
 283.408 224.671 lineto
 284.425 202.479 lineto
 285.747 176.154 lineto
 286.607 159.032 lineto
 287.724 139.272 lineto
 289.176 117.254 lineto
 291.064 93.9692 lineto
 293.519 71.1725 lineto
 296.709 51.2731 lineto
 300.857 36.8439 lineto
 306.25 29.7875 lineto
 313.26 30.3927 lineto
 322.373 36.9189 lineto
 334.22 46.3444 lineto
 349.621 55.6944 lineto
 369.642 62.8363 lineto
 395.67 66.7775 lineto
 429.506 67.6128 lineto
 469.325 66.3465 lineto
 509.144 64.4482 lineto
 515 64.1753 lineto
DashesProc stroke

% Element "Current.1"

0 setlinejoin
0 setlinecap
1 0 0 SetFgColor
2 setlinewidth
[ ] 0 setdash
/DashesProc {} def
/DashesProc {} def
 newpath 71 57.625 moveto
 77.3861 57.625 lineto
DashesProc stroke
 newpath  77.3861 57.625 moveto
 117.205 57.625 lineto
 157.024 57.625 lineto
 196.843 57.6251 lineto
 216.753 57.6933 lineto
 228.19 59.5499 lineto
 234.914 66.9432 lineto
 238.715 77.6142 lineto
 243.202 97.3314 lineto
 247.455 125.109 lineto
 250.937 155.229 lineto
 254.031 185.474 lineto
 255.594 205.295 lineto
 256.609 220.064 lineto
 257.269 231.306 lineto
 258.128 248.036 lineto
 259.243 274.187 lineto
 260.694 312.282 lineto
 262.579 363.557 lineto
 265.03 420.772 lineto
 268.217 458 lineto
 272.359 438.902 lineto
 277.48 345.033 lineto
 278.036 320.252 lineto
 278.759 292.175 lineto
 279.698 259.831 lineto
 280.309 239.042 lineto
 281.103 214.598 lineto
 282.135 186.39 lineto
 283.476 154.827 lineto
 285.22 121.126 lineto
 287.488 87.3925 lineto
 290.435 56.3278 lineto
 294.267 30.784 lineto
 299.248 13.4598 lineto
 304.23 8 lineto
DashesProc stroke
 newpath 312.71 8 moveto
 315.404 9.95776 lineto
DashesProc stroke
 newpath  315.404 9.95776 moveto
 322.518 17.3917 lineto
 331.765 26.9313 lineto
 343.787 36.8939 lineto
 359.415 45.6692 lineto
 379.731 52.182 lineto
 406.143 56.138 lineto
 440.477 57.9023 lineto
 480.296 58.2053 lineto
 515 57.9552 lineto
DashesProc stroke

% Element "Current.2"

0 setlinejoin
0 setlinecap
0 0 0.6 SetFgColor
2 setlinewidth
[ ] 0 setdash
/DashesProc {} def
/DashesProc {} def
 newpath 71 57.625 moveto
 77.3861 57.625 lineto
DashesProc stroke
 newpath  77.3861 57.625 moveto
 117.205 57.6251 lineto
 157.024 57.6251 lineto
 196.843 57.6251 lineto
 216.753 57.7004 lineto
 228.492 59.7954 lineto
 235.249 67.9745 lineto
 239.112 79.6936 lineto
 243.709 101.563 lineto
 248.036 131.74 lineto
 251.569 163.234 lineto
 254.721 194.134 lineto
 257.924 243.121 lineto
 261.334 315.073 lineto
 265.114 382.162 lineto
 269.809 410.897 lineto
 275.913 364.441 lineto
 276.536 345.954 lineto
 277.347 324.259 lineto
 278.401 297.752 lineto
 279.771 265.029 lineto
 280.661 242.608 lineto
 281.819 215.841 lineto
 283.324 184.652 lineto
 285.28 149.857 lineto
 286.552 127.913 lineto
 288.205 104.648 lineto
 290.354 81.1975 lineto
 293.148 59.1823 lineto
 296.78 40.6469 lineto
 301.501 27.768 lineto
 307.639 22.1613 lineto
 315.619 23.8226 lineto
 325.992 30.6568 lineto
 339.477 39.5174 lineto
 357.008 47.6956 lineto
 379.798 53.5682 lineto
 409.425 56.6991 lineto
 447.94 57.6151 lineto
 487.759 57.3905 lineto
 515 57.0459 lineto
DashesProc stroke
1 1 1 SetBgColor
247 392 267 65 Box fill

0 0 0 SetBgColor
247 456 267 1 Box fill

513 392 1 65 Box fill

0 0 0 SetBgColor
newpath 247 457 moveto
247 392 lineto
514 392 lineto
513 393 lineto
248 393 lineto
248 456 lineto
247 457 lineto
247 457  lineto closepath Fill
0 setlinejoin
0 setlinecap
0 0 0.6 SetFgColor
4 setlinewidth
[ ] 0 setdash
/DashesProc {} def
264 403 24 Li
20 15 0 290 403.5 BeginText
12 /Courier SetFont
0 0 0 SetFgColor
(GR) 20 0 12 DrawAdjText
EndText
0 setlinejoin
0 setlinecap
1 0 0 SetFgColor
4 setlinewidth
[ ] 0 setdash
/DashesProc {} def
264 424 24 Li
50 15 0 305 424.5 BeginText
12 /Courier SetFont
0 0 0 SetFgColor
(No GR) 50 0 12 DrawAdjText
EndText
0 setlinejoin
0 setlinecap
1 0 1 SetFgColor
4 setlinewidth
[ ] 0 setdash
/DashesProc {} def
264 445 24 Li
230 15 0 395 445.5 BeginText
12 /Courier SetFont
0 0 0 SetFgColor
(Additional body contact) 230 0 12 DrawAdjText
EndText

% Unset clipping
grestore

1 1 1 SetBgColor
0 0 523 8 Box fill

0 8 71 450 Box fill

515 8 8 450 Box fill

0 458 523 29 Box fill

1 1 1 SetBgColor
69 458 448 2 Box fill

515 6 2 454 Box fill

newpath 69 460 moveto
69 6 lineto
517 6 lineto
515 8 lineto
71 8 lineto
71 458 lineto
69 460 lineto
69 460  lineto closepath Fill
0 setlinejoin
0 setlinecap
0 0 0 SetFgColor
1 setlinewidth
[ ] 0 setdash
/DashesProc {} def
 newpath 71 458 moveto
 515 458 lineto
DashesProc stroke
0 setlinejoin
0 setlinecap
0 0 0 SetFgColor
1 setlinewidth
[ ] 0 setdash
/DashesProc {} def
 newpath 71 458 moveto
 71 8 lineto
DashesProc stroke
0 setlinejoin
0 setlinecap
0 0 0 SetFgColor
1 setlinewidth
[ ] 0 setdash
/DashesProc {} def
 newpath 71 8 moveto
 515 8 lineto
DashesProc stroke
0 setlinejoin
0 setlinecap
0 0 0 SetFgColor
1 setlinewidth
[ ] 0 setdash
/DashesProc {} def
 newpath 515 458 moveto
 515 8 lineto
DashesProc stroke
34 10 0 197.857 473 BeginText
9 /Courier SetFont
0 0 0 SetFgColor
(4e-11) 30 2 8 DrawAdjText
EndText
34 10 0 330.587 473 BeginText
9 /Courier SetFont
0 0 0 SetFgColor
(6e-11) 30 2 8 DrawAdjText
EndText
34 10 0 463.317 473 BeginText
9 /Courier SetFont
0 0 0 SetFgColor
(8e-11) 30 2 8 DrawAdjText
EndText
0 setlinejoin
0 setlinecap
0 0 0 SetFgColor
1 setlinewidth
[ ] 0 setdash
/DashesProc {} def
71 458 moveto
 515 458 lineto
DashesProc stroke
91.673 458 moveto
 91.673 463 lineto
DashesProc stroke
118.219 458 moveto
 118.219 463 lineto
DashesProc stroke
144.765 458 moveto
 144.765 463 lineto
DashesProc stroke
171.311 458 moveto
 171.311 463 lineto
DashesProc stroke
224.403 458 moveto
 224.403 463 lineto
DashesProc stroke
250.949 458 moveto
 250.949 463 lineto
DashesProc stroke
277.495 458 moveto
 277.495 463 lineto
DashesProc stroke
304.041 458 moveto
 304.041 463 lineto
DashesProc stroke
197.857 458 moveto
 197.857 466 lineto
DashesProc stroke
357.133 458 moveto
 357.133 463 lineto
DashesProc stroke
383.679 458 moveto
 383.679 463 lineto
DashesProc stroke
410.225 458 moveto
 410.225 463 lineto
DashesProc stroke
436.771 458 moveto
 436.771 463 lineto
DashesProc stroke
330.587 458 moveto
 330.587 466 lineto
DashesProc stroke
489.863 458 moveto
 489.863 463 lineto
DashesProc stroke
463.317 458 moveto
 463.317 466 lineto
DashesProc stroke
52 10 0 35 422.515 BeginText
9 /Courier SetFont
0 0 0 SetFgColor
(-1.5e-05) 48 2 8 DrawAdjText
EndText
40 10 0 41 300.885 BeginText
9 /Courier SetFont
0 0 0 SetFgColor
(-1e-05) 36 2 8 DrawAdjText
EndText
40 10 0 41 179.255 BeginText
9 /Courier SetFont
0 0 0 SetFgColor
(-5e-06) 36 2 8 DrawAdjText
EndText
10 10 0 56 57.6251 BeginText
9 /Courier SetFont
0 0 0 SetFgColor
(0) 6 2 8 DrawAdjText
EndText
0 setlinejoin
0 setlinecap
0 0 0 SetFgColor
1 setlinewidth
[ ] 0 setdash
/DashesProc {} def
71 458 moveto
 71 8 lineto
DashesProc stroke
71 446.841 moveto
 66 446.841 lineto
DashesProc stroke
71 398.189 moveto
 66 398.189 lineto
DashesProc stroke
71 373.863 moveto
 66 373.863 lineto
DashesProc stroke
71 349.537 moveto
 66 349.537 lineto
DashesProc stroke
71 325.211 moveto
 66 325.211 lineto
DashesProc stroke
71 422.515 moveto
 63 422.515 lineto
DashesProc stroke
71 276.559 moveto
 66 276.559 lineto
DashesProc stroke
71 252.233 moveto
 66 252.233 lineto
DashesProc stroke
71 227.907 moveto
 66 227.907 lineto
DashesProc stroke
71 203.581 moveto
 66 203.581 lineto
DashesProc stroke
71 300.885 moveto
 63 300.885 lineto
DashesProc stroke
71 154.929 moveto
 66 154.929 lineto
DashesProc stroke
71 130.603 moveto
 66 130.603 lineto
DashesProc stroke
71 106.277 moveto
 66 106.277 lineto
DashesProc stroke
71 81.951 moveto
 66 81.951 lineto
DashesProc stroke
71 179.255 moveto
 63 179.255 lineto
DashesProc stroke
71 33.2991 moveto
 66 33.2991 lineto
DashesProc stroke
71 8.97312 moveto
 66 8.97312 lineto
DashesProc stroke
71 57.6251 moveto
 63 57.6251 lineto
DashesProc stroke
showpage
%Trailer
grestore
end
%EOF
