Idrain1,Idrain2,Isource1,Isource2,Tau1-drain1,Tau1-drain2,Tau1-source1,Tau1-Source2,Tau2-drain1,Tau2-drain2,Tau2-source1,Tau2-Source2,Qcoll-drain1,Qcoll-drain2,Qcoll-Source1,Qcoll-Source2
-8.84991211171e-06,-9.56232930174e-06,1.26247539961e-05,1.3766018295e-05,5.92018417849e-12,5.92018417849e-12,4.18775630913e-12,4.03617250374e-12,5.18969068962e-12,5.18969068962e-12,1.51669340856e-11,1.5318517891e-11,4.91607080774e-17,5.3118140995e-17,1.21874587303e-15,1.28398001641e-15
-3.63333752168e-06,-3.78277873286e-06,1.14462628559e-05,1.23659531111e-05,3.26982284663e-12,3.9706895428e-12,4.20180528048e-12,3.97447546443e-12,1.09901320122e-10,1.09901320122e-10,1.37803862018e-11,1.40077160179e-11,2.05594480059e-16,2.15376308214e-16,1.17470655211e-15,1.2309018805e-15
-1.45224123995e-05,-1.5675678752e-05,1.31003344731e-05,1.43651506089e-05,5.70033651181e-12,5.70033651181e-12,4.43486608725e-12,4.43486608725e-12,5.70033651181e-12,5.70033651181e-12,1.49300583457e-11,1.49300583457e-11,0.0,0.0,1.20718462244e-15,1.27252774258e-15
