number,Vgate1,Vsource1,Vdrain1,Vgate2,Vsource2,Vdrain2,LET,length,radius,xlocation,ylocation
1,0,0,0,0,0,0,0.01,1.46,0.267,0.1,0
2,0,0,0,0,0,0,0.01,1.46,0.267,0.15,0
3,0,0,0,0,0,0,0.01,1.46,0.267,0.2,0.35
4,0,0,0,0,0,0,0.01,1.46,0.267,0.25,0.35
5,0,0,0,0,0,0,0.01,1.46,0.267,0.3,0.35
6,0,0,0,0,0,0,0.01,1.46,0.267,0.35,0.35
7,0,0,0,0,0,0,0.01,1.46,0.267,0.4,0
8,0,0,0,0,0,0,0.01,1.46,0.267,0.45,0
9,0,0,0,0,0,0,0.01,1.46,0.267,0.5,0.35
10,0,0,0,0,0,0,0.01,1.46,0.267,0.55,0.35
11,0,0,0,0,0,0,0.01,1.46,0.267,0.6,0.35
12,0,0,0,0,0,0,0.01,1.46,0.267,0.65,0.35
13,0,0,0,0,0,0,0.01,1.46,0.267,0.7,0
14,0,0,0,0,0,0,0.01,1.46,0.267,0.75,0
15,0,0,0,0,0,0,0.03,2.74,0.35,0.1,0
16,0,0,0,0,0,0,0.03,2.74,0.35,0.15,0
17,0,0,0,0,0,0,0.03,2.74,0.35,0.2,0.35
18,0,0,0,0,0,0,0.03,2.74,0.35,0.25,0.35
19,0,0,0,0,0,0,0.03,2.74,0.35,0.3,0.35
20,0,0,0,0,0,0,0.03,2.74,0.35,0.35,0.35
21,0,0,0,0,0,0,0.03,2.74,0.35,0.4,0
22,0,0,0,0,0,0,0.03,2.74,0.35,0.45,0
23,0,0,0,0,0,0,0.03,2.74,0.35,0.5,0.35
24,0,0,0,0,0,0,0.03,2.74,0.35,0.55,0.35
25,0,0,0,0,0,0,0.03,2.74,0.35,0.6,0.35
26,0,0,0,0,0,0,0.03,2.74,0.35,0.65,0.35
27,0,0,0,0,0,0,0.03,2.74,0.35,0.7,0
28,0,0,0,0,0,0,0.03,2.74,0.35,0.75,0
29,0,0,0,0,0,0,0.05,3.65,0.38,0.1,0
30,0,0,0,0,0,0,0.05,3.65,0.38,0.15,0
31,0,0,0,0,0,0,0.05,3.65,0.38,0.2,0.35
32,0,0,0,0,0,0,0.05,3.65,0.38,0.25,0.35
33,0,0,0,0,0,0,0.05,3.65,0.38,0.3,0.35
34,0,0,0,0,0,0,0.05,3.65,0.38,0.35,0.35
35,0,0,0,0,0,0,0.05,3.65,0.38,0.4,0
36,0,0,0,0,0,0,0.05,3.65,0.38,0.45,0
37,0,0,0,0,0,0,0.05,3.65,0.38,0.5,0.35
38,0,0,0,0,0,0,0.05,3.65,0.38,0.55,0.35
39,0,0,0,0,0,0,0.05,3.65,0.38,0.6,0.35
40,0,0,0,0,0,0,0.05,3.65,0.38,0.65,0.35
41,0,0,0,0,0,0,0.05,3.65,0.38,0.7,0
42,0,0,0,0,0,0,0.05,3.65,0.38,0.75,0
43,0,0,0,0,0,0,0.07,4.47,0.4,0.1,0
44,0,0,0,0,0,0,0.07,4.47,0.4,0.15,0
45,0,0,0,0,0,0,0.07,4.47,0.4,0.2,0.35
46,0,0,0,0,0,0,0.07,4.47,0.4,0.25,0.35
47,0,0,0,0,0,0,0.07,4.47,0.4,0.3,0.35
48,0,0,0,0,0,0,0.07,4.47,0.4,0.35,0.35
49,0,0,0,0,0,0,0.07,4.47,0.4,0.4,0
50,0,0,0,0,0,0,0.07,4.47,0.4,0.45,0
51,0,0,0,0,0,0,0.07,4.47,0.4,0.5,0.35
52,0,0,0,0,0,0,0.07,4.47,0.4,0.55,0.35
53,0,0,0,0,0,0,0.07,4.47,0.4,0.6,0.35
54,0,0,0,0,0,0,0.07,4.47,0.4,0.65,0.35
55,0,0,0,0,0,0,0.07,4.47,0.4,0.7,0
56,0,0,0,0,0,0,0.07,4.47,0.4,0.75,0
57,0,0,0,0,0,0,0.09,4.86,0.411,0.1,0
58,0,0,0,0,0,0,0.09,4.86,0.411,0.15,0
59,0,0,0,0,0,0,0.09,4.86,0.411,0.2,0.35
60,0,0,0,0,0,0,0.09,4.86,0.411,0.25,0.35
61,0,0,0,0,0,0,0.09,4.86,0.411,0.3,0.35
62,0,0,0,0,0,0,0.09,4.86,0.411,0.35,0.35
63,0,0,0,0,0,0,0.09,4.86,0.411,0.4,0
64,0,0,0,0,0,0,0.09,4.86,0.411,0.45,0
65,0,0,0,0,0,0,0.09,4.86,0.411,0.5,0.35
66,0,0,0,0,0,0,0.09,4.86,0.411,0.55,0.35
67,0,0,0,0,0,0,0.09,4.86,0.411,0.6,0.35
68,0,0,0,0,0,0,0.09,4.86,0.411,0.65,0.35
69,0,0,0,0,0,0,0.09,4.86,0.411,0.7,0
70,0,0,0,0,0,0,0.09,4.86,0.411,0.75,0
71,0,0,0,0,0,0,0.11,6,0.43,0.1,0
72,0,0,0,0,0,0,0.11,6,0.43,0.15,0
73,0,0,0,0,0,0,0.11,6,0.43,0.2,0.35
74,0,0,0,0,0,0,0.11,6,0.43,0.25,0.35
75,0,0,0,0,0,0,0.11,6,0.43,0.3,0.35
76,0,0,0,0,0,0,0.11,6,0.43,0.35,0.35
77,0,0,0,0,0,0,0.11,6,0.43,0.4,0
78,0,0,0,0,0,0,0.11,6,0.43,0.45,0
79,0,0,0,0,0,0,0.11,6,0.43,0.5,0.35
80,0,0,0,0,0,0,0.11,6,0.43,0.55,0.35
81,0,0,0,0,0,0,0.11,6,0.43,0.6,0.35
82,0,0,0,0,0,0,0.11,6,0.43,0.65,0.35
83,0,0,0,0,0,0,0.11,6,0.43,0.7,0
84,0,0,0,0,0,0,0.11,6,0.43,0.75,0
