Time,Drain1,Drain2,Source1,Source2
6.18700000000000E-12,-1.29011864696427E-17,-1.25211355225079E-17,-1.31802763529812E-17,-1.24770161468052E-17
9.04310000000000E-12,-1.77210079465066E-17,-1.83203963596727E-17,-1.78501865764930E-17,-1.82466447532729E-17
1.27560300000000E-11,-1.81575297123191E-17,-1.91948548890713E-17,-1.86952790366177E-17,-1.86158566416292E-17
1.75828390000000E-11,-1.92069428902838E-17,-2.01251084635791E-17,-2.01830208068298E-17,-1.95994332869285E-17
2.25828390000000E-11,3.22426540484526E-18,2.90349433448002E-18,3.37640287218592E-18,2.79293801482676E-18
2.75828390000000E-11,7.08643151337003E-18,7.53312191900465E-18,7.32843604772445E-18,7.08593898605323E-18
3.25828390000000E-11,7.67516859565400E-18,7.62774034693428E-18,7.48210475369819E-18,7.52152620420161E-18
3.75828390000000E-11,7.53565282361940E-18,7.75463694441363E-18,7.77310057194184E-18,7.68439033659851E-18
4.25828390000000E-11,8.24891245896580E-18,9.00557592522987E-18,8.38390859496374E-18,8.78842162070166E-18
4.75828390000000E-11,1.88733207948576E-14,-1.08148207330146E-13,3.69800678698756E-14,-1.50577425349228E-13
5.25828390000000E-11,7.29094917546588E-09,-4.14370378748306E-08,1.42459870358511E-08,-5.77534388518271E-08
5.75828390000000E-11,7.37756515644185E-06,-4.39816316512934E-05,1.40309422372490E-05,-6.21401661960458E-05
6.25828390000000E-11,-5.44285814212067E-06,-1.61972734453095E-04,3.09090748286361E-05,-2.12769275997837E-04
6.50828390000000E-11,-7.38790982108504E-06,-1.23452511527544E-04,1.52241800152570E-05,-1.62592330921761E-04
6.83328390000000E-11,-3.48897920827368E-06,-9.65251020046408E-05,8.61904260237150E-06,-1.27079497246763E-04
7.25578390000000E-11,-2.13523629555652E-06,-8.31598908968212E-05,5.13658354852068E-06,-1.07095301842204E-04
7.75578390000000E-11,-1.76442321184212E-06,-7.57305063992004E-05,3.20911645842300E-06,-9.44225083330348E-05
8.25578390000000E-11,-1.67899416454862E-06,-7.08749562952065E-05,2.18170569505698E-06,-8.57752984039719E-05
8.75578390000000E-11,-1.83887241590006E-06,-6.75246011773165E-05,1.41835436890465E-06,-7.96234970862633E-05
9.25578390000000E-11,-2.17323755445395E-06,-6.51304321885261E-05,7.32691041616164E-07,-7.51205066051040E-05
9.75578390000000E-11,-2.62056983165616E-06,-6.33714832605141E-05,6.62506253821993E-08,-7.17410641284612E-05
1.02557839000000E-10,-3.13612514678548E-06,-6.20450182541215E-05,-5.96772219293318E-07,-6.91435651224473E-05
1.07557839000000E-10,-3.67759044874056E-06,-6.09915788229208E-05,-1.24782776985051E-06,-6.70705616065748E-05
1.12557839000000E-10,-4.21711949427341E-06,-6.01077365211037E-05,-1.87828102390588E-06,-6.53500883430291E-05
1.17557839000000E-10,-4.74037631369174E-06,-5.93332176941900E-05,-2.48404959336611E-06,-6.38744134745028E-05
1.22557839000000E-10,-5.24119221483915E-06,-5.86332355431798E-05,-3.06399880437607E-06,-6.25755561525870E-05
1.27557839000000E-10,-5.71773902103098E-06,-5.79874825414140E-05,-3.61852147472651E-06,-6.14095952339237E-05
1.32557839000000E-10,-6.17029991300071E-06,-5.73836397422428E-05,-4.14867189465511E-06,-6.03471283838614E-05
1.37557839000000E-10,-6.59960209495565E-06,-5.68126556088877E-05,-4.65525386754906E-06,-5.93665710627396E-05
1.42557839000000E-10,-7.00759315028668E-06,-5.62700038441638E-05,-5.14001457163854E-06,-5.84541309755446E-05
1.47557839000000E-10,-7.39602761145337E-06,-5.57520147465755E-05,-5.60438219227882E-06,-5.75992281424565E-05
1.52557839000000E-10,-7.76645365754539E-06,-5.52556582054462E-05,-6.04960719537191E-06,-5.67936090018525E-05
1.57557839000000E-10,-8.12028489342505E-06,-5.47785016631151E-05,-6.47686695299248E-06,-5.60308493732083E-05
1.62557839000000E-10,-8.45879212195281E-06,-5.43185192045753E-05,-6.88725876152938E-06,-5.53058274948168E-05
1.67557839000000E-10,-8.78310210358644E-06,-5.38739923987218E-05,-7.28179607042409E-06,-5.46143732631253E-05
1.72557839000000E-10,-9.09420447005035E-06,-5.34434213179992E-05,-7.66140783825493E-06,-5.39530374225899E-05
1.77557839000000E-10,-9.39296449722145E-06,-5.30254964184018E-05,-8.02693934663988E-06,-5.33188948384011E-05
1.82557839000000E-10,-9.68013777950685E-06,-5.26190564491462E-05,-8.37915714772351E-06,-5.27094222913829E-05
1.87557839000000E-10,-9.95638354549118E-06,-5.22230563390723E-05,-8.71875176774774E-06,-5.21224123887369E-05
1.92557839000000E-10,-1.02222783703881E-05,-5.18365404331577E-05,-9.04634472263005E-06,-5.15559109368396E-05
1.97557839000000E-10,-1.04783224960892E-05,-5.14586367982289E-05,-9.36249205884368E-06,-5.10081528186377E-05
2.02557839000000E-10,-1.07249543188991E-05,-5.10885324139183E-05,-9.66769380622935E-06,-5.04775243166313E-05
2.07557839000000E-10,-1.09625582735911E-05,-5.07254631545401E-05,-9.96239761194871E-06,-4.99625209336693E-05
2.12557839000000E-10,-1.11914692638260E-05,-5.03686796434028E-05,-1.02470011124327E-05,-4.94617448007168E-05
2.17557839000000E-10,-1.14119822358847E-05,-5.00174410081231E-05,-1.05218610804629E-05,-4.89738583161509E-05
2.22557839000000E-10,-1.16243556939256E-05,-4.96710053983054E-05,-1.07872941812205E-05,-4.84975619369271E-05
2.27557839000000E-10,-1.18288169821130E-05,-4.93285955169162E-05,-1.10435823402546E-05,-4.80315809960900E-05
2.32557839000000E-10,-1.20255668420858E-05,-4.89893852150127E-05,-1.12909776491177E-05,-4.75746327784737E-05
2.37557839000000E-10,-1.22147851234893E-05,-4.86524715621588E-05,-1.15297046159338E-05,-4.71253998643268E-05
2.42557839000000E-10,-1.23966329897733E-05,-4.83168334026402E-05,-1.17599625214590E-05,-4.66825020648818E-05
2.47557839000000E-10,-1.25712637068528E-05,-4.79813066963595E-05,-1.19819355440961E-05,-4.62444369155315E-05
2.52557839000000E-10,-1.27388319209611E-05,-4.76445029003458E-05,-1.21957962591989E-05,-4.58095754783836E-05
2.57557839000000E-10,-1.28994943965582E-05,-4.73047702539766E-05,-1.24017127793186E-05,-4.53760549847811E-05
2.62557839000000E-10,-1.30534285822833E-05,-4.69600854436873E-05,-1.25998525718992E-05,-4.49417100232245E-05
2.67557839000000E-10,-1.32008423979061E-05,-4.66079280281909E-05,-1.27903934748026E-05,-4.45039803896576E-05
2.72557839000000E-10,-1.33419906927603E-05,-4.62451257495277E-05,-1.29735373757136E-05,-4.40597597156589E-05
2.77557839000000E-10,-1.34771995916060E-05,-4.58676512355583E-05,-1.31495163666637E-05,-4.36052259759179E-05
2.82557839000000E-10,-1.36068826493619E-05,-4.54703816553983E-05,-1.33185911811797E-05,-4.31356230433416E-05
2.87557839000000E-10,-1.37315384752181E-05,-4.50468217647080E-05,-1.34810265952790E-05,-4.26450625313000E-05
2.92557839000000E-10,-1.38516159621731E-05,-4.45891295186618E-05,-1.36369117660727E-05,-4.21265250800168E-05
2.97557839000000E-10,-1.39673258091838E-05,-4.40883844145500E-05,-1.37859356334248E-05,-4.15720918380851E-05
3.00000000000000E-10,-1.40276377500033E-05,-4.38127303949116E-05,-1.38613625717436E-05,-4.12732795017879E-05
