Idrain1,Idrain2,Isource1,Isource2,Tau1-drain1,Tau1-drain2,Tau1-source1,Tau1-Source2,Tau2-drain1,Tau2-drain2,Tau2-source1,Tau2-Source2,Qcoll-drain1,Qcoll-drain2,Qcoll-Source1,Qcoll-Source2
-3.51156086015e-05,1.82085953341e-05,-7.18718822274e-05,1.69205593095e-05,8.8219486079e-12,7.37272753734e-12,8.49251916568e-12,7.37272753734e-12,3.36754253235e-10,3.38203474305e-10,3.38203474305e-10,3.38203474305e-10,1.7125896128e-15,4.08807850739e-16,2.25755391625e-15,4.31915845236e-16
-5.68334656549e-05,1.57221006306e-05,-5.779854827e-05,1.28871810129e-05,5.75e-12,5.75e-12,5.75e-12,5.75e-12,3.36692161e-10,3.36692161e-10,3.36692161e-10,3.36692161e-10,2.11490440115e-15,5.00808688044e-16,2.27018665362e-15,5.17401628585e-16
-7.1351444285e-05,1.39724186006e-05,-3.63381332255e-05,5.26844584713e-06,7.475e-12,7.475e-12,7.475e-12,7.475e-12,3.37467161e-10,3.37467161e-10,3.37467161e-10,3.37467161e-10,2.14051046881e-15,5.76284037283e-16,1.89441971831e-15,5.82707215386e-16
-7.43642760806e-05,1.26677977502e-05,-2.76433056104e-05,-5.41363745193e-06,9.10561478596e-12,8.39178651917e-12,1.09093224749e-11,1.67388385153e-11,3.37532308296e-10,3.37532308296e-10,3.34086795594e-10,3.2548262908e-10,2.12968656749e-15,6.45647708566e-16,1.67188538257e-15,6.57966122458e-16
-6.54090940173e-05,1.10238387053e-05,-1.99605795791e-05,-1.27023407616e-05,1.00381354505e-11,5.96940263258e-12,1.00882904491e-11,8.72505332902e-12,3.36593565888e-10,3.39349216585e-10,3.33011219983e-10,3.36593565888e-10,1.92685681136e-15,7.31004786155e-16,1.41864085288e-15,8.63788173738e-16
-5.27206043224e-05,-6.38820186264e-06,-1.38767104461e-05,-2.43870054257e-05,5e-12,8.98375e-12,9.125e-12,5e-12,3.37417161e-10,3.28433411e-10,3.33292161e-10,3.37417161e-10,1.59865886176e-15,8.08868000647e-16,1.17343988887e-15,1.06418783439e-15
-3.96951111597e-05,-9.31919576686e-06,-9.83703185613e-06,-3.78733969019e-05,5e-12,1.0304375e-11,1.0304375e-11,5e-12,3.37417161e-10,3.32112786e-10,3.32112786e-10,3.37417161e-10,1.32389159983e-15,9.36439937507e-16,9.62409224678e-16,1.28858180346e-15
-2.88145363681e-05,-1.26429654964e-05,-7.52187610386e-06,-4.86036777351e-05,5e-12,9.98221875e-12,7.1254205707e-12,5e-12,3.37417161e-10,3.3243494225e-10,3.30291740429e-10,3.37417161e-10,1.13811119804e-15,1.10522086378e-15,8.57246504974e-16,1.49671236766e-15
-1.35503919151e-05,-1.93039864421e-05,9.75535965062e-06,-6.33009055412e-05,7.26244997177e-12,1.00410196471e-11,7.26244997177e-12,7.26244997177e-12,3.38412761778e-10,3.33814029202e-10,3.38412761778e-10,3.38412761778e-10,8.81628193129e-16,1.37384780536e-15,7.29228598122e-16,1.85072080085e-15
-5.7767024777e-06,-2.78647222043e-05,1.25249171363e-05,-7.39273263737e-05,1.60108617223e-11,9.57326015632e-12,5.43413985669e-12,9.29395269149e-12,3.27178438462e-10,3.35636166369e-10,3.39775286668e-10,3.37266728911e-10,6.85485856435e-16,1.64346219658e-15,6.5112967632e-16,2.10219284617e-15
5.16832692225e-06,-3.66331984382e-05,1.50242622359e-05,-7.14946000773e-05,4.125e-12,5.18125e-12,4.125e-12,4.125e-12,3.38292161e-10,3.37235911e-10,3.38292161e-10,3.38292161e-10,5.923055505e-16,1.87435318968e-15,5.85375512578e-16,2.1543652112e-15
9.32736306029e-06,-4.69772426501e-05,1.44813377956e-05,-6.69579195181e-05,5.75e-12,5.75e-12,5.75e-12,5.75e-12,3.36667161e-10,3.36667161e-10,3.36667161e-10,3.36667161e-10,5.5679085111e-16,2.09383460403e-15,5.43099370986e-16,2.18632949145e-15
1.25843168483e-05,-5.65140424499e-05,1.55698369531e-05,-5.83416733744e-05,5.75e-12,5.75e-12,5.75e-12,5.75e-12,3.36667161e-10,3.36667161e-10,3.36667161e-10,3.36667161e-10,5.18764016925e-16,2.23774262786e-15,4.99042800193e-16,2.1134832142e-15
1.59959039344e-05,-6.41086824503e-05,1.77080574355e-05,-4.14808571536e-05,6.92815080451e-12,7.78952898016e-12,6.92815080451e-12,1.01263876742e-11,3.38765831878e-10,3.38765831878e-10,3.38765831878e-10,3.35567595008e-10,4.73757473526e-16,2.3649212276e-15,4.52627424715e-16,1.91600796688e-15
1.51336659728e-05,-6.94213199231e-05,1.60176610675e-05,-2.64528165587e-05,7.20554250726e-12,8.96217410794e-12,7.20554250726e-12,1.01039846484e-11,3.38724158746e-10,3.36967527146e-10,3.38724158746e-10,3.35825716605e-10,3.88867474311e-16,2.12277171695e-15,3.65729653675e-16,1.49377792427e-15
-8.27556074471e-05,2.98046951756e-05,-0.000126071239732,2.24739658806e-05,5.75e-12,5.75e-12,5.75e-12,5.75e-12,3.36667161e-10,3.36667161e-10,3.36667161e-10,3.36667161e-10,4.68215004035e-15,1.03464379293e-15,5.71686779456e-15,9.94511244499e-16
-0.000112947966605,2.86091820625e-05,-0.000114035028835,1.22476864309e-05,5.75e-12,5.75e-12,5.75e-12,2.5e-12,3.36667161e-10,3.36667161e-10,3.36667161e-10,3.39917161e-10,5.41543121341e-15,1.26486944416e-15,5.80726441723e-15,1.15281578633e-15
-0.000132042132433,2.41036466187e-05,-8.76561538541e-05,-1.08337392075e-05,5e-12,5e-12,5e-12,5.26266707712e-11,3.37417161e-10,3.37417161e-10,3.37417161e-10,2.89790490229e-10,5.33036575492e-15,1.54206365514e-15,5.12655276973e-15,1.57492847523e-15
-0.00014019808689,2.08225589677e-05,-7.54850136526e-05,-2.92298817505e-05,9.8096272065e-12,6.18529531403e-12,9.04060838117e-12,8.04088390824e-12,3.37328098395e-10,3.40183411463e-10,3.37328098395e-10,3.37328098395e-10,5.43196184842e-15,1.81318974391e-15,4.8079646293e-15,2.06637093121e-15
-0.000133403487121,1.62275429084e-05,-5.82309014462e-05,-5.06867335807e-05,9.68955227733e-12,6.90666751766e-12,8.87427100619e-12,8.87427100619e-12,3.37172622108e-10,3.39140225597e-10,3.37172622108e-10,3.37172622108e-10,5.04365179617e-15,2.07026715611e-15,4.21209889658e-15,2.60304089397e-15
-0.000115523717362,-1.77717586702e-05,-3.85471100321e-05,-7.16599652873e-05,5.75e-12,1.745e-11,5.75e-12,5.75e-12,3.36667161e-10,3.22467161e-10,3.36667161e-10,3.36667161e-10,4.45991510031e-15,2.40518978384e-15,3.57392445484e-15,3.17181795066e-15
-9.62197551313e-05,-2.46936221541e-05,-2.58380907912e-05,-9.31925496243e-05,5e-12,1.359751875e-11,1.12769375e-11,5e-12,3.37417161e-10,3.2881964225e-10,3.311402235e-10,3.37417161e-10,3.73528571925e-15,2.92049628742e-15,2.99471215093e-15,3.64734257748e-15
-7.96010340019e-05,-3.3355914389e-05,-1.97642727806e-05,-0.000109617754615,5.75e-12,9.975e-12,1.745e-11,5.75e-12,3.36667161e-10,3.32442161e-10,3.22467161e-10,3.36667161e-10,3.38808990082e-15,3.37476364251e-15,2.55780167917e-15,4.2633267874e-15
-5.53830746097e-05,-5.36543681687e-05,1.46715210149e-05,-0.000134507994677,8.6509071558e-12,8.6509071558e-12,6.19072494835e-12,8.6509071558e-12,3.37611858463e-10,3.37611858463e-10,3.4007204067e-10,3.37611858463e-10,2.70480191534e-15,4.14349304194e-15,2.1226966221e-15,4.99269238909e-15
-3.15463314326e-05,-7.33597847936e-05,2.20924793897e-05,-0.000136907272626,8.72505332903e-12,8.72505332903e-12,5.96940263258e-12,1.02094070316e-11,3.36893985354e-10,3.36893985354e-10,3.3964963605e-10,3.36893985354e-10,2.14626582631e-15,4.74203412672e-15,1.84877523382e-15,5.39246817533e-15
-1.23367127499e-05,-8.55788125165e-05,2.35506508193e-05,-0.00013291465632,5e-12,9.225e-12,5e-12,9.225e-12,3.37442161e-10,3.37442161e-10,3.37442161e-10,3.37442161e-10,1.62468684433e-15,5.11735642601e-15,1.56690532636e-15,5.42882529888e-15
-9.45355994507e-06,-0.000104584366509,3.2227813951e-05,-0.000129417101411,5.51711424275e-11,8.96378059687e-12,6.41462209375e-12,1.03369055969e-11,2.84277021479e-10,3.36899005403e-10,3.39448163906e-10,3.36899005403e-10,1.30475175602e-15,5.64346850869e-15,1.46138442644e-15,5.66178212512e-15
1.3224644899e-05,-0.000113119998352,3.27635408945e-05,-0.000115804139875,6.316375e-12,8.428875e-12,6.316375e-12,8.428875e-12,3.38238286e-10,3.38238286e-10,3.38238286e-10,3.38238286e-10,1.18490872674e-15,5.79722515024e-15,1.2889552197e-15,5.43911184234e-15
2.06267935201e-05,-0.000122956871524,3.11024905952e-05,-9.33888387145e-05,5e-12,5e-12,5e-12,5e-12,3.37417161e-10,3.37417161e-10,3.37417161e-10,3.37417161e-10,1.03520769552e-15,5.65728915363e-15,1.06892234022e-15,4.88969476472e-15
2.81187808226e-05,-0.000132670071944,3.44842658475e-05,-6.8797375185e-05,7.40035101061e-12,8.29288226061e-12,7.40035101061e-12,1.02006016263e-11,3.38819903739e-10,3.38819903739e-10,3.38819903739e-10,3.36019653124e-10,9.36795066661e-16,5.54185908239e-15,9.56220363492e-16,4.27205982327e-15
-0.00011068176628,3.64966476497e-05,-0.000151264877238,2.09344472387e-05,5e-12,5e-12,5e-12,5e-12,3.37417161e-10,3.37417161e-10,3.37417161e-10,3.37417161e-10,7.06424942127e-15,1.33747023841e-15,8.23705868614e-15,1.23498029635e-15
-0.000141135795341,3.35390408934e-05,-0.000138227241383,-1.09595034714e-05,5e-12,5e-12,5e-12,1.09975e-10,3.37417161e-10,3.37417161e-10,3.37417161e-10,2.27442161e-10,7.89419529218e-15,1.68221225944e-15,8.36468451543e-15,1.53515424723e-15
-0.000151616534457,3.00779218526e-05,-0.000110366067026,-3.56338430023e-05,5.75e-12,2.5e-12,5.75e-12,5.75e-12,3.36667161e-10,3.39917161e-10,3.36667161e-10,3.36667161e-10,8.13342902876e-15,2.26186455852e-15,7.7737179882e-15,2.56815022767e-15
-0.000153941508598,2.30043819795e-05,-9.51689007554e-05,-5.68949144354e-05,5.75e-12,2.5e-12,5.75e-12,5.75e-12,3.36667161e-10,3.39917161e-10,3.36667161e-10,3.36667161e-10,7.85769554457e-15,2.6617590139e-15,7.15072154822e-15,3.2782598205e-15
-0.000158395718627,-1.9482821879e-05,-7.62552735402e-05,-7.85446464448e-05,5e-12,9.49110566875e-11,5e-12,5e-12,3.37417161e-10,2.42506104313e-10,3.37417161e-10,3.37417161e-10,7.09207959068e-15,3.14733069791e-15,6.2999120082e-15,3.93474132552e-15
-0.000147725777044,-2.29523564855e-05,-5.459485526e-05,-0.000103810418067,9.225e-12,8.5e-11,5e-12,9.225e-12,3.37442161e-10,2.57442161e-10,3.37442161e-10,3.37442161e-10,6.62248102062e-15,3.80249414383e-15,5.55355186764e-15,4.86979983375e-15
-0.00014010542176,-3.5750865393e-05,-3.80184851508e-05,-0.000136741067916,8.70313771713e-12,1.01722684918e-11,8.82101341438e-12,8.70313771713e-12,3.38148421285e-10,3.35639863527e-10,3.35639863527e-10,3.38148421285e-10,6.05156723724e-15,4.69849914628e-15,4.81480282018e-15,5.91774722452e-15
-0.000116631841693,-5.09933988068e-05,-2.50823138615e-05,-0.000145173992114,9.31976326599e-12,7.46380977235e-12,8.13467200193e-12,9.31976326599e-12,3.37271514344e-10,3.37271514344e-10,3.33826001641e-10,3.37271514344e-10,5.33475136084e-15,5.36014636069e-15,4.13721114953e-15,6.552485225e-15
-8.30020178206e-05,-7.03347915602e-05,-1.99204256159e-05,-0.00016664684998,7.78952898016e-12,7.78952898016e-12,9.48161270077e-11,7.78952898016e-12,3.38854259612e-10,3.38854259612e-10,2.46498314812e-10,3.38854259612e-10,4.24632377518e-15,6.33247535655e-15,3.29113446617e-15,7.35121711218e-15
-6.0283291495e-05,-9.28057260142e-05,2.17376759649e-05,-0.000153564835064,5.75e-12,5.75e-12,2.5e-12,5.75e-12,3.36667161e-10,3.36667161e-10,3.39917161e-10,3.36667161e-10,3.39585854639e-15,7.06022771952e-15,2.72496111136e-15,7.78685848291e-15
-3.79677448916e-05,-0.000104586122068,3.24139420255e-05,-0.000160331957843,9.33233352594e-12,7.17871809688e-12,7.17871809688e-12,7.17871809688e-12,3.36155724349e-10,3.39469630403e-10,3.39469630403e-10,3.39469630403e-10,2.67269658338e-15,7.74312757108e-15,2.32910255221e-15,8.15146960795e-15
-1.9987815162e-05,-0.000122426119282,3.80424000834e-05,-0.000153056805083,7.82395571344e-12,7.17871809688e-12,7.17871809688e-12,7.17871809688e-12,3.36155724349e-10,3.39469630403e-10,3.39469630403e-10,3.39469630403e-10,2.0531386095e-15,8.24188601668e-15,2.01217593873e-15,8.24512061282e-15
-1.11572545445e-05,-0.00013740858423,3.34061362183e-05,-0.000143192678166,1.15e-10,9.225e-12,9.225e-12,9.225e-12,2.27442161e-10,3.37442161e-10,3.37442161e-10,3.37442161e-10,1.57560992923e-15,8.42328346267e-15,1.73428087689e-15,7.98838815419e-15
1.55683044694e-05,-0.000147938736799,3.61435200829e-05,-0.000122905147374,5e-12,9.225e-12,9.225e-12,9.225e-12,3.37442161e-10,3.37442161e-10,3.37442161e-10,3.37442161e-10,1.32260661816e-15,8.52006296558e-15,1.49173850531e-15,7.53418107783e-15
2.74239958001e-05,-0.000161884682742,3.97692160126e-05,-9.66634853004e-05,4.125e-12,4.125e-12,4.125e-12,4.125e-12,3.38292161e-10,3.38292161e-10,3.38292161e-10,3.38292161e-10,1.20389740226e-15,8.24199364618e-15,1.29405229314e-15,6.69767648231e-15
-0.000132241422725,4.90375661222e-05,-0.00016917725953,2.51905820712e-05,8.59556687559e-12,6.47583557063e-12,6.47583557063e-12,6.47583557063e-12,3.38115558783e-10,3.40235290088e-10,3.40235290088e-10,3.40235290088e-10,9.12913548455e-15,1.60352570047e-15,1.04620212194e-14,1.35337705556e-15
-0.000168257001192,4.45066913293e-05,-0.000164794802638,-2.38219752323e-05,8.02977890969e-12,5.7235888287e-12,8.02977890969e-12,3.75029384723e-12,3.39102844279e-10,3.40733406822e-10,3.39102844279e-10,3.36983112975e-10,9.83088874778e-15,1.92047923393e-15,1.02130291973e-14,1.97045199433e-15
-0.000167706238506,3.17688455445e-05,-0.000116202446608,-6.40552434065e-05,2.5e-12,2.5e-12,2.5e-12,5.75e-12,3.39917161e-10,3.39917161e-10,3.39917161e-10,3.36667161e-10,9.63430868503e-15,2.54929712344e-15,9.10142370997e-15,3.27118948096e-15
-0.000167762459019,-1.95553724374e-05,-0.000105851569547,-8.41672156185e-05,5e-12,1.72626670771e-10,5e-12,5e-12,3.37417161e-10,1.64790490229e-10,3.37417161e-10,3.37417161e-10,9.04711596251e-15,3.08201644883e-15,8.2902275689e-15,4.01229224302e-15
-0.000177039245467,-2.20727764132e-05,-8.53327740109e-05,-0.000106277310661,7.23049395907e-12,1.64111648113e-10,9.39964214679e-12,1.01992013642e-11,3.39713556318e-10,1.77885529286e-10,3.36744848912e-10,3.36744848912e-10,8.77732850211e-15,3.77723727859e-15,7.51846892766e-15,5.07978080096e-15
-0.000170677449128,-3.15281342469e-05,-7.3388310944e-05,-0.000135269347225,6.43691096386e-12,6.55738879189e-12,8.22808391655e-12,8.22808391655e-12,3.39758458834e-10,3.35638761043e-10,3.37967285882e-10,3.37967285882e-10,8.17710137491e-15,4.68053468906e-15,6.71509117712e-15,6.17224282457e-15
-0.000153406765725,-4.90037008739e-05,-5.1217946581e-05,-0.000151015131793,3.93125e-12,5.304375e-12,5.304375e-12,3.93125e-12,3.38485911e-10,3.37112786e-10,3.37112786e-10,3.38485911e-10,7.16371048012e-15,5.54942141943e-15,5.6817406026e-15,7.00993978477e-15
-0.000133158437347,-6.12084381358e-05,-3.32297502265e-05,-0.00015251420141,5e-12,5e-12,5e-12,5e-12,3.37417161e-10,3.37417161e-10,3.37417161e-10,3.37417161e-10,6.22614994465e-15,6.23166361949e-15,4.8730215774e-15,7.50590693065e-15
-0.000118169348045,-9.0445773007e-05,-2.24793712915e-05,-0.000186145830817,7.68941568396e-12,7.68941568396e-12,1.62365167506e-10,8.02760528236e-12,3.38033186407e-10,3.38033186407e-10,1.78572198489e-10,3.39263277511e-10,5.32962625322e-15,7.53209611428e-15,3.98551931861e-15,8.77548005717e-15
-9.18453733441e-05,-0.000110934387956,2.50855142138e-05,-0.000190086054196,9.81652029991e-12,7.62012563288e-12,5.93059127363e-12,7.62012563288e-12,3.37101467219e-10,3.39297861886e-10,3.40987396246e-10,3.39297861886e-10,4.32598482187e-15,8.34401470838e-15,3.23932075722e-15,9.31175775419e-15
-6.50714239986e-05,-0.000131796893154,3.57184027236e-05,-0.000181734337125,7.82482191679e-12,8.62438113421e-12,5.89516210344e-12,8.62438113421e-12,3.38513581777e-10,3.38513581777e-10,3.40443241591e-10,3.38513581777e-10,3.47260131288e-15,9.18321815772e-15,2.70793635808e-15,9.75968673954e-15
-4.60022087118e-05,-0.000131182355548,3.72610526205e-05,-0.000161492488851,5.75e-12,2.5e-12,2.5e-12,2.5e-12,3.36667161e-10,3.39917161e-10,3.39917161e-10,3.39917161e-10,2.64028328299e-15,9.62916601411e-15,2.20398752979e-15,9.74550601212e-15
-2.33333777941e-05,-0.000153012292537,4.69580740795e-05,-0.000158227928227,3.81099196217e-12,6.58064629422e-12,6.58064629422e-12,8.73468522936e-12,3.37913663271e-10,3.40067702206e-10,3.40067702206e-10,3.37913663271e-10,2.03134398256e-15,1.01530111853e-14,1.94420767087e-15,9.80380745877e-15
-1.17333212105e-05,-0.00016603805469,3.98023372841e-05,-0.000143421450695,1.682112875e-10,8.428875e-12,8.428875e-12,8.428875e-12,1.735971235e-10,3.38238286e-10,3.38238286e-10,3.38238286e-10,1.51430913754e-15,1.05182056711e-14,1.72170800066e-15,9.48971961985e-15
1.9308348816e-05,-0.00016449850457,3.75469210145e-05,-0.000113410762679,5e-12,9.225e-12,9.225e-12,9.225e-12,3.37442161e-10,3.37442161e-10,3.37442161e-10,3.37442161e-10,1.28895368049e-15,1.01279162002e-14,1.46193433066e-15,8.50524980416e-15
-0.000142713615196,5.29387809537e-05,-0.000190477848535,2.03810917212e-05,7.8453852195e-12,6.2984241032e-12,7.26325400988e-12,6.2984241032e-12,3.39395255899e-10,3.39977387108e-10,3.39977387108e-10,3.39977387108e-10,1.01371941903e-14,1.52648466045e-15,1.14150679098e-14,1.33003787014e-15
-0.00017547423964,4.30475958188e-05,-0.000169879055359,-4.03050157069e-05,7.17871809688e-12,7.17871809688e-12,7.17871809688e-12,5.86306455719e-12,3.39469630403e-10,3.39469630403e-10,3.39469630403e-10,3.36155724349e-10,1.06193503791e-14,1.83176211617e-15,1.08510363213e-14,2.16447643241e-15
-0.000186882042085,3.66665203461e-05,-0.000140064217187,-8.5395563757e-05,7.98049632311e-12,5.82645738797e-12,7.98049632311e-12,7.98049632311e-12,3.38667852177e-10,3.40821891112e-10,3.38667852177e-10,3.38667852177e-10,1.04394644304e-14,2.60433027462e-15,9.6405335927e-15,3.69551310972e-15
-0.000199115621907,2.84978320969e-05,-0.000124079165428,-0.000111306047293,7.76850934997e-12,4.96152515569e-12,6.31278023313e-12,7.19109603347e-12,3.39697998645e-10,3.41049253722e-10,3.39697998645e-10,3.38819682845e-10,1.0138292322e-14,3.29404600821e-15,8.93634036486e-15,4.68877705111e-15
-0.00018505686916,-2.75043978971e-05,-9.45046557431e-05,-0.000114661934857,5.337336875e-12,6.9385379375e-12,5.337336875e-12,5.337336875e-12,3.39525949125e-10,3.35604166813e-10,3.39525949125e-10,3.39525949125e-10,9.51656842398e-15,3.96334935958e-15,7.99446849498e-15,5.67371577324e-15
-0.000175269861147,-4.06799684741e-05,-8.26556264568e-05,-0.000151228365719,9.28466214312e-12,4.78136412019e-12,7.61057365876e-12,8.5567975847e-12,3.3822177261e-10,3.3822177261e-10,3.3822177261e-10,3.3822177261e-10,8.80927308337e-15,4.89302518772e-15,7.03523207191e-15,6.74378871375e-15
-0.000171862528645,-5.92715623777e-05,-6.128619379e-05,-0.000169658750224,7.76996322078e-12,9.08156973063e-12,7.87519995976e-12,7.76996322078e-12,3.3906083558e-10,3.36821252324e-10,3.36821252324e-10,3.3906083558e-10,7.93310406845e-15,5.88053096377e-15,6.02207340872e-15,7.76262879947e-15
-0.000148074449264,-7.23068215177e-05,-4.57353217189e-05,-0.000163507746777,5e-12,5e-12,5e-12,5e-12,3.37417161e-10,3.37417161e-10,3.37417161e-10,3.37417161e-10,6.81145560195e-15,6.57415308173e-15,5.15597300404e-15,8.12675597626e-15
-0.000122183098588,-8.98009482177e-05,-3.07028709623e-05,-0.000179309256903,5.75e-12,5.75e-12,3.25e-12,7.5e-12,3.36667161e-10,3.36667161e-10,3.36667161e-10,3.39917161e-10,5.80117687203e-15,7.80749065572e-15,4.05030611227e-15,9.30886925809e-15
-0.000117552364232,-0.000116248579249,2.34969517716e-05,-0.00019590553926,8.93629522068e-12,8.93629522068e-12,5.39880862415e-12,7.5741359006e-12,3.38081890107e-10,3.38081890107e-10,3.41619376703e-10,3.40081339053e-10,4.81120577888e-15,8.72421125692e-15,3.33084378521e-15,9.95949340124e-15
-9.39770088632e-05,-0.000140262050648,3.29286435073e-05,-0.000196784700998,8.42980817499e-12,7.21233238533e-12,5.61321395049e-12,7.21233238533e-12,3.37710558848e-10,3.39789412813e-10,3.41388531248e-10,3.39789412813e-10,3.85817966937e-15,9.57381502153e-15,2.69123024846e-15,1.03849477172e-14
-6.60631726004e-05,-0.000145695090096,3.66037275617e-05,-0.000177053580225,5.75e-12,2.5e-12,2.5e-12,7.5e-12,3.36667161e-10,3.39917161e-10,3.39917161e-10,3.39917161e-10,2.9812243966e-15,1.02081752115e-14,2.16818958193e-15,1.05056921482e-14
-3.89351235362e-05,-0.000153031899271,2.47414732716e-05,-0.000161757083398,5e-12,1e-11,5e-12,1e-11,3.37417161e-10,3.37417161e-10,3.37417161e-10,3.37417161e-10,2.21367565965e-15,1.05749943698e-14,1.80022778633e-15,1.03484784894e-14
-1.77815483053e-05,-0.000187084934988,5.17503197813e-05,-0.000158701944121,3.63204414651e-12,7.16880380699e-12,7.16880380699e-12,7.16880380699e-12,3.37656215406e-10,3.39832530435e-10,3.39832530435e-10,3.39832530435e-10,1.61896791767e-15,1.14576804525e-14,1.65711220425e-15,1.04844133878e-14
2.92955313965e-05,-0.000190300402877,5.08335792956e-05,-0.00013302932688,5.81622451719e-12,8.15974004422e-12,5.81622451719e-12,8.15974004422e-12,3.40733123983e-10,3.39076170956e-10,3.40733123983e-10,3.39076170956e-10,1.23879441926e-15,1.15884909801e-14,1.5041901815e-15,9.83001303534e-15
-0.000143907814783,3.06213690998e-05,-0.000171737890279,-1.56068106955e-05,1e-11,5e-12,1e-11,6.25e-12,3.37417161e-10,3.37417161e-10,3.37417161e-10,3.36167161e-10,1.04655318906e-14,1.43371383254e-15,1.1580120941e-14,1.42274413081e-15
-0.00018331162847,4.38211224384e-05,-0.00017679834156,-6.30191290745e-05,7.40607428785e-12,5.57968078269e-12,7.40607428785e-12,7.51764183276e-12,3.3960399291e-10,3.41430386415e-10,3.3960399291e-10,3.37229681353e-10,1.1137578149e-14,1.85368927585e-15,1.12650390085e-14,2.53470824805e-15
-0.000189109175137,3.58105463715e-05,-0.00014483851164,-0.000105720230774,5.82645738797e-12,4.16950436094e-12,5.82645738797e-12,5.82645738797e-12,3.39036828612e-10,3.40693781639e-10,3.39036828612e-10,3.39036828612e-10,1.0906813679e-14,2.77214639905e-15,9.99177436523e-15,4.20195301832e-15
-0.000194638304016,-2.28325974206e-05,-0.000125576493093,-0.000130286056431,7.06526013441e-12,6.13677022615e-12,7.40775605324e-12,7.40775605324e-12,3.40448463692e-10,3.35849731117e-10,3.38449014746e-10,3.38449014746e-10,1.05553143887e-14,3.50545513116e-15,9.22876347468e-15,5.17323515877e-15
-0.000194030391725,-3.86370236209e-05,-0.000109665183749,-0.000146604385906,6.83715459869e-12,3.19024127752e-12,8.18840967614e-12,8.18840967614e-12,3.39806633993e-10,3.38455378916e-10,3.38455378916e-10,3.38455378916e-10,9.90437687999e-15,4.20837968279e-15,8.19618355168e-15,6.16116335912e-15
-0.000178697424527,-5.58685488419e-05,-8.95595711206e-05,-0.000152227377497,6.18529531403e-12,6.74124209342e-12,9.04060838117e-12,9.04060838117e-12,3.40206580137e-10,3.3735126707e-10,3.3735126707e-10,3.3735126707e-10,9.2923495571e-15,5.187851262e-15,7.34727183907e-15,7.26251932769e-15
-0.000176589549199,-7.02052861882e-05,-7.21005997949e-05,-0.000174694530446,7.62012563288e-12,7.72333296469e-12,7.72333296469e-12,7.62012563288e-12,3.39297861886e-10,3.37101467219e-10,3.37101467219e-10,3.39297861886e-10,8.36343533176e-15,6.13220049704e-15,6.27333002471e-15,8.18720652081e-15
-0.000157449071606,-8.2570976406e-05,-5.7553804549e-05,-0.000170087699347,5e-12,5e-12,5e-12,1e-11,3.37417161e-10,3.37417161e-10,3.37417161e-10,3.37417161e-10,7.30399966956e-15,6.81683589826e-15,5.39553474664e-15,8.57359434326e-15
-0.000141376082483,-0.000102210061397,-3.93459820956e-05,-0.000180562570707,4.125e-12,4.125e-12,4.125e-12,7.5e-12,3.38292161e-10,3.38292161e-10,3.38292161e-10,3.39917161e-10,6.26857141378e-15,8.07193118056e-15,4.32086065857e-15,9.65354058835e-15
-0.000117394522597,-0.000115876595172,-2.69206848549e-05,-0.000184948778438,5.75e-12,2.5e-12,3.25e-12,7.5e-12,3.36667161e-10,3.39917161e-10,3.36667161e-10,3.39917161e-10,5.28164236844e-15,8.98161160966e-15,3.48606912499e-15,1.02738181727e-14
-0.000112273210646,-0.000140987318731,3.24933817119e-05,-0.00019440866502,7.91379961654e-12,7.91379961654e-12,6.19104326525e-12,6.19104326525e-12,3.38767868237e-10,3.38767868237e-10,3.40490624589e-10,3.40490624589e-10,4.37975517747e-15,9.93282356503e-15,2.87489325521e-15,1.08467638596e-14
-7.10998880261e-05,-0.000132817237747,2.82197140004e-05,-0.000158539975466,9.6411625e-12,4.6411625e-12,4.6411625e-12,4.6411625e-12,3.352221235e-10,3.402221235e-10,3.402221235e-10,3.402221235e-10,3.36883216111e-15,1.05314138687e-14,2.2963489621e-15,1.0905946762e-14
-6.65896733946e-05,-0.000169114048399,3.87694010309e-05,-0.000177429620633,4.9875e-12,7.875e-12,1.25e-12,7.875e-12,3.37429661e-10,3.39542161e-10,3.41167161e-10,3.39542161e-10,2.65119045622e-15,1.11179485511e-14,1.86197221812e-15,1.09943944119e-14
-3.50780836769e-05,-0.000190423195638,5.10791853646e-05,-0.000165720721983,3.81099196217e-12,6.58064629422e-12,6.58064629422e-12,6.58064629422e-12,3.37913663271e-10,3.40067702206e-10,3.40067702206e-10,3.40067702206e-10,1.78994508003e-15,1.17267458957e-14,1.59909553332e-15,1.08553992e-14
-1.34539259466e-05,-0.000175580254217,3.36292339862e-05,-0.000131942068247,2.42417161e-10,1e-11,5e-12,5e-12,1e-10,3.37417161e-10,3.37417161e-10,3.37417161e-10,1.14586607893e-15,1.17266900766e-14,1.37621691866e-15,1.01677311086e-14
