number,layout,location,xlocation,zlocation,LET,length,radius,direction,xdirection,ydirection,I_Inv1_out,I_Inv2_out,I_Subs1,I_Subs2,Tau1-inv1,Tau1-inv2,Tau1-subs1,Tau1-subs2,Tau2-inv1,Tau2-inv2,Tau2-subs1,Tau2-subs2,Qcoll-inv1_out,Qcoll-inv2_out,Qcoll-subs1,Qcoll-subs2
37,D1-S2_body1,mid,0.3504,0.2477,0.11,6,0.43,90,0,1,-1.41412740664e-05,-1.42249157827e-05,4.40023670146e-05,1.7513693654e-05,4.73282154381e-12,4.73282154381e-12,8.21091631895e-12,8.21091631895e-12,5.92731352243e-12,5.92731352243e-12,1.08491863375e-10,1.49534091702e-11,4.65163728326e-17,5.24923843404e-17,1.67144155595e-15,1.4566037017e-15
38,D1-D2_body1,mid,0.3504,0.2477,0.11,6,0.43,90,0,1,-1.46539686699e-05,-1.31640959635e-05,4.44105390986e-05,1.64395378538e-05,4.59558997045e-12,4.40719365387e-12,8.55368090062e-12,9.10234007817e-12,5.72068011672e-12,1.03626586595e-10,1.08674425776e-10,1.36573604588e-11,4.54992439986e-17,5.08750853348e-17,1.70578903494e-15,1.3546877642e-15
39,S1-D2_body1,mid,0.3504,0.2477,0.11,6,0.43,90,0,1,-1.50264022642e-05,-1.48391486256e-05,4.60714327324e-05,1.63971223478e-05,4.31447343188e-12,4.31447343188e-12,8.48515838798e-12,7.06760338436e-12,1.10888306262e-10,9.55360719535e-11,1.08667621306e-10,1.33635962262e-11,4.81082559791e-17,4.71173319839e-17,1.80712359793e-15,1.35254998827e-15
40,D1-S2_body1,pmos,0.3168,0.5114,0.11,6,0.43,90,0,1,-4.84760518058e-06,-4.14985364954e-06,2.52889362272e-05,1.3747018653e-05,2.7368990934e-12,4.53358350841e-12,7.86082132844e-12,4.4325003511e-12,1.10228946185e-10,1.10228946185e-10,6.24690821154e-11,1.52173899645e-11,4.56827772474e-17,4.87853651991e-17,1.40374009518e-15,1.34392575647e-15
41,D1-D2_body1,pmos,0.3168,0.5114,0.11,6,0.43,90,0,1,-5.29775907965e-06,-5.6768826154e-06,2.55999183232e-05,1.24480050149e-05,3.98784545197e-12,2.98903131258e-12,8.44482399403e-12,5.14577693689e-12,1.10372024194e-10,2.2060655755e-12,5.95771444161e-11,1.76283318603e-11,4.44402426488e-17,4.21751424349e-17,1.44178388337e-15,1.23888161568e-15
42,S1-D2_body1,pmos,0.3168,0.5114,0.11,6,0.43,90,0,1,-5.4918670419e-06,-6.56511052767e-06,2.70197176125e-05,1.18566033614e-05,4.14272937259e-12,4.14272937259e-12,8.91901691402e-12,3.57748069188e-12,1.11060050321e-10,1.87946803803e-12,4.9952826025e-11,1.63884123666e-11,4.28102156708e-17,3.99518237441e-17,1.54662402945e-15,1.23678375576e-15
43,D1-S2_body1,nmos,0.3504,0.0599,0.11,6,0.43,90,0,1,-2.39536880529e-05,-2.45713853035e-05,5.02499765404e-05,1.88544238683e-05,8.85150750772e-12,8.85150750772e-12,6.39413137811e-12,8.61025254613e-12,8.85150750772e-12,8.85150750772e-12,1.08808648316e-10,1.50367880269e-11,1.24645956144e-16,1.25411476762e-16,1.73075237306e-15,1.45026365023e-15
44,D1-D2_body1,nmos,0.3504,0.0599,0.11,6,0.43,90,0,1,-2.47849096673e-05,-2.01645447085e-05,5.04619485942e-05,1.77257303163e-05,7.83211884906e-12,4.70562529036e-12,6.62428665625e-12,7.04932691661e-12,7.83211884906e-12,5.83550475825e-11,1.08578493038e-10,2.00589258553e-11,1.23714473649e-16,8.36566285468e-17,1.75986354352e-15,1.35140321249e-15
45,S1-D2_body1,nmos,0.3504,0.0599,0.11,6,0.43,90,0,1,-2.18580379997e-05,-2.20005266967e-05,5.18530702938e-05,1.75835606073e-05,4.70495358101e-12,4.70495358101e-12,6.3768930403e-12,7.11935984681e-12,7.87220945174e-12,7.87220945174e-12,1.08825886654e-10,1.98866603463e-11,7.59878635093e-17,8.62171247093e-17,1.85636311181e-15,1.3481913411e-15
46,D1-S2_body1,mid,0.3504,0.2477,0.11,6,0.43,45,1,1,-2.07443026115e-05,-1.25926102762e-05,4.38123182532e-05,2.00849356139e-05,2.31594493743e-12,4.312904673e-12,8.33351282584e-12,8.88578732111e-12,7.05602387888e-11,6.26684665627e-12,1.08819266868e-10,1.99709620073e-11,5.2773372759e-17,5.22214247034e-17,1.67258720169e-15,1.62257825435e-15
47,D1-D2_body1,mid,0.3504,0.2477,0.11,6,0.43,45,1,1,-2.13430236479e-05,-1.15843582221e-05,4.40741636016e-05,1.8760648491e-05,2.3157747938e-12,4.07197466402e-12,8.66593584683e-12,8.66593584683e-12,7.01882766133e-12,1.1113080503e-10,1.08486843847e-10,1.08486843847e-10,5.16292684803e-17,5.0508423848e-17,1.70436718607e-15,1.51677671579e-15
48,S1-D2_body1,mid,0.3504,0.2477,0.11,6,0.43,45,1,1,-2.27190508642e-05,-1.26391286942e-05,4.58193284115e-05,1.87679692484e-05,3.50834007263e-12,4.46775626391e-12,8.11999163148e-12,8.65404993165e-12,7.90318144576e-11,1.1096752343e-10,1.08582788062e-10,1.08048729762e-10,5.39469407701e-17,4.81732773015e-17,1.80927578866e-15,1.51819417296e-15
49,D1-S2_body1,pmos,0.3168,0.5114,0.11,6,0.43,45,1,1,-8.73633629267e-06,-3.08398145016e-06,2.45675322307e-05,1.4327993414e-05,2.06801834313e-12,2.53146469468e-12,8.78912955041e-12,9.30390892106e-12,1.10820918236e-10,1.12671314999e-10,5.84795927316e-11,1.08728286946e-11,5.14436959186e-17,4.37065776878e-17,1.39937644097e-15,1.48082634768e-15
50,D1-D2_body1,pmos,0.3168,0.5114,0.11,6,0.43,45,1,1,-8.86665968089e-06,-4.94063983573e-06,2.49306715707e-05,1.33067581921e-05,2.20812795232e-12,3.70494753122e-12,8.5743689424e-12,9.11025276552e-12,1.107959355e-10,3.00179709967e-12,5.24894628153e-11,1.01807476323e-11,5.08183955166e-17,4.21674523318e-17,1.43594753578e-15,1.37366087931e-15
51,S1-D2_body1,pmos,0.3168,0.5114,0.11,6,0.43,45,1,1,-9.03637054437e-06,-5.65871733035e-06,2.63578352392e-05,1.32954816795e-05,1.85233445521e-12,3.88277358658e-12,8.56228395818e-12,9.10490865414e-12,1.10883415333e-10,2.77852664183e-12,4.42945645324e-11,1.03588301759e-11,5.29448922478e-17,4.08733119862e-17,1.54245116388e-15,1.37505888228e-15
52,D1-S2_body1,nmos,0.3504,0.0599,0.11,6,0.43,45,1,1,-3.30399710199e-05,-2.04573907724e-05,4.97710945859e-05,2.15393924545e-05,1.23255415009e-11,8.41897952859e-12,8.31925402163e-12,8.76101266019e-12,1.23255415009e-11,8.41897952859e-12,1.08833525672e-10,1.08391767034e-10,1.96263502669e-16,9.17195584838e-17,1.73074671923e-15,1.61681850095e-15
53,D1-D2_body1,nmos,0.3504,0.0599,0.11,6,0.43,45,1,1,-3.41967503936e-05,-1.74433457994e-05,5.01842359646e-05,2.02169025432e-05,1.0522731155e-11,4.66799280503e-12,7.91353496937e-12,8.37792911817e-12,1.0522731155e-11,7.25962342681e-11,1.08789244725e-10,1.08324850576e-10,1.96410898602e-16,7.50378139586e-17,1.76136322266e-15,1.5158430297e-15
54,S1-D2_body1,nmos,0.3504,0.0599,0.11,6,0.43,45,1,1,-3.40424984062e-05,-1.82501813709e-05,5.17573249115e-05,2.0207795573e-05,1.01834505303e-11,4.60282123119e-12,7.83137528663e-12,8.25227609821e-12,1.01834505303e-11,6.5539765776e-11,1.08871404407e-10,1.08450503596e-10,1.72444198121e-16,7.1986576574e-17,1.85850061832e-15,1.51655889249e-15
