Time,Inv1_out,Inv2_out,Subs,Subs2
6.18700000000000E-13,5.01329894473678E-13,4.95509018137987E-13,3.11090305063118E-15,7.12673637223615E-15
9.04310000000000E-13,4.49326637745106E-13,4.44056766191128E-13,4.54579004336233E-15,8.38871839969940E-15
1.27560300000000E-12,3.94309142961558E-13,3.89604688479138E-13,6.07479754630495E-15,9.67562399290056E-15
1.75828390000000E-12,3.30901550393039E-13,3.26502369777933E-13,7.79265377082387E-15,1.11410496064825E-14
2.38576907000000E-12,2.54489660162584E-13,2.50133058257780E-13,9.65850605474838E-15,1.27951237646029E-14
3.20149979100000E-12,1.59339154422848E-13,1.54828004975584E-13,1.17260624118407E-14,1.46510633420913E-14
4.26194972830000E-12,3.86986220534613E-14,3.38509747243385E-14,1.39128124191613E-14,1.66377028876027E-14
5.64053464679000E-12,-1.15741161994339E-13,-1.21144280618370E-13,1.61437011748029E-14,1.86753219733919E-14
7.43269504082700E-12,-3.14352785439375E-13,-3.20616594824854E-13,1.83173347389098E-14,2.06676950628289E-14
9.76250355307510E-12,-3.03902824153654E-13,-3.04246646872064E-13,1.37774314057573E-14,1.38045082157765E-14
1.27912546189976E-11,-3.42439072942326E-13,-3.41924124014996E-13,1.03951527916182E-14,1.02994653616292E-14
1.67286310046969E-11,-4.23839125299312E-13,-4.22578253182782E-13,8.24714044154376E-15,8.34974352554844E-15
2.18472203061060E-11,-5.34964860936890E-13,-5.32425276737327E-13,6.81523280312549E-15,7.03911471110983E-15
2.78472203061060E-11,-6.39816650173507E-13,-6.35594522840716E-13,5.51380407820253E-15,5.71208189866891E-15
3.38472203061060E-11,-7.50407069898086E-13,-7.44530636112056E-13,4.92623567870285E-15,5.15571485314686E-15
3.98472203061060E-11,-2.59837277723311E-12,-2.17283032338608E-12,5.68949975416802E-11,4.97273219924115E-11
4.13472203061060E-11,-3.03677478424484E-10,-2.97463853647243E-10,1.80993521440790E-09,1.48167651667381E-09
4.32972203061060E-11,-1.37585358311691E-08,-1.29515091705596E-08,9.80461674767661E-08,8.14377697605529E-08
4.45647203061060E-11,-1.37341252492490E-07,-1.30536041718713E-07,7.58664060875818E-07,6.00211606251398E-07
4.53653859138542E-11,-4.84371423151965E-07,-4.51562818500911E-07,2.31167827163146E-06,1.71651792723642E-06
4.62434497461602E-11,-1.43198663508189E-06,-1.28063074909709E-06,6.80861504852556E-06,4.64460409289435E-06
4.65599457886294E-11,-2.22392879715189E-06,-1.91413836855214E-06,9.39022260726079E-06,6.11444605429233E-06
4.69065485391160E-11,-3.32984667603142E-06,-2.82137173736723E-06,1.29791829455244E-05,8.07219596731515E-06
4.73255924164390E-11,-5.07554376657839E-06,-4.28090711725003E-06,1.82216514691005E-05,1.07600373232792E-05
4.77241278511110E-11,-7.62820975381120E-06,-6.39417539025714E-06,2.38931019550783E-05,1.33963158555563E-05
4.80808594008736E-11,-1.23865594823342E-05,-9.81944687962348E-06,2.87474428896170E-05,1.53716768378271E-05
4.84247548768653E-11,-2.01101346902740E-05,-1.41545357003345E-05,3.26760018118606E-05,1.63441376619553E-05
4.87741539525525E-11,-2.83059868923512E-05,-1.68151056786501E-05,3.61243503918033E-05,1.63087466891349E-05
4.89451920328760E-11,-3.17991411110537E-05,-1.76310445160527E-05,3.76620593197285E-05,1.60483545802326E-05
4.91675415372967E-11,-3.40425010046140E-05,-1.82501835437077E-05,3.96812982615395E-05,1.59982523705660E-05
4.94565958930435E-11,-3.35707611023634E-05,-1.80898064957888E-05,4.22500030770675E-05,1.63570436924878E-05
4.96444812242789E-11,-3.10319978938879E-05,-1.69901596732134E-05,4.39454889248138E-05,1.67956062072499E-05
4.97666066895819E-11,-2.86654696946596E-05,-1.58700056843031E-05,4.50347480739325E-05,1.71436071190705E-05
4.98459882420289E-11,-2.69768841544908E-05,-1.50122475373181E-05,4.57247635721559E-05,1.73845515420822E-05
4.99491842602100E-11,-2.49765705534911E-05,-1.38851153839963E-05,4.65735524671940E-05,1.76936110635184E-05
5.00162616720277E-11,-2.36726375107678E-05,-1.31001841305819E-05,4.71041340818020E-05,1.78960355860551E-05
5.01034623073907E-11,-2.21838069576952E-05,-1.21234393071840E-05,4.77540262910675E-05,1.81479688601313E-05
5.02168231333626E-11,-2.05515016899618E-05,-1.09448924729556E-05,4.85296870782031E-05,1.84546023833329E-05
5.03641922071260E-11,-1.88554751098081E-05,-9.59323039502265E-06,4.94169153378801E-05,1.88151747918326E-05
5.05557720030185E-11,-1.72011153385754E-05,-8.15284496002251E-06,5.03589700469251E-05,1.92175424794763E-05
5.08048257376788E-11,-1.56690731573363E-05,-6.75493632635082E-06,5.12240379001972E-05,1.96308058763208E-05
5.11285955927371E-11,-1.42338090050694E-05,-5.52172444105720E-06,5.17573818065355E-05,1.99950207297733E-05
5.15494964043129E-11,-1.27096122310904E-05,-4.48658770576389E-06,5.15304122231196E-05,2.02078453003064E-05
5.20808649713694E-11,-1.08074331550536E-05,-3.57356959496620E-06,4.99871562028948E-05,2.01255329494996E-05
5.25782996962601E-11,-8.78394536163313E-06,-2.78260305703037E-06,4.74627559572292E-05,1.97566302165937E-05
5.30375383535875E-11,-6.85800568078021E-06,-2.11947026521376E-06,4.45329616423722E-05,1.92380898302880E-05
5.35152563365375E-11,-4.99173014641983E-06,-1.54415804141403E-06,4.12841692541343E-05,1.86036021039703E-05
5.40520914103803E-11,-3.17644110815957E-06,-1.03714764188880E-06,3.77670626800272E-05,1.78627821088288E-05
5.46745748393883E-11,-1.49394124092119E-06,-6.12058159435588E-07,3.41689798257950E-05,1.70516800087665E-05
5.54304205203728E-11,-4.50740426207120E-08,-2.93888448994928E-07,3.06707420491290E-05,1.62130439787400E-05
5.64130199056527E-11,1.06112474219952E-06,-1.05612579395805E-07,2.73826827960908E-05,1.53899572229777E-05
5.76903991065166E-11,1.70575562586208E-06,-4.91138559977151E-08,2.44654019435534E-05,1.46668436363116E-05
5.93509920676396E-11,1.92303843173769E-06,-7.65120565586984E-08,2.19636326160561E-05,1.40851687244300E-05
6.15097629170995E-11,1.84632366189970E-06,-1.23732408666022E-07,1.99094540808448E-05,1.36548312346500E-05
6.43161650213974E-11,1.61128778003003E-06,-1.47277461854311E-07,1.82558310434712E-05,1.33756819264351E-05
6.79644877569847E-11,1.32330265019974E-06,-1.29388880898781E-07,1.68465340089113E-05,1.32277821507198E-05
7.27073073132482E-11,1.05135120216236E-06,-7.36984057069217E-08,1.56070407510876E-05,1.31650991102401E-05
7.87073073132482E-11,8.35594699146835E-07,1.44350339298903E-09,1.46559211334162E-05,1.31353866187376E-05
8.47073073132482E-11,6.94463063295693E-07,6.44526842590607E-08,1.40999193815427E-05,1.31088087394367E-05
9.07073073132482E-11,5.98905757921042E-07,1.11382883110701E-07,1.37632049089485E-05,1.30748607395140E-05
9.67073073132482E-11,5.28351956215846E-07,1.43440739780936E-07,1.35400068976208E-05,1.30333884217441E-05
1.02707307313248E-10,4.71406580848866E-07,1.63188706330759E-07,1.33794296986367E-05,1.29866168155234E-05
1.08707307313248E-10,4.22232788650678E-07,1.73378254530643E-07,1.32569710567152E-05,1.29368539967869E-05
1.14707307313248E-10,3.78090233201365E-07,1.76464596235974E-07,1.31603992810183E-05,1.28859486818944E-05
1.20707307313248E-10,3.37784930451888E-07,1.74493715364953E-07,1.30827425184969E-05,1.28352544362811E-05
1.26707307313248E-10,3.00874610460804E-07,1.69069331393658E-07,1.30195896986803E-05,1.27856896155857E-05
1.32707307313248E-10,2.67225954378339E-07,1.61424950184918E-07,1.29677469351622E-05,1.27378488397231E-05
1.38707307313248E-10,2.36771830837445E-07,1.52456250082563E-07,1.29251927706859E-05,1.26920910717095E-05
1.44707307313248E-10,2.09403935519335E-07,1.42839776407714E-07,1.28902190197940E-05,1.26486098616886E-05
1.50707307313248E-10,1.82910378835610E-07,1.32534380571699E-07,1.28616156389821E-05,1.26075119427605E-05
1.56707307313248E-10,1.63280261970171E-07,1.23474061755792E-07,1.28379707466277E-05,1.25687142395494E-05
1.60000000000000E-10,1.50700623056577E-07,1.17436008152067E-07,1.28264755460579E-05,1.25481075811074E-05
