number,layout,location,xlocation,zlocation,LET,length,radius,direction,xdirection,ydirection
37,D1-S2_body1,mid,0.3504,0.2477,0.11,6,0.43,90,0,1
38,D1-D2_body1,mid,0.3504,0.2477,0.11,6,0.43,90,0,1
39,S1-D2_body1,mid,0.3504,0.2477,0.11,6,0.43,90,0,1
40,D1-S2_body1,pmos,0.3168,0.5114,0.11,6,0.43,90,0,1
41,D1-D2_body1,pmos,0.3168,0.5114,0.11,6,0.43,90,0,1
42,S1-D2_body1,pmos,0.3168,0.5114,0.11,6,0.43,90,0,1
43,D1-S2_body1,nmos,0.3504,0.0599,0.11,6,0.43,90,0,1
44,D1-D2_body1,nmos,0.3504,0.0599,0.11,6,0.43,90,0,1
45,S1-D2_body1,nmos,0.3504,0.0599,0.11,6,0.43,90,0,1
46,D1-S2_body1,mid,0.3504,0.2477,0.11,6,0.43,45,1,1
47,D1-D2_body1,mid,0.3504,0.2477,0.11,6,0.43,45,1,1
48,S1-D2_body1,mid,0.3504,0.2477,0.11,6,0.43,45,1,1
49,D1-S2_body1,pmos,0.3168,0.5114,0.11,6,0.43,45,1,1
50,D1-D2_body1,pmos,0.3168,0.5114,0.11,6,0.43,45,1,1
51,S1-D2_body1,pmos,0.3168,0.5114,0.11,6,0.43,45,1,1
52,D1-S2_body1,nmos,0.3504,0.0599,0.11,6,0.43,45,1,1
53,D1-D2_body1,nmos,0.3504,0.0599,0.11,6,0.43,45,1,1
54,S1-D2_body1,nmos,0.3504,0.0599,0.11,6,0.43,45,1,1
