number,layout,location,xlocation,zlocation,LET,length,radius,direction,xdirection,ydirection,I_Inv1_out,I_Inv2_out,I_Subs1,I_Subs2,Tau1-inv1,Tau1-inv2,Tau1-subs1,Tau1-subs2,Tau2-inv1,Tau2-inv2,Tau2-subs1,Tau2-subs2,Qcoll-inv1_out,Qcoll-inv2_out,Qcoll-subs1,Qcoll-subs2
1,D1-S2_body3,mid,0.35,0.25,0.01,1.46,0.27,90,0,1,-3.0125095091e-06,-3.0906202453e-06,1.01908127449e-05,1.07121059969e-05,7.24270062628e-12,7.24270062628e-12,7.65067070259e-12,7.65067070259e-12,1.05954265336e-10,1.05954265336e-10,1.07832890437e-10,1.07832890437e-10,3.42435650485e-17,3.66698545122e-17,1.03144361569e-15,1.07486583073e-15
2,D1-D2_body3,mid,0.35,0.25,0.01,1.46,0.27,90,0,1,-3.31821287632e-06,-3.11316290065e-06,1.01058229235e-05,1.01281031308e-05,6.86570187486e-12,5.76061954176e-12,6.14805620862e-12,5.78262287542e-12,1.06912077819e-10,1.07529660152e-10,1.99493000431e-11,2.63147333763e-11,3.26313978642e-17,3.84807164239e-17,1.0366942428e-15,1.00460116899e-15
3,S1-D2_body3,mid,0.35,0.25,0.01,1.46,0.27,90,0,1,-3.56398528365e-06,-3.28617921205e-06,8.99766041359e-06,1.00639219348e-05,6.55764306819e-12,6.2487998432e-12,6.6237998432e-12,5.78316147933e-12,1.07220136626e-10,1.07528979851e-10,3.29213457511e-11,2.2007205553e-11,3.40138405314e-17,3.59633480884e-17,9.34824180533e-16,1.00383157827e-15
4,D1-S2_body3,pmos,0.35,0.51,0.01,1.46,0.27,90,0,1,-2.62884715915e-06,-2.82500340457e-06,9.95613140996e-06,1.03955473601e-05,5.65387507814e-12,5.21906529781e-12,8.46977482925e-12,8.24373604045e-12,1.05112160565e-10,1.05112160565e-10,1.07042754865e-10,1.07268793653e-10,4.01707377708e-17,4.52988530025e-17,1.02490743067e-15,1.06734379957e-15
5,D1-D2_body3,pmos,0.35,0.51,0.01,1.46,0.27,90,0,1,-2.38280045724e-06,-1.96340882484e-06,9.97094603622e-06,9.97852725131e-06,8.20555532424e-12,4.62642423194e-12,6.5909052736e-12,6.04861334623e-12,1.0575972437e-10,1.09338855462e-10,2.55971427477e-11,1.08104166348e-10,3.6478268352e-17,3.56206439117e-17,1.03264366439e-15,1.00057552283e-15
6,S1-D2_body3,pmos,0.35,0.51,0.01,1.46,0.27,90,0,1,-2.05232966922e-06,-2.01740256182e-06,8.95559232679e-06,9.95547639208e-06,3.80328873718e-12,4.00662928717e-12,6.38604401238e-12,5.11330204606e-12,1.09449490957e-10,1.09246150407e-10,2.80260303232e-11,2.92987722895e-11,3.34450155939e-17,3.47940414454e-17,9.32120450958e-16,1.00156122738e-15
7,D1-S2_body3,nmos,0.35,0.06,0.01,1.46,0.27,90,0,1,-2.432612318e-06,-2.88388295406e-06,9.15929807928e-06,9.555501934e-06,4.36624093631e-12,4.36624093631e-12,9.80635773555e-12,8.90592710519e-12,9.79141753147e-11,9.79141753147e-11,1.05360328404e-10,1.06260759035e-10,2.89502434161e-17,3.07282275508e-17,9.74819203279e-16,1.01463762074e-15
8,D1-D2_body3,nmos,0.35,0.06,0.01,1.46,0.27,90,0,1,-2.68685642729e-06,-2.29555407723e-06,9.23933345226e-06,9.09658200343e-06,4.51373805234e-12,7.51656364412e-12,8.02057894806e-12,8.02057894806e-12,1.09639041642e-10,1.04968487808e-10,1.06132200746e-10,1.06132200746e-10,2.63153083235e-17,3.28774345466e-17,9.8179846542e-16,9.54604969529e-16
9,S1-D2_body3,nmos,0.35,0.06,0.01,1.46,0.27,90,0,1,-2.21701564221e-06,-2.16811505291e-06,8.20503196865e-06,9.01314000717e-06,8.99875674388e-12,7.88510175307e-12,1.04980621225e-11,8.02311307746e-12,1.0440402295e-10,1.04599881768e-10,1.03654717571e-10,1.06129666616e-10,2.80575572238e-17,3.11185198134e-17,8.87088591851e-16,9.54125072678e-16
10,D1-S2_body3,mid,0.35,0.25,0.11,6,0.43,90,0,1,-1.45919028077e-05,-1.51152086664e-05,1.58699043401e-05,1.74147528295e-05,3.84188667615e-12,3.84188667615e-12,7.48679217172e-12,8.44626323262e-12,6.25789585041e-12,6.25789585041e-12,1.30759672313e-11,1.30759672313e-11,4.75990042881e-17,5.05854157369e-17,1.36910079027e-15,1.45683692888e-15
11,D1-D2_body3,mid,0.35,0.25,0.11,6,0.43,90,0,1,-1.52851960359e-05,-1.3056675627e-05,1.58170024886e-05,1.63678641512e-05,4.40917183329e-12,4.18127028764e-12,8.81805717198e-12,8.81805717198e-12,5.56360941592e-12,1.08254908951e-10,1.29765788857e-11,1.67120324426e-11,4.72069575814e-17,4.93728912606e-17,1.36967410823e-15,1.35370427505e-15
12,S1-D2_body3,mid,0.35,0.25,0.11,6,0.43,90,0,1,-1.51166550616e-05,-1.38200802312e-05,1.45063590486e-05,1.63220780131e-05,4.03325367752e-12,4.03325367752e-12,6.81561532637e-12,8.76561532637e-12,1.11169526016e-10,1.05584491958e-10,1.55778239395e-11,1.55778239395e-11,4.7559257581e-17,4.78188134254e-17,1.2438874052e-15,1.35118426012e-15
13,D1-S2_body3,pmos,0.32,0.51,0.11,6,0.43,90,0,1,-6.04152503145e-06,-5.7100682653e-06,1.29771313475e-05,1.31438742307e-05,4.30871802173e-12,4.30871802173e-12,7.47724409592e-12,4.25254918824e-12,1.10393753276e-10,1.10393753276e-10,1.227411249e-11,1.54988073977e-11,4.47149493611e-17,4.73968957182e-17,1.30962255701e-15,1.34600408399e-15
14,D1-D2_body3,pmos,0.32,0.51,0.11,6,0.43,90,0,1,-6.131537023e-06,-6.27967750322e-06,1.29522102023e-05,1.23568118202e-05,4.59346782498e-12,3.9758337914e-12,8.96541604259e-12,5.14137916957e-12,1.10609311869e-10,1.73861370533e-12,1.0737165148e-11,1.76693243542e-11,4.2165602477e-17,4.12573801187e-17,1.31064761997e-15,1.24097668679e-15
15,S1-D2_body3,pmos,0.32,0.51,0.11,6,0.43,90,0,1,-6.55329046936e-06,-6.88017872992e-06,1.17690032992e-05,1.2282373949e-05,3.97311788381e-12,3.97311788381e-12,6.93658670091e-12,5.14148679965e-12,1.1122966181e-10,1.92317583757e-12,1.31242313228e-11,1.6869331224e-11,4.15318063838e-17,3.98788605862e-17,1.1821641797e-15,1.23921477711e-15
16,D1-S2_body3,nmos,0.35,0.06,0.11,6,0.43,90,0,1,-2.44178403962e-05,-2.53598961558e-05,1.6995797699e-05,1.87739271206e-05,8.34366077412e-12,8.34366077412e-12,8.07551975256e-12,8.07551975256e-12,8.34366077412e-12,8.34366077412e-12,1.7197408111e-11,1.7197408111e-11,1.30270071692e-16,1.32617723013e-16,1.36225514422e-15,1.45035848938e-15
17,D1-D2_body3,nmos,0.35,0.06,0.11,6,0.43,90,0,1,-2.48171007556e-05,-1.95609274142e-05,1.69109883369e-05,1.76470603564e-05,8.04481549629e-12,4.5530360156e-12,6.70883173688e-12,7.14893444733e-12,8.04481549629e-12,4.81706500284e-11,1.70581184015e-11,1.6618015691e-11,1.26890228958e-16,8.56864737796e-17,1.36160016868e-15,1.35106564195e-15
18,S1-D2_body3,nmos,0.35,0.06,0.11,6,0.43,90,0,1,-2.12084161935e-05,-2.06053048834e-05,1.55881811229e-05,1.76423438728e-05,5.07657050605e-12,5.435997679e-12,7.67275903701e-12,7.67275903701e-12,8.20786411828e-12,9.46171828012e-12,1.55930472056e-11,2.02007400259e-11,7.47088877979e-17,8.522536329e-17,1.24092569178e-15,1.34871263674e-15
