Time,Drain1,Drain2,Source1,Source2
3.98472203061060E-11,-1.21015748538074E-12,-9.07138780014660E-13,1.89169829171655E-11,2.24136628637065E-11
4.28472203061060E-11,-1.62452873206114E-09,-1.74555835476309E-09,1.39994816609536E-08,1.69782205772801E-08
4.45695441695116E-11,-4.40612187545645E-08,-4.75602204270677E-08,2.21552095515927E-07,2.74831356926840E-07
4.55830487274388E-11,-2.07371082265123E-07,-2.23375525527794E-07,8.02947136956329E-07,1.00992811521173E-06
4.61562658382432E-11,-4.37179310878224E-07,-4.71423526870508E-07,1.49531317520858E-06,1.89267766656971E-06
4.68326545510355E-11,-8.71531662350987E-07,-9.58113348114056E-07,2.95981311912812E-06,3.73657092596756E-06
4.74734779770498E-11,-1.50420569932317E-06,-1.69319166960849E-06,5.00628746634373E-06,6.25821032052529E-06
4.79982209250869E-11,-2.27579168452541E-06,-2.62338301248369E-06,6.98991159328270E-06,8.62035704056258E-06
4.84645218563231E-11,-3.26859504733214E-06,-3.85044677703225E-06,8.77661927863915E-06,1.06568476883211E-05
4.87001732793689E-11,-4.10910300896024E-06,-4.88170012443082E-06,9.57883212320069E-06,1.15251753341114E-05
4.88533467043487E-11,-4.87017815289514E-06,-5.77981672853935E-06,1.00325721044045E-05,1.19803702851340E-05
4.89529094305856E-11,-5.52934980608339E-06,-6.53641363250781E-06,1.02809002834686E-05,1.22028774291622E-05
4.90823409746935E-11,-6.57571616587725E-06,-7.64377215653771E-06,1.05387523436215E-05,1.24048561216875E-05
4.92506019820338E-11,-8.11165797322176E-06,-9.08101247342969E-06,1.07795716008149E-05,1.25635513395810E-05
4.94693412915761E-11,-1.00729342197362E-05,-1.07805058376389E-05,1.09758226867520E-05,1.26265804512558E-05
4.96115218427787E-11,-1.13851281293744E-05,-1.18671689450419E-05,1.10277553516382E-05,1.25715467743696E-05
4.97963565593420E-11,-1.28391162166018E-05,-1.29822781459561E-05,1.10331276185514E-05,1.24370539933977E-05
5.00366416908743E-11,-1.42412465478261E-05,-1.39655831130446E-05,1.09628859012062E-05,1.22051633734640E-05
5.03490123618663E-11,-1.50796621913690E-05,-1.44668470044320E-05,1.08281297018153E-05,1.19227158122668E-05
5.07550942341558E-11,-1.45657808123707E-05,-1.39708447377917E-05,1.07045442284722E-05,1.17179461186500E-05
5.12830006681323E-11,-1.19220172484801E-05,-1.17767847978971E-05,1.06925003190137E-05,1.17154232498216E-05
5.13687854636535E-11,-1.10361621302603E-05,-1.09843582812607E-05,1.07182103472118E-05,1.17548061100962E-05
5.14803056978310E-11,-9.95354102181634E-06,-1.00155514052724E-05,1.07463634927201E-05,1.17982164815908E-05
5.15527938500464E-11,-9.22962512120678E-06,-9.36193287316049E-06,1.07659184594707E-05,1.18273094860568E-05
5.16470284479264E-11,-8.33482117431965E-06,-8.55007782589488E-06,1.07889836893689E-05,1.18606606807465E-05
5.17695334251704E-11,-7.24355642557526E-06,-7.55287234554165E-06,1.08155539808602E-05,1.18976711572482E-05
5.18491616603790E-11,-6.52787859976574E-06,-6.89259021627266E-06,1.08326802069071E-05,1.19208805099715E-05
5.19526783661502E-11,-5.67054881911124E-06,-6.09738197440137E-06,1.08501752189949E-05,1.19442579671330E-05
5.20872500836528E-11,-4.67080663616313E-06,-5.16272324596096E-06,1.08655712046485E-05,1.19645386141655E-05
5.22621933164061E-11,-3.55397578933624E-06,-4.10614231606459E-06,1.08734960478509E-05,1.19750301412998E-05
5.24896195189854E-11,-2.38315235027115E-06,-2.97864950931844E-06,1.08645715320158E-05,1.19641801685810E-05
5.27852735823385E-11,-1.25947712578473E-06,-1.86714227697888E-06,1.08251251030906E-05,1.19150402534349E-05
5.31696238646975E-11,-2.99035026785304E-07,-8.76763659788485E-07,1.07387190033507E-05,1.18071099747332E-05
5.36692792317642E-11,4.06974163762057E-07,-9.74738667202560E-08,1.05907527042469E-05,1.16220983840146E-05
5.43188312089510E-11,8.17383040009581E-07,4.18277867592442E-07,1.03766869761477E-05,1.13543289069652E-05
5.51632487792938E-11,9.34471951385553E-07,6.51760698806908E-07,1.01120386338987E-05,1.10238002790689E-05
5.57121202000166E-11,9.18273975179539E-07,7.02702950818683E-07,9.95155857649592E-06,1.08239037581138E-05
5.64256530469562E-11,7.77147197092910E-07,6.22042420088128E-07,9.78086764609279E-06,1.06123271930859E-05
5.73532457479778E-11,5.56063447052397E-07,4.50915650827449E-07,9.61503201777879E-06,1.04086614234554E-05
5.85591162593058E-11,3.06227643998805E-07,2.37859534947555E-07,9.47117199582224E-06,1.02343650082194E-05
6.01267479240322E-11,7.86167033508975E-08,3.39025279944219E-08,9.36314530847933E-06,1.01055938035031E-05
6.21646690881765E-11,-9.12271361395439E-08,-1.22440598936672E-07,9.29732417817613E-06,1.00279184339478E-05
6.48139666015642E-11,-1.90826219489265E-07,-2.13703652471061E-07,9.27131734207347E-06,9.99607095167214E-06
6.82580533689681E-11,-2.26167744204514E-07,-2.40765517603949E-07,9.27679723533537E-06,9.99858042538680E-06
7.27353661665932E-11,-2.12933712019788E-07,-2.16097907048150E-07,9.30461587233861E-06,1.00243610943165E-05
7.85558728035059E-11,-1.69645499744318E-07,-1.57841725351954E-07,9.34809310293646E-06,1.00660063601910E-05
8.45558728035059E-11,-1.22776732191874E-07,-9.77141637003207E-08,9.39229448035885E-06,1.01085945438245E-05
9.05558728035059E-11,-8.32924557529259E-08,-4.78401870390363E-08,9.43355479841493E-06,1.01482583563650E-05
9.65558728035059E-11,-5.24752625876996E-08,-9.63282907931982E-09,9.47134565599996E-06,1.01843106271197E-05
1.02555872803506E-10,-2.93397306901360E-08,1.81729959057261E-08,9.50571365966637E-06,1.02167019005509E-05
1.08555872803506E-10,-1.24498999276145E-08,3.75077524461808E-08,9.53690661320423E-06,1.02456260022020E-05
1.14555872803506E-10,-4.10916621733435E-10,5.02642354148405E-08,9.56523838474634E-06,1.02713852194362E-05
1.20555872803506E-10,7.94644775583544E-09,5.80650893923230E-08,9.59103455607090E-06,1.02943425670919E-05
1.26555872803506E-10,1.35437141315535E-08,6.22257824913364E-08,9.61460383160723E-06,1.03147889998795E-05
1.32555872803506E-10,1.71011802095253E-08,6.37533270261012E-08,9.63622753469564E-06,1.03330623941659E-05
1.38555872803506E-10,1.91602824483797E-08,6.34281292889678E-08,9.65615716437406E-06,1.03495114034607E-05
1.44555872803506E-10,2.00228649341382E-08,6.16968943036560E-08,9.67449413099706E-06,1.03642819023317E-05
1.50555872803506E-10,2.03285998367700E-08,5.93874916281472E-08,9.69179249143298E-06,1.03779872631653E-05
1.56555872803506E-10,1.98844401541718E-08,5.62923270201488E-08,9.70780100553195E-06,1.03903955989706E-05
1.60000000000000E-10,1.91268325451998E-08,5.38952474240389E-08,9.71656124996757E-06,1.03970675318974E-05
