%!PS-Adobe-3.0 EPSF-3.0
%%BoundingBox: 110 214 502 579
%%Pages: 0
%%Creator: (BLT 2.4 Graph)
%%CreationDate: (Tue Nov  8 21:31:00 2016)
%%Title: (/home/users/nanditha/sentaurus/65nm_mos/final/cmos_inv_3d/2inv/guardring/additional_body_sim/GR-noGR_body_5MeV_correct.eps)
%%DocumentData: Clean7Bit
%%Orientation: Portrait
%%DocumentNeededResources: font Helvetica Courier
%%EndComments


% including file "/usr/local/Softwares/Sentaurus/Sentaurus_vG_2012.06/bin/../tcad/current/lib/bltGraph.pro"

%%BeginProlog
%
% PostScript prolog file of the BLT graph widget.
%
% Copyright 1989-1992 Regents of the University of California.
% Permission to use, copy, modify, and distribute this
% software and its documentation for any purpose and without
% fee is hereby granted, provided that the above copyright
% notice appear in all copies.  The University of California
% makes no representations about the suitability of this
% software for any purpose.  It is provided "as is" without
% express or implied warranty.
%
% Copyright 1991-1997 Bell Labs Innovations for Lucent Technologies.
%
% Permission to use, copy, modify, and distribute this software and its
% documentation for any purpose and without fee is hereby granted, provided
% that the above copyright notice appear in all copies and that both that the
% copyright notice and warranty disclaimer appear in supporting documentation,
% and that the names of Lucent Technologies any of their entities not be used
% in advertising or publicity pertaining to distribution of the software
% without specific, written prior permission.
%
% Lucent Technologies disclaims all warranties with regard to this software,
% including all implied warranties of merchantability and fitness.  In no event
% shall Lucent Technologies be liable for any special, indirect or
% consequential damages or any damages whatsoever resulting from loss of use,
% data or profits, whether in an action of contract, negligence or other
% tortuous action, arising out of or in connection with the use or performance
% of this software.
%

200 dict begin

/BaseRatio 1.3467736870885982 def	% Ratio triangle base / symbol size
/BgColorProc 0 def			% Background color routine (symbols)
/DrawSymbolProc 0 def			% Routine to draw symbol outline/fill
/StippleProc 0 def			% Stipple routine (bar segments)
/DashesProc 0 def			% Dashes routine (line segments)
  
% Define the array ISOLatin1Encoding (which specifies how characters are 
% encoded for ISO-8859-1 fonts), if it isn't already present (Postscript 
% level 2 is supposed to define it, but level 1 doesn't). 
 
systemdict /ISOLatin1Encoding known not { 
  /ISOLatin1Encoding [ 
    /space /space /space /space /space /space /space /space 
    /space /space /space /space /space /space /space /space 
    /space /space /space /space /space /space /space /space 
    /space /space /space /space /space /space /space /space 
    /space /exclam /quotedbl /numbersign /dollar /percent /ampersand 
    /quoteright 
    /parenleft /parenright /asterisk /plus /comma /minus /period /slash 
    /zero /one /two /three /four /five /six /seven 
    /eight /nine /colon /semicolon /less /equal /greater /question 
    /at /A /B /C /D /E /F /G 
    /H /I /J /K /L /M /N /O 
    /P /Q /R /S /T /U /V /W 
    /X /Y /Z /bracketleft /backslash /bracketright /asciicircum /underscore 
    /quoteleft /a /b /c /d /e /f /g 
    /h /i /j /k /l /m /n /o 
    /p /q /r /s /t /u /v /w 
    /x /y /z /braceleft /bar /braceright /asciitilde /space 
    /space /space /space /space /space /space /space /space 
    /space /space /space /space /space /space /space /space 
    /dotlessi /grave /acute /circumflex /tilde /macron /breve /dotaccent 
    /dieresis /space /ring /cedilla /space /hungarumlaut /ogonek /caron 
    /space /exclamdown /cent /sterling /currency /yen /brokenbar /section 
    /dieresis /copyright /ordfeminine /guillemotleft /logicalnot /hyphen 
    /registered /macron 
    /degree /plusminus /twosuperior /threesuperior /acute /mu /paragraph 
    /periodcentered 
    /cedillar /onesuperior /ordmasculine /guillemotright /onequarter 
    /onehalf /threequarters /questiondown 
    /Agrave /Aacute /Acircumflex /Atilde /Adieresis /Aring /AE /Ccedilla 
    /Egrave /Eacute /Ecircumflex /Edieresis /Igrave /Iacute /Icircumflex 
    /Idieresis 
    /Eth /Ntilde /Ograve /Oacute /Ocircumflex /Otilde /Odieresis /multiply 
    /Oslash /Ugrave /Uacute /Ucircumflex /Udieresis /Yacute /Thorn 
    /germandbls 
    /agrave /aacute /acircumflex /atilde /adieresis /aring /ae /ccedilla 
    /egrave /eacute /ecircumflex /edieresis /igrave /iacute /icircumflex 
    /idieresis 
    /eth /ntilde /ograve /oacute /ocircumflex /otilde /odieresis /divide 
    /oslash /ugrave /uacute /ucircumflex /udieresis /yacute /thorn 
    /ydieresis 
  ] def 
} if 

% font ISOEncode font 
% This procedure changes the encoding of a font from the default 
% Postscript encoding to ISOLatin1.  It is typically invoked just 
% before invoking "setfont".  The body of this procedure comes from 
% Section 5.6.1 of the Postscript book. 

/ISOEncode { 
  dup length dict
  begin 
    {1 index /FID ne {def} {pop pop} ifelse} forall 
    /Encoding ISOLatin1Encoding def 
    currentdict 
  end 

  % I'm not sure why it's necessary to use "definefont" on this new 
  % font, but it seems to be important; just use the name "Temporary" 
  % for the font. 

  /Temporary exch definefont 
} bind def 

/Stroke {
  gsave
    stroke
  grestore
} def

/Fill {
  gsave
    fill
  grestore
} def

/SetFont { 	
  % Stack: pointSize fontName
  findfont exch scalefont ISOEncode setfont
} def

/Box {
  % Stack: x y width height
  newpath
  exch 4 2 roll moveto
  dup 0 rlineto
  exch 0 exch rlineto
  neg 0 rlineto
  closepath
} def

/SetFgColor {
  % Stack: red green blue
  CL 0 eq { 
    pop pop pop 0 0 0 
  } if
  setrgbcolor
  CL 1 eq { 
    currentgray setgray 
  } if
} def

/SetBgColor {
  % Stack: red green blue
  CL 0 eq { 
    pop pop pop 1 1 1 
  } if
  setrgbcolor
  CL 1 eq { 
    currentgray setgray 
  } if
} def

% The next two definitions are taken from "$tk_library/prolog.ps"

% desiredSize EvenPixels closestSize
%
% The procedure below is used for stippling.  Given the optimal size
% of a dot in a stipple pattern in the current user coordinate system,
% compute the closest size that is an exact multiple of the device's
% pixel size.  This allows stipple patterns to be displayed without
% aliasing effects.

/EvenPixels {
  % Compute exact number of device pixels per stipple dot.
  dup 0 matrix currentmatrix dtransform
  dup mul exch dup mul add sqrt

  % Round to an integer, make sure the number is at least 1, and compute
  % user coord distance corresponding to this.
  dup round dup 1 lt {pop 1} if
  exch div mul
} bind def

% width height string filled StippleFill --
%
% Given a path and other graphics information already set up, this
% procedure will fill the current path in a stippled fashion.  "String"
% contains a proper image description of the stipple pattern and
% "width" and "height" give its dimensions.  If "filled" is true then
% it means that the area to be stippled is gotten by filling the
% current path (e.g. the interior of a polygon); if it's false, the
% area is gotten by stroking the current path (e.g. a wide line).
% Each stipple dot is assumed to be about one unit across in the
% current user coordinate system.

% width height string StippleFill --
%
% Given a path already set up and a clipping region generated from
% it, this procedure will fill the clipping region with a stipple
% pattern.  "String" contains a proper image description of the
% stipple pattern and "width" and "height" give its dimensions.  Each
% stipple dot is assumed to be about one unit across in the current
% user coordinate system.  This procedure trashes the graphics state.

/StippleFill {
    % The following code is needed to work around a NeWSprint bug.

    /tmpstip 1 index def

    % Change the scaling so that one user unit in user coordinates
    % corresponds to the size of one stipple dot.
    1 EvenPixels dup scale

    % Compute the bounding box occupied by the path (which is now
    % the clipping region), and round the lower coordinates down
    % to the nearest starting point for the stipple pattern.  Be
    % careful about negative numbers, since the rounding works
    % differently on them.

    pathbbox
    4 2 roll
    5 index div dup 0 lt {1 sub} if cvi 5 index mul 4 1 roll
    6 index div dup 0 lt {1 sub} if cvi 6 index mul 3 2 roll

    % Stack now: width height string y1 y2 x1 x2
    % Below is a doubly-nested for loop to iterate across this area
    % in units of the stipple pattern size, going up columns then
    % across rows, blasting out a stipple-pattern-sized rectangle at
    % each position

    6 index exch {
	2 index 5 index 3 index {
	    % Stack now: width height string y1 y2 x y

	    gsave
	    1 index exch translate
	    5 index 5 index true matrix tmpstip imagemask
	    grestore
	} for
	pop
    } for
    pop pop pop pop pop
} bind def


/LS {	% Stack: x1 y1 x2 y2
  newpath 4 2 roll moveto lineto stroke
} def

/EndText {
  %Stack :
  grestore
} def

/BeginText {
  %Stack :  w h theta centerX centerY
  gsave
    % Translate the origin to the center of bounding box and rotate
    translate neg rotate
    % Translate back to the origin of the text region
    -0.5 mul exch -0.5 mul exch translate
} def

/DrawAdjText {
  %Stack : str strWidth x y
  moveto				% Go to the text position
  exch dup dup 4 2 roll

  % Adjust character widths to get desired overall string width
  % adjust X = (desired width - real width)/#chars

  stringwidth pop sub exch
  length div
  0 3 -1 roll

  % Flip back the scale so that the string is not drawn in reverse

  gsave
    1 -1 scale
    ashow
  grestore
} def

/DrawBitmap {
  % Stack: ?bgColorProc? boolean centerX centerY width height theta imageStr
  gsave
    6 -2 roll translate			% Translate to center of bounding box
    4 1 roll neg rotate			% Rotate by theta
    
    % Find upperleft corner of bounding box
    
    2 copy -.5 mul exch -.5 mul exch translate
    2 copy scale			% Make pixel unit scale
    newpath
    0 0 moveto 0 1 lineto 1 1 lineto 1 0 lineto
    closepath
    
    % Fill rectangle with background color
    
    4 -1 roll { 
      gsave 
	4 -1 roll exec fill 
      grestore 
    } if
    
    % Paint the image string into the unit rectangle
    
    2 copy true 3 -1 roll 0 0 5 -1 roll 0 0 6 array astore 5 -1 roll
    imagemask
  grestore
} def

% Symbols:

% Skinny-cross
/Sc {
  % Stack: x y symbolSize
  gsave
    3 -2 roll translate 45 rotate
    0 0 3 -1 roll Sp
  grestore
} def

% Skinny-plus
/Sp {
  % Stack: x y symbolSize
  gsave
    3 -2 roll translate
    2 idiv
    dup 2 copy
    newpath neg 0 moveto 0 lineto
    DrawSymbolProc
    newpath neg 0 exch moveto 0 exch lineto
    DrawSymbolProc
  grestore
} def

% Cross
/Cr {
  % Stack: x y symbolSize
  gsave
    3 -2 roll translate 45 rotate
    0 0 3 -1 roll Pl
  grestore
} def

% Plus
/Pl {
  % Stack: x y symbolSize
  gsave
    3 -2 roll translate
    dup 2 idiv
    exch 6 idiv

    %
    %          2   3		The plus/cross symbol is a
    %				closed polygon of 12 points.
    %      0   1   4    5	The diagram to the left
    %           x,y		represents the positions of
    %     11  10   7    6	the points which are computed
    %				below.
    %          9   8
    %

    newpath
    2 copy exch neg exch neg moveto dup neg dup lineto
    2 copy neg exch neg lineto 2 copy exch neg lineto
    dup dup neg lineto 2 copy neg lineto 2 copy lineto
    dup dup lineto 2 copy exch lineto 2 copy neg exch lineto
    dup dup neg exch lineto exch neg exch lineto
    closepath
    DrawSymbolProc
  grestore
} def

% Circle
/Ci {
  % Stack: x y symbolSize
  gsave
    3 copy pop
    moveto newpath
    2 div 0 360 arc
    closepath DrawSymbolProc
  grestore
} def

% Square
/Sq {
  % Stack: x y symbolSize
  gsave
    dup dup 2 div dup
    6 -1 roll exch sub exch
    5 -1 roll exch sub 4 -2 roll Box
    DrawSymbolProc
  grestore
} def

% Line
/Li {
  % Stack: x y symbolSize
  gsave
    3 1 roll exch 3 -1 roll 2 div 3 copy
    newpath
    sub exch moveto add exch lineto
    stroke
  grestore
} def

% Diamond
/Di {
  % Stack: x y symbolSize
  gsave
    3 1 roll translate 45 rotate 0 0 3 -1 roll Sq
  grestore
} def
    
% Triangle
/Tr {
  % Stack: x y symbolSize
  gsave
    3 -2 roll translate
    BaseRatio mul 0.5 mul		% Calculate 1/2 base
    dup 0 exch 30 cos mul		% h1 = height above center point
    neg					% b2 0 -h1
    newpath moveto			% point 1;  b2
    dup 30 sin 30 cos div mul		% h2 = height below center point
    2 copy lineto			% point 2;  b2 h2
    exch neg exch lineto		% 
    closepath
    DrawSymbolProc
  grestore
} def

% Arrow
/Ar {
  % Stack: x y symbolSize
  gsave
    3 -2 roll translate
    BaseRatio mul 0.5 mul		% Calculate 1/2 base
    dup 0 exch 30 cos mul		% h1 = height above center point
					% b2 0 h1
    newpath moveto			% point 1;  b2
    dup 30 sin 30 cos div mul		% h2 = height below center point
    neg					% -h2 b2
    2 copy lineto			% point 2;  b2 h2
    exch neg exch lineto		% 
    closepath
    DrawSymbolProc
  grestore
} def

% Bitmap
/Bm {
  % Stack: x y symbolSize
  gsave
    3 1 roll translate pop DrawSymbolProc
  grestore
} def

%%EndProlog

%%BeginSetup
gsave					% Save the graphics state

% Default line/text style parameters

1 setlinewidth				% width
1 setlinejoin				% join
0 setlinecap				% cap
[] 0 setdash				% dashes

/CL 0 def				% Set color level mode
0 0 0 setrgbcolor			% color

% Transform coordinate system to use X11 coordinates

% 1. Flip y-axis over by reversing the scale,
% 2. Translate the origin to the other side of the page,
%    making the origin the upper left corner
0.749127 -0.749262 scale
0 -1057 translate

% User defined page layout

% Set color level
/CL 2 def

% Set origin
147 285 translate


%%EndSetup

9 /Courier SetFont
69 6 449 455 Box

1 1 1 SetBgColor
Fill
gsave clip


% Element "Current"

0 setlinejoin
0 setlinecap
0 0 1 SetFgColor
2 setlinewidth
[ ] 0 setdash
/DashesProc {} def
/DashesProc {} def
 newpath 71 59.4124 moveto
 84.3063 59.4124 lineto
DashesProc stroke
 newpath  84.3063 59.4124 moveto
 129.917 59.4125 lineto
 141.32 59.4161 lineto
 156.144 59.5715 lineto
 175.414 64.9339 lineto
 180.473 78.4964 lineto
 184.809 95.4712 lineto
 189.125 116.533 lineto
 193.106 139.997 lineto
 196.808 165.648 lineto
 198.665 184.356 lineto
 199.872 198.842 lineto
 200.656 210.473 lineto
 201.676 227.64 lineto
 203.002 251.863 lineto
 204.726 285.939 lineto
 206.967 331.218 lineto
 208.423 362.229 lineto
 210.317 393.774 lineto
 212.778 418.151 lineto
 213.578 422.561 lineto
 214.618 424.538 lineto
 215.97 421.626 lineto
 217.728 410.515 lineto
 218.87 398.546 lineto
 220.356 380.327 lineto
 222.286 352.959 lineto
 224.796 312.77 lineto
 226.428 280.954 lineto
 227.488 258.739 lineto
 228.177 243.914 lineto
 229.074 225.713 lineto
 230.239 203.62 lineto
 231.753 177.412 lineto
 232.737 160.367 lineto
 234.017 140.695 lineto
 235.68 118.775 lineto
 237.843 95.5943 lineto
 240.655 72.8994 lineto
 244.309 53.0889 lineto
 249.061 38.7241 lineto
 255.237 31.6991 lineto
 263.267 32.3016 lineto
 273.706 38.7987 lineto
 287.276 48.1821 lineto
 304.917 57.4904 lineto
 327.851 64.6005 lineto
 357.664 68.524 lineto
 396.422 69.3556 lineto
 442.033 68.0949 lineto
 487.644 66.2051 lineto
 515 65.0971 lineto
DashesProc stroke

% Element "Current.1"

0 setlinejoin
0 setlinecap
1 0 1 SetFgColor
2 setlinewidth
[ ] 0 setdash
/DashesProc {} def
/DashesProc {} def
 newpath 71 59.4124 moveto
 84.3063 59.4124 lineto
DashesProc stroke
 newpath  84.3063 59.4124 moveto
 129.917 59.4125 lineto
 152.723 59.4874 lineto
 166.17 61.5731 lineto
 173.909 69.7157 lineto
 178.334 81.3825 lineto
 183.6 103.154 lineto
 188.556 133.196 lineto
 192.603 164.55 lineto
 196.213 195.312 lineto
 199.883 244.081 lineto
 203.788 315.711 lineto
 208.118 382.501 lineto
 213.496 411.107 lineto
 220.488 364.858 lineto
 221.202 346.454 lineto
 222.13 324.856 lineto
 223.338 298.467 lineto
 224.907 265.89 lineto
 225.927 243.569 lineto
 227.253 216.922 lineto
 228.977 185.872 lineto
 231.218 151.233 lineto
 232.674 129.386 lineto
 234.568 106.226 lineto
 237.029 82.8797 lineto
 240.23 60.9627 lineto
 244.39 42.5101 lineto
 249.798 29.6887 lineto
 256.829 24.107 lineto
 265.969 25.7609 lineto
 277.851 32.5646 lineto
 293.298 41.3856 lineto
 313.379 49.5274 lineto
 339.483 55.3737 lineto
 373.42 58.4906 lineto
 417.537 59.4025 lineto
 463.148 59.179 lineto
 508.759 58.6774 lineto
 515 58.613 lineto
DashesProc stroke

% Element "Current.2"

0 setlinejoin
0 setlinecap
1 0 0 SetFgColor
2 setlinewidth
[ ] 0 setdash
/DashesProc {} def
/DashesProc {} def
 newpath 71 59.4124 moveto
 84.3063 59.4124 lineto
DashesProc stroke
 newpath  84.3063 59.4124 moveto
 129.917 59.4125 lineto
 152.723 59.4804 lineto
 165.824 61.3287 lineto
 173.525 68.689 lineto
 177.88 79.3124 lineto
 183.02 98.9415 lineto
 187.891 126.595 lineto
 191.88 156.581 lineto
 195.424 186.69 lineto
 197.213 206.423 lineto
 198.377 221.126 lineto
 199.133 232.318 lineto
 200.116 248.973 lineto
 201.394 275.008 lineto
 203.055 312.933 lineto
 205.215 363.978 lineto
 208.022 420.938 lineto
 211.672 458 lineto
 216.417 438.987 lineto
 222.284 345.537 lineto
 222.92 320.867 lineto
 223.748 292.915 lineto
 224.824 260.716 lineto
 225.524 240.019 lineto
 226.433 215.685 lineto
 227.615 187.603 lineto
 229.152 156.181 lineto
 231.149 122.63 lineto
 233.746 89.047 lineto
 237.123 58.121 lineto
 241.512 32.6912 lineto
 247.217 15.4444 lineto
 254.635 8.37912 lineto
 259.456 8 lineto
 265.724 11.9579 lineto
 273.872 19.3587 lineto
 284.464 28.8557 lineto
 298.234 38.7738 lineto
 316.136 47.51 lineto
 339.407 53.9936 lineto
 369.66 57.9321 lineto
 408.989 59.6885 lineto
 454.6 59.9901 lineto
 500.211 59.7044 lineto
 515 59.571 lineto
DashesProc stroke
1 1 1 SetBgColor
247 200 267 65 Box fill

0 0 0 SetBgColor
247 264 267 1 Box fill

513 200 1 65 Box fill

0 0 0 SetBgColor
newpath 247 265 moveto
247 200 lineto
514 200 lineto
513 201 lineto
248 201 lineto
248 264 lineto
247 265 lineto
247 265  lineto closepath Fill
0 setlinejoin
0 setlinecap
1 0 0 SetFgColor
4 setlinewidth
[ ] 0 setdash
/DashesProc {} def
264 211 24 Li
50 15 0 305 211.5 BeginText
13 /Courier SetFont
0 0 0 SetFgColor
(No GR) 50 0 12 DrawAdjText
EndText
0 setlinejoin
0 setlinecap
1 0 1 SetFgColor
4 setlinewidth
[ ] 0 setdash
/DashesProc {} def
264 232 24 Li
20 15 0 290 232.5 BeginText
13 /Courier SetFont
0 0 0 SetFgColor
(GR) 20 0 12 DrawAdjText
EndText
0 setlinejoin
0 setlinecap
0 0 1 SetFgColor
4 setlinewidth
[ ] 0 setdash
/DashesProc {} def
264 253 24 Li
230 15 0 395 253.5 BeginText
13 /Courier SetFont
0 0 0 SetFgColor
(Additional body contact) 230 0 12 DrawAdjText
EndText

% Unset clipping
grestore

1 1 1 SetBgColor
0 0 523 8 Box fill

0 8 71 450 Box fill

515 8 8 450 Box fill

0 458 523 29 Box fill

1 1 1 SetBgColor
69 458 448 2 Box fill

515 6 2 454 Box fill

newpath 69 460 moveto
69 6 lineto
517 6 lineto
515 8 lineto
71 8 lineto
71 458 lineto
69 460 lineto
69 460  lineto closepath Fill
0 setlinejoin
0 setlinecap
0 0 0 SetFgColor
1 setlinewidth
[ ] 0 setdash
/DashesProc {} def
 newpath 71 458 moveto
 515 458 lineto
DashesProc stroke
0 setlinejoin
0 setlinecap
0 0 0 SetFgColor
1 setlinewidth
[ ] 0 setdash
/DashesProc {} def
 newpath 71 458 moveto
 71 8 lineto
DashesProc stroke
0 setlinejoin
0 setlinecap
0 0 0 SetFgColor
1 setlinewidth
[ ] 0 setdash
/DashesProc {} def
 newpath 71 8 moveto
 515 8 lineto
DashesProc stroke
0 setlinejoin
0 setlinecap
0 0 0 SetFgColor
1 setlinewidth
[ ] 0 setdash
/DashesProc {} def
 newpath 515 458 moveto
 515 8 lineto
DashesProc stroke
34 10 0 131.079 473 BeginText
9 /Courier SetFont
0 0 0 SetFgColor
(4e-11) 30 2 8 DrawAdjText
EndText
34 10 0 283.115 473 BeginText
9 /Courier SetFont
0 0 0 SetFgColor
(6e-11) 30 2 8 DrawAdjText
EndText
34 10 0 435.151 473 BeginText
9 /Courier SetFont
0 0 0 SetFgColor
(8e-11) 30 2 8 DrawAdjText
EndText
0 setlinejoin
0 setlinecap
0 0 0 SetFgColor
1 setlinewidth
[ ] 0 setdash
/DashesProc {} def
71 458 moveto
 515 458 lineto
DashesProc stroke
100.671 458 moveto
 100.671 463 lineto
DashesProc stroke
161.486 458 moveto
 161.486 463 lineto
DashesProc stroke
191.893 458 moveto
 191.893 463 lineto
DashesProc stroke
222.3 458 moveto
 222.3 463 lineto
DashesProc stroke
252.708 458 moveto
 252.708 463 lineto
DashesProc stroke
131.079 458 moveto
 131.079 466 lineto
DashesProc stroke
313.522 458 moveto
 313.522 463 lineto
DashesProc stroke
343.93 458 moveto
 343.93 463 lineto
DashesProc stroke
374.337 458 moveto
 374.337 463 lineto
DashesProc stroke
404.744 458 moveto
 404.744 463 lineto
DashesProc stroke
283.115 458 moveto
 283.115 466 lineto
DashesProc stroke
465.559 458 moveto
 465.559 463 lineto
DashesProc stroke
495.966 458 moveto
 495.966 463 lineto
DashesProc stroke
435.151 458 moveto
 435.151 466 lineto
DashesProc stroke
52 10 0 35 422.673 BeginText
9 /Courier SetFont
0 0 0 SetFgColor
(-1.5e-05) 48 2 8 DrawAdjText
EndText
40 10 0 41 301.586 BeginText
9 /Courier SetFont
0 0 0 SetFgColor
(-1e-05) 36 2 8 DrawAdjText
EndText
40 10 0 41 180.499 BeginText
9 /Courier SetFont
0 0 0 SetFgColor
(-5e-06) 36 2 8 DrawAdjText
EndText
10 10 0 56 59.4124 BeginText
9 /Courier SetFont
0 0 0 SetFgColor
(0) 6 2 8 DrawAdjText
EndText
0 setlinejoin
0 setlinecap
0 0 0 SetFgColor
1 setlinewidth
[ ] 0 setdash
/DashesProc {} def
71 458 moveto
 71 8 lineto
DashesProc stroke
71 446.89 moveto
 66 446.89 lineto
DashesProc stroke
71 398.456 moveto
 66 398.456 lineto
DashesProc stroke
71 374.238 moveto
 66 374.238 lineto
DashesProc stroke
71 350.021 moveto
 66 350.021 lineto
DashesProc stroke
71 325.804 moveto
 66 325.804 lineto
DashesProc stroke
71 422.673 moveto
 63 422.673 lineto
DashesProc stroke
71 277.369 moveto
 66 277.369 lineto
DashesProc stroke
71 253.151 moveto
 66 253.151 lineto
DashesProc stroke
71 228.934 moveto
 66 228.934 lineto
DashesProc stroke
71 204.717 moveto
 66 204.717 lineto
DashesProc stroke
71 301.586 moveto
 63 301.586 lineto
DashesProc stroke
71 156.282 moveto
 66 156.282 lineto
DashesProc stroke
71 132.065 moveto
 66 132.065 lineto
DashesProc stroke
71 107.847 moveto
 66 107.847 lineto
DashesProc stroke
71 83.6298 moveto
 66 83.6298 lineto
DashesProc stroke
71 180.499 moveto
 63 180.499 lineto
DashesProc stroke
71 35.1951 moveto
 66 35.1951 lineto
DashesProc stroke
71 10.9777 moveto
 66 10.9777 lineto
DashesProc stroke
71 59.4124 moveto
 63 59.4124 lineto
DashesProc stroke
showpage
%Trailer
grestore
end
%EOF
