Time,Drain1,Drain2,Source1,Source2
6.18700000000000E-13,-5.74686233606902E-13,-6.51707618650838E-13,-5.55583005394558E-15,-6.96646698312917E-15
9.04310000000000E-13,-5.10130326361388E-13,-5.74033362856811E-13,-6.79888604983504E-15,-8.30433594059057E-15
1.27560300000000E-12,-4.32924570133255E-13,-4.81781656502900E-13,-8.20699498515022E-15,-9.78077808367237E-15
1.75828390000000E-12,-3.38671879008529E-13,-3.69816100493234E-13,-9.73793027600052E-15,-1.13721525905680E-14
2.38576907000000E-12,-2.21496635624619E-13,-2.31268957091438E-13,-1.13676153784576E-14,-1.30453468028946E-14
3.20149979100000E-12,-7.36662905705477E-14,-5.70115991325635E-14,-1.30233472401930E-14,-1.47534056489042E-14
4.26194972830000E-12,1.14511959680691E-13,1.64374254794616E-13,-1.46479566196552E-14,-1.64151837087641E-14
5.64053464679000E-12,8.64615110148785E-14,1.11638359476734E-13,-1.15501286967217E-14,-1.24002310269739E-14
7.43269504082700E-12,1.98828610620597E-13,2.26183642978278E-13,-1.03350695308001E-14,-1.11010281947272E-14
9.76250355307510E-12,3.59853393951977E-13,3.96205976250521E-13,-9.60718030945379E-15,-1.03562432280849E-14
1.27912546189976E-11,4.96692152632454E-13,5.38179311548861E-13,-8.17536397940853E-15,-8.78050616414563E-15
1.67286310046969E-11,3.00427962337126E-13,3.11287432508079E-13,-2.46579166917111E-15,-2.41479146172855E-15
2.18472203061060E-11,1.86894615093964E-13,1.70761548906176E-13,-1.14889204573108E-16,1.41788066795735E-17
2.78472203061060E-11,6.60549948889126E-14,2.06081517097120E-14,1.01223705758430E-15,1.18141614680072E-15
3.38472203061060E-11,-5.18648961842576E-14,-1.26176486836652E-13,1.57240145697960E-15,1.76200434718025E-15
3.98472203061060E-11,-3.44529382818508E-13,-3.90058866130977E-13,3.99128415130032E-12,4.37337279175049E-12
4.58472203061060E-11,-3.04074576055386E-08,-3.75625062268182E-08,3.74954490793711E-07,4.10889970853599E-07
4.58940953061060E-11,-4.91779375836591E-08,-5.87672811448698E-08,3.82193189700779E-07,4.19795720498170E-07
4.59550328061060E-11,-7.36583567912866E-08,-8.68346541084012E-08,3.93088692014292E-07,4.33331090798844E-07
4.60342515561060E-11,-1.05431345597574E-07,-1.23855072410402E-07,4.09985480038878E-07,4.54237283039237E-07
4.61372359311060E-11,-1.46969154510576E-07,-1.72989695046959E-07,4.36651914495620E-07,4.86888913203817E-07
4.62711156186060E-11,-2.01797745719186E-07,-2.38735861490626E-07,4.79383510036631E-07,5.38505470832579E-07
4.64451592123560E-11,-2.75321107738160E-07,-3.27967962149037E-07,5.48986102064708E-07,6.21342968177886E-07
4.66714158842310E-11,-3.76313582866002E-07,-4.51799095039828E-07,6.64545599250191E-07,7.56885235761794E-07
4.69655495576685E-11,-5.19392981394167E-07,-6.28797080842125E-07,8.60690545544567E-07,9.83903101264308E-07
4.73479233331372E-11,-7.27994576168129E-07,-8.89416469056108E-07,1.20092644036252E-06,1.37305464962337E-06
4.78450092412466E-11,-1.03415297095928E-06,-1.27766891602725E-06,1.79764450754631E-06,2.04778301343294E-06
4.84912209217888E-11,-1.45784891377791E-06,-1.82979266681564E-06,2.82151244974367E-06,3.18951665204679E-06
4.93312961064936E-11,-1.91968384841357E-06,-2.46678955034510E-06,4.42361554264046E-06,4.93663253470505E-06
5.03700593966388E-11,-2.10532241377928E-06,-2.77444340518244E-06,6.36608287783046E-06,6.97838659210309E-06
5.07076574659359E-11,-2.08717536684163E-06,-2.76582010339551E-06,6.87986978622387E-06,7.49464300473162E-06
5.11465349560222E-11,-1.91186141614407E-06,-2.53988752925103E-06,7.47770669556667E-06,8.08299360560910E-06
5.17170756931344E-11,-1.52007060752916E-06,-2.01798617609525E-06,8.10909991406012E-06,8.68435497811879E-06
5.24587786513803E-11,-8.85609883651755E-07,-1.17648802939856E-06,8.69171321159531E-06,9.21336496966895E-06
5.34229924970999E-11,-2.04561752210810E-07,-2.79796627059389E-07,9.10570019701990E-06,9.54487506576317E-06
5.44537197111608E-11,3.79363464244944E-08,8.97502696183962E-08,9.23618000067222E-06,9.59946708770717E-06
5.56501644493073E-11,-1.32914333262110E-07,-2.06046595563384E-08,9.26286358968329E-06,9.58860545707062E-06
5.60390089892049E-11,-2.73903948184659E-07,-1.40511664800644E-07,9.25947710711443E-06,9.57742977291406E-06
5.62917579401384E-11,-3.45387607875921E-07,-2.02450867156832E-07,9.26419109520219E-06,9.57887278315240E-06
5.66203315763518E-11,-4.24600301887853E-07,-2.78047468996118E-07,9.27421049153623E-06,9.58621623944058E-06
5.70474773034293E-11,-5.30501161489130E-07,-3.88382526326806E-07,9.28568184575621E-06,9.59563003606913E-06
5.73251220260297E-11,-6.03408595867697E-07,-4.66037076907188E-07,9.29160908590782E-06,9.60072369591971E-06
5.75055910957200E-11,-6.50473505576615E-07,-5.16964906919728E-07,9.29497033253876E-06,9.60371914865693E-06
5.77402008863173E-11,-7.09087491440131E-07,-5.81804293245007E-07,9.29839949397461E-06,9.60684650606125E-06
5.80451936140938E-11,-7.82300463179942E-07,-6.63588228882665E-07,9.30075473319447E-06,9.60905699982014E-06
5.82434388871486E-11,-8.28625760673292E-07,-7.15194143724472E-07,9.30142005466368E-06,9.60977332729982E-06
5.85011577421197E-11,-8.84878833938815E-07,-7.78308272201323E-07,9.30092065329367E-06,9.60945004016636E-06
5.86686749978510E-11,-9.19692162721788E-07,-8.17292620345487E-07,9.30003960525250E-06,9.60876610507243E-06
5.88864474303016E-11,-9.61745965643207E-07,-8.64655732141709E-07,9.29798272121854E-06,9.60701798964947E-06
5.91695515924875E-11,-1.01093791206135E-06,-9.20300316125646E-07,9.29382990614403E-06,9.60336339373641E-06
5.93535692979082E-11,-1.04013630973808E-06,-9.53342458952923E-07,9.29062758138181E-06,9.60056751374774E-06
5.94731808064317E-11,-1.05792121516404E-06,-9.73530142640057E-07,9.28835745419638E-06,9.59858976592488E-06
5.96286757675123E-11,-1.07945975103997E-06,-9.98170131977161E-07,9.28504517124142E-06,9.59566441119333E-06
5.98308192169170E-11,-1.10473230821585E-06,-1.02732429918057E-06,9.28017478494495E-06,9.59131650760715E-06
6.00936057011432E-11,-1.13307279710769E-06,-1.06046667320276E-06,9.27302564858409E-06,9.58489429452199E-06
6.04352281306372E-11,-1.16275203798287E-06,-1.09603622723031E-06,9.26265329976922E-06,9.57554198815386E-06
6.08793372889794E-11,-1.19053961171639E-06,-1.13108841783475E-06,9.24788741969974E-06,9.56220026461313E-06
6.14566791948242E-11,-1.21156213445070E-06,-1.16116848309574E-06,9.22748300072759E-06,9.54374937423505E-06
6.22072236724225E-11,-1.21978411665026E-06,-1.18080622788845E-06,9.20045701943346E-06,9.51932279859027E-06
6.31829314933004E-11,-1.20939747045069E-06,-1.18488500223303E-06,9.16657473078540E-06,9.48878334659046E-06
6.44513516604415E-11,-1.17704488972057E-06,-1.17065058814710E-06,9.12685256202030E-06,9.45318747445004E-06
6.61002978777250E-11,-1.12366440357619E-06,-1.13919234951608E-06,9.08380061951990E-06,9.41486423505128E-06
6.82439279601935E-11,-1.05413721652554E-06,-1.09465323929856E-06,9.04060073340530E-06,9.37676084644475E-06
7.10306470674026E-11,-9.73770909553427E-07,-1.04058267353633E-06,8.99972499029408E-06,9.34118911749619E-06
7.46533819067745E-11,-8.83385379318326E-07,-9.75282255494134E-07,8.96141094686548E-06,9.30818497657052E-06
7.93629371979579E-11,-7.76581049518281E-07,-8.89354276441745E-07,8.92266168921623E-06,9.27451963849581E-06
8.53629371979579E-11,-6.43097062005975E-07,-7.69265494573699E-07,8.87814671398449E-06,9.23443170885678E-06
9.13629371979579E-11,-5.07865134730968E-07,-6.38769961639880E-07,8.83298779978017E-06,9.19213048340753E-06
9.73629371979579E-11,-3.66342567036715E-07,-4.94991877198477E-07,8.78499153443295E-06,9.14569376737284E-06
1.03362937197958E-10,-2.20866058556418E-07,-3.41755002433554E-07,8.73377373982334E-06,9.09492420441264E-06
1.09362937197958E-10,-7.69100968113155E-08,-1.85508386854098E-07,8.67959063626811E-06,9.04026160779780E-06
1.15362937197958E-10,5.97700624669624E-08,-3.26719452881808E-08,8.62281607762636E-06,8.98217580295096E-06
1.21362937197958E-10,1.84625651318355E-07,1.11425590106081E-07,8.56371813331983E-06,8.92113243409142E-06
1.27362937197958E-10,2.94827110605687E-07,2.43000487504399E-07,8.50238754916453E-06,8.85731863174661E-06
1.33362937197958E-10,3.89092427024726E-07,3.59882031158243E-07,8.43871976043395E-06,8.79070110693568E-06
1.39362937197958E-10,4.67325015331940E-07,4.61252234953774E-07,8.37239181189322E-06,8.72101638900763E-06
1.45362937197958E-10,5.29977863809140E-07,5.47292582125337E-07,8.30282839618241E-06,8.64774166234214E-06
1.51362937197958E-10,5.78046398703644E-07,6.18800290129025E-07,8.22913104263569E-06,8.57002569063654E-06
1.57362937197958E-10,6.12565373010192E-07,6.76739578006210E-07,8.14993633171951E-06,8.48654802070940E-06
1.60000000000000E-10,6.22955767277546E-07,6.98009295445621E-07,8.11187301964982E-06,8.44670820272523E-06
