"number","layout","location","xlocation","zlocation","LET","length","radius","direction","xdirection","ydirection"
1,"D1-S2_body3_addtn","mid",0.35,0.25,0.05,3.65,0.38,90,0,1
2,"D1-S2_body3_addtn","pmos",0.35,0.51,0.05,3.65,0.38,90,0,1
3,"D1-S2_body3_addtn","nmos",0.35,0.06,0.05,3.65,0.38,90,0,1
4,"D1-S2_body3_addtn","mid",0.35,0.25,0.11,6,0.43,90,0,1
5,"D1-S2_body3_addtn","pmos",0.32,0.51,0.11,6,0.43,90,0,1
6,"D1-S2_body3_addtn","nmos",0.35,0.06,0.11,6,0.43,90,0,1
7,"D1-S2_body3_addtn","mid",0.35,0.25,0.01,1.46,0.27,90,0,1
8,"D1-S2_body3_addtn","pmos",0.35,0.51,0.01,1.46,0.27,90,0,1
9,"D1-S2_body3_addtn","nmos",0.35,0.06,0.01,1.46,0.27,90,0,1
