%!PS-Adobe-3.0 EPSF-3.0
%%BoundingBox: 108 219 502 571
%%Pages: 0
%%Creator: (BLT 2.4 Graph)
%%CreationDate: (Sat Apr  9 12:48:43 2016)
%%Title: (/home/users/nanditha/sentaurus/65nm_mos/final/LET_S_WC_direction/2D-direction-impact-S2.eps)
%%DocumentData: Clean7Bit
%%Orientation: Portrait
%%DocumentNeededResources: font Helvetica Courier
%%EndComments


% including file "/usr/local/Softwares/Sentaurus/Sentaurus_vG_2012.06/bin/../tcad/current/lib/bltGraph.pro"

%%BeginProlog
%
% PostScript prolog file of the BLT graph widget.
%
% Copyright 1989-1992 Regents of the University of California.
% Permission to use, copy, modify, and distribute this
% software and its documentation for any purpose and without
% fee is hereby granted, provided that the above copyright
% notice appear in all copies.  The University of California
% makes no representations about the suitability of this
% software for any purpose.  It is provided "as is" without
% express or implied warranty.
%
% Copyright 1991-1997 Bell Labs Innovations for Lucent Technologies.
%
% Permission to use, copy, modify, and distribute this software and its
% documentation for any purpose and without fee is hereby granted, provided
% that the above copyright notice appear in all copies and that both that the
% copyright notice and warranty disclaimer appear in supporting documentation,
% and that the names of Lucent Technologies any of their entities not be used
% in advertising or publicity pertaining to distribution of the software
% without specific, written prior permission.
%
% Lucent Technologies disclaims all warranties with regard to this software,
% including all implied warranties of merchantability and fitness.  In no event
% shall Lucent Technologies be liable for any special, indirect or
% consequential damages or any damages whatsoever resulting from loss of use,
% data or profits, whether in an action of contract, negligence or other
% tortuous action, arising out of or in connection with the use or performance
% of this software.
%

200 dict begin

/BaseRatio 1.3467736870885982 def	% Ratio triangle base / symbol size
/BgColorProc 0 def			% Background color routine (symbols)
/DrawSymbolProc 0 def			% Routine to draw symbol outline/fill
/StippleProc 0 def			% Stipple routine (bar segments)
/DashesProc 0 def			% Dashes routine (line segments)
  
% Define the array ISOLatin1Encoding (which specifies how characters are 
% encoded for ISO-8859-1 fonts), if it isn't already present (Postscript 
% level 2 is supposed to define it, but level 1 doesn't). 
 
systemdict /ISOLatin1Encoding known not { 
  /ISOLatin1Encoding [ 
    /space /space /space /space /space /space /space /space 
    /space /space /space /space /space /space /space /space 
    /space /space /space /space /space /space /space /space 
    /space /space /space /space /space /space /space /space 
    /space /exclam /quotedbl /numbersign /dollar /percent /ampersand 
    /quoteright 
    /parenleft /parenright /asterisk /plus /comma /minus /period /slash 
    /zero /one /two /three /four /five /six /seven 
    /eight /nine /colon /semicolon /less /equal /greater /question 
    /at /A /B /C /D /E /F /G 
    /H /I /J /K /L /M /N /O 
    /P /Q /R /S /T /U /V /W 
    /X /Y /Z /bracketleft /backslash /bracketright /asciicircum /underscore 
    /quoteleft /a /b /c /d /e /f /g 
    /h /i /j /k /l /m /n /o 
    /p /q /r /s /t /u /v /w 
    /x /y /z /braceleft /bar /braceright /asciitilde /space 
    /space /space /space /space /space /space /space /space 
    /space /space /space /space /space /space /space /space 
    /dotlessi /grave /acute /circumflex /tilde /macron /breve /dotaccent 
    /dieresis /space /ring /cedilla /space /hungarumlaut /ogonek /caron 
    /space /exclamdown /cent /sterling /currency /yen /brokenbar /section 
    /dieresis /copyright /ordfeminine /guillemotleft /logicalnot /hyphen 
    /registered /macron 
    /degree /plusminus /twosuperior /threesuperior /acute /mu /paragraph 
    /periodcentered 
    /cedillar /onesuperior /ordmasculine /guillemotright /onequarter 
    /onehalf /threequarters /questiondown 
    /Agrave /Aacute /Acircumflex /Atilde /Adieresis /Aring /AE /Ccedilla 
    /Egrave /Eacute /Ecircumflex /Edieresis /Igrave /Iacute /Icircumflex 
    /Idieresis 
    /Eth /Ntilde /Ograve /Oacute /Ocircumflex /Otilde /Odieresis /multiply 
    /Oslash /Ugrave /Uacute /Ucircumflex /Udieresis /Yacute /Thorn 
    /germandbls 
    /agrave /aacute /acircumflex /atilde /adieresis /aring /ae /ccedilla 
    /egrave /eacute /ecircumflex /edieresis /igrave /iacute /icircumflex 
    /idieresis 
    /eth /ntilde /ograve /oacute /ocircumflex /otilde /odieresis /divide 
    /oslash /ugrave /uacute /ucircumflex /udieresis /yacute /thorn 
    /ydieresis 
  ] def 
} if 

% font ISOEncode font 
% This procedure changes the encoding of a font from the default 
% Postscript encoding to ISOLatin1.  It is typically invoked just 
% before invoking "setfont".  The body of this procedure comes from 
% Section 5.6.1 of the Postscript book. 

/ISOEncode { 
  dup length dict
  begin 
    {1 index /FID ne {def} {pop pop} ifelse} forall 
    /Encoding ISOLatin1Encoding def 
    currentdict 
  end 

  % I'm not sure why it's necessary to use "definefont" on this new 
  % font, but it seems to be important; just use the name "Temporary" 
  % for the font. 

  /Temporary exch definefont 
} bind def 

/Stroke {
  gsave
    stroke
  grestore
} def

/Fill {
  gsave
    fill
  grestore
} def

/SetFont { 	
  % Stack: pointSize fontName
  findfont exch scalefont ISOEncode setfont
} def

/Box {
  % Stack: x y width height
  newpath
  exch 4 2 roll moveto
  dup 0 rlineto
  exch 0 exch rlineto
  neg 0 rlineto
  closepath
} def

/SetFgColor {
  % Stack: red green blue
  CL 0 eq { 
    pop pop pop 0 0 0 
  } if
  setrgbcolor
  CL 1 eq { 
    currentgray setgray 
  } if
} def

/SetBgColor {
  % Stack: red green blue
  CL 0 eq { 
    pop pop pop 1 1 1 
  } if
  setrgbcolor
  CL 1 eq { 
    currentgray setgray 
  } if
} def

% The next two definitions are taken from "$tk_library/prolog.ps"

% desiredSize EvenPixels closestSize
%
% The procedure below is used for stippling.  Given the optimal size
% of a dot in a stipple pattern in the current user coordinate system,
% compute the closest size that is an exact multiple of the device's
% pixel size.  This allows stipple patterns to be displayed without
% aliasing effects.

/EvenPixels {
  % Compute exact number of device pixels per stipple dot.
  dup 0 matrix currentmatrix dtransform
  dup mul exch dup mul add sqrt

  % Round to an integer, make sure the number is at least 1, and compute
  % user coord distance corresponding to this.
  dup round dup 1 lt {pop 1} if
  exch div mul
} bind def

% width height string filled StippleFill --
%
% Given a path and other graphics information already set up, this
% procedure will fill the current path in a stippled fashion.  "String"
% contains a proper image description of the stipple pattern and
% "width" and "height" give its dimensions.  If "filled" is true then
% it means that the area to be stippled is gotten by filling the
% current path (e.g. the interior of a polygon); if it's false, the
% area is gotten by stroking the current path (e.g. a wide line).
% Each stipple dot is assumed to be about one unit across in the
% current user coordinate system.

% width height string StippleFill --
%
% Given a path already set up and a clipping region generated from
% it, this procedure will fill the clipping region with a stipple
% pattern.  "String" contains a proper image description of the
% stipple pattern and "width" and "height" give its dimensions.  Each
% stipple dot is assumed to be about one unit across in the current
% user coordinate system.  This procedure trashes the graphics state.

/StippleFill {
    % The following code is needed to work around a NeWSprint bug.

    /tmpstip 1 index def

    % Change the scaling so that one user unit in user coordinates
    % corresponds to the size of one stipple dot.
    1 EvenPixels dup scale

    % Compute the bounding box occupied by the path (which is now
    % the clipping region), and round the lower coordinates down
    % to the nearest starting point for the stipple pattern.  Be
    % careful about negative numbers, since the rounding works
    % differently on them.

    pathbbox
    4 2 roll
    5 index div dup 0 lt {1 sub} if cvi 5 index mul 4 1 roll
    6 index div dup 0 lt {1 sub} if cvi 6 index mul 3 2 roll

    % Stack now: width height string y1 y2 x1 x2
    % Below is a doubly-nested for loop to iterate across this area
    % in units of the stipple pattern size, going up columns then
    % across rows, blasting out a stipple-pattern-sized rectangle at
    % each position

    6 index exch {
	2 index 5 index 3 index {
	    % Stack now: width height string y1 y2 x y

	    gsave
	    1 index exch translate
	    5 index 5 index true matrix tmpstip imagemask
	    grestore
	} for
	pop
    } for
    pop pop pop pop pop
} bind def


/LS {	% Stack: x1 y1 x2 y2
  newpath 4 2 roll moveto lineto stroke
} def

/EndText {
  %Stack :
  grestore
} def

/BeginText {
  %Stack :  w h theta centerX centerY
  gsave
    % Translate the origin to the center of bounding box and rotate
    translate neg rotate
    % Translate back to the origin of the text region
    -0.5 mul exch -0.5 mul exch translate
} def

/DrawAdjText {
  %Stack : str strWidth x y
  moveto				% Go to the text position
  exch dup dup 4 2 roll

  % Adjust character widths to get desired overall string width
  % adjust X = (desired width - real width)/#chars

  stringwidth pop sub exch
  length div
  0 3 -1 roll

  % Flip back the scale so that the string is not drawn in reverse

  gsave
    1 -1 scale
    ashow
  grestore
} def

/DrawBitmap {
  % Stack: ?bgColorProc? boolean centerX centerY width height theta imageStr
  gsave
    6 -2 roll translate			% Translate to center of bounding box
    4 1 roll neg rotate			% Rotate by theta
    
    % Find upperleft corner of bounding box
    
    2 copy -.5 mul exch -.5 mul exch translate
    2 copy scale			% Make pixel unit scale
    newpath
    0 0 moveto 0 1 lineto 1 1 lineto 1 0 lineto
    closepath
    
    % Fill rectangle with background color
    
    4 -1 roll { 
      gsave 
	4 -1 roll exec fill 
      grestore 
    } if
    
    % Paint the image string into the unit rectangle
    
    2 copy true 3 -1 roll 0 0 5 -1 roll 0 0 6 array astore 5 -1 roll
    imagemask
  grestore
} def

% Symbols:

% Skinny-cross
/Sc {
  % Stack: x y symbolSize
  gsave
    3 -2 roll translate 45 rotate
    0 0 3 -1 roll Sp
  grestore
} def

% Skinny-plus
/Sp {
  % Stack: x y symbolSize
  gsave
    3 -2 roll translate
    2 idiv
    dup 2 copy
    newpath neg 0 moveto 0 lineto
    DrawSymbolProc
    newpath neg 0 exch moveto 0 exch lineto
    DrawSymbolProc
  grestore
} def

% Cross
/Cr {
  % Stack: x y symbolSize
  gsave
    3 -2 roll translate 45 rotate
    0 0 3 -1 roll Pl
  grestore
} def

% Plus
/Pl {
  % Stack: x y symbolSize
  gsave
    3 -2 roll translate
    dup 2 idiv
    exch 6 idiv

    %
    %          2   3		The plus/cross symbol is a
    %				closed polygon of 12 points.
    %      0   1   4    5	The diagram to the left
    %           x,y		represents the positions of
    %     11  10   7    6	the points which are computed
    %				below.
    %          9   8
    %

    newpath
    2 copy exch neg exch neg moveto dup neg dup lineto
    2 copy neg exch neg lineto 2 copy exch neg lineto
    dup dup neg lineto 2 copy neg lineto 2 copy lineto
    dup dup lineto 2 copy exch lineto 2 copy neg exch lineto
    dup dup neg exch lineto exch neg exch lineto
    closepath
    DrawSymbolProc
  grestore
} def

% Circle
/Ci {
  % Stack: x y symbolSize
  gsave
    3 copy pop
    moveto newpath
    2 div 0 360 arc
    closepath DrawSymbolProc
  grestore
} def

% Square
/Sq {
  % Stack: x y symbolSize
  gsave
    dup dup 2 div dup
    6 -1 roll exch sub exch
    5 -1 roll exch sub 4 -2 roll Box
    DrawSymbolProc
  grestore
} def

% Line
/Li {
  % Stack: x y symbolSize
  gsave
    3 1 roll exch 3 -1 roll 2 div 3 copy
    newpath
    sub exch moveto add exch lineto
    stroke
  grestore
} def

% Diamond
/Di {
  % Stack: x y symbolSize
  gsave
    3 1 roll translate 45 rotate 0 0 3 -1 roll Sq
  grestore
} def
    
% Triangle
/Tr {
  % Stack: x y symbolSize
  gsave
    3 -2 roll translate
    BaseRatio mul 0.5 mul		% Calculate 1/2 base
    dup 0 exch 30 cos mul		% h1 = height above center point
    neg					% b2 0 -h1
    newpath moveto			% point 1;  b2
    dup 30 sin 30 cos div mul		% h2 = height below center point
    2 copy lineto			% point 2;  b2 h2
    exch neg exch lineto		% 
    closepath
    DrawSymbolProc
  grestore
} def

% Arrow
/Ar {
  % Stack: x y symbolSize
  gsave
    3 -2 roll translate
    BaseRatio mul 0.5 mul		% Calculate 1/2 base
    dup 0 exch 30 cos mul		% h1 = height above center point
					% b2 0 h1
    newpath moveto			% point 1;  b2
    dup 30 sin 30 cos div mul		% h2 = height below center point
    neg					% -h2 b2
    2 copy lineto			% point 2;  b2 h2
    exch neg exch lineto		% 
    closepath
    DrawSymbolProc
  grestore
} def

% Bitmap
/Bm {
  % Stack: x y symbolSize
  gsave
    3 1 roll translate pop DrawSymbolProc
  grestore
} def

%%EndProlog

%%BeginSetup
gsave					% Save the graphics state

% Default line/text style parameters

1 setlinewidth				% width
1 setlinejoin				% join
0 setlinecap				% cap
[] 0 setdash				% dashes

/CL 0 def				% Set color level mode
0 0 0 setrgbcolor			% color

% Transform coordinate system to use X11 coordinates

% 1. Flip y-axis over by reversing the scale,
% 2. Translate the origin to the other side of the page,
%    making the origin the upper left corner
0.75 -0.748031 scale
0 -1056 translate

% User defined page layout

% Set color level
/CL 2 def

% Set origin
145 293 translate


%%EndSetup

12 /Helvetica-Bold SetFont
102 6 418 417 Box

1 1 1 SetBgColor
Fill
gsave clip


% Element "Current"

0 setlinejoin
0 setlinecap
1 0 1 SetFgColor
2 setlinewidth
[ ] 0 setdash
/DashesProc {} def
/DashesProc {} def
 newpath 104 8.50433 moveto
 120.232 8.50433 lineto
DashesProc stroke
 newpath  120.232 8.50433 moveto
 139.357 8.50433 lineto
 158.481 8.50433 lineto
 177.606 8.50365 lineto
 196.73 8.25941 lineto
 215.855 46.2241 lineto
 234.979 300.586 lineto
 254.104 215.841 lineto
 263.666 177.982 lineto
 276.097 156.223 lineto
 292.257 142.912 lineto
 311.381 134.27 lineto
 320.944 130.96 lineto
 333.375 127.656 lineto
 349.535 124.378 lineto
 368.659 121.374 lineto
 378.221 120.041 lineto
 390.652 118.522 lineto
 398.732 117.608 lineto
 409.237 116.519 lineto
 416.064 115.847 lineto
 424.94 115.023 lineto
 430.71 114.506 lineto
 438.21 113.862 lineto
 447.96 113.063 lineto
 454.298 112.557 lineto
 462.537 111.921 lineto
 473.247 111.124 lineto
 487.171 110.128 lineto
 496.222 109.495 lineto
 507.987 108.694 lineto
 517 108.098 lineto
DashesProc stroke

% Element "Current.1"

0 setlinejoin
0 setlinecap
0 0 1 SetFgColor
2 setlinewidth
[ ] 0 setdash
/DashesProc {} def
/DashesProc {} def
 newpath 104 8.50433 moveto
 120.232 8.50433 lineto
DashesProc stroke
 newpath  120.232 8.50433 moveto
 139.357 8.50433 lineto
 158.481 8.50433 lineto
 177.606 8.50359 lineto
 196.73 8.24503 lineto
 215.855 54.5248 lineto
 225.417 257.985 lineto
 237.848 356.688 lineto
 254.008 246.288 lineto
 273.133 191.324 lineto
 292.257 169.408 lineto
 311.381 158.198 lineto
 330.506 151.184 lineto
 349.63 146.192 lineto
 368.755 142.354 lineto
 387.879 139.235 lineto
 397.442 137.812 lineto
 409.872 136.144 lineto
 426.033 134.196 lineto
 445.157 132.103 lineto
 454.719 131.097 lineto
 467.15 129.847 lineto
 483.31 128.296 lineto
 488.092 127.843 lineto
 494.307 127.261 lineto
 502.387 126.518 lineto
 512.891 125.572 lineto
 517 125.21 lineto
DashesProc stroke

% Element "Current.2"

0 setlinejoin
0 setlinecap
0 1 0 SetFgColor
2 setlinewidth
[ ] 0 setdash
/DashesProc {} def
/DashesProc {} def
 newpath 104 8.50433 moveto
 120.232 8.50433 lineto
DashesProc stroke
 newpath  120.232 8.50433 moveto
 139.357 8.50433 lineto
 158.481 8.50433 lineto
 177.606 8.50353 lineto
 187.168 8.47377 lineto
 199.599 8 lineto
 215.759 59.4565 lineto
 225.321 277.029 lineto
 237.752 380.071 lineto
 253.912 261.443 lineto
 255.108 251.542 lineto
 256.662 240.216 lineto
 258.682 228.805 lineto
 259.995 222.549 lineto
 261.702 215.846 lineto
 262.811 211.981 lineto
 264.253 207.611 lineto
 266.128 202.782 lineto
 267.347 199.949 lineto
 268.932 196.688 lineto
 270.991 193.019 lineto
 273.669 188.985 lineto
 277.15 184.646 lineto
 279.413 182.138 lineto
 282.354 179.286 lineto
 286.178 176.108 lineto
 291.149 172.622 lineto
 297.611 168.853 lineto
 306.012 164.823 lineto
 316.933 160.558 lineto
 331.131 156.107 lineto
 349.588 151.527 lineto
 368.712 147.637 lineto
 378.275 145.86 lineto
 390.706 143.778 lineto
 406.866 141.354 lineto
 416.428 139.997 lineto
 428.859 138.337 lineto
 445.019 136.31 lineto
 464.144 134.043 lineto
 483.268 131.872 lineto
 502.393 129.776 lineto
 517 128.22 lineto
DashesProc stroke

% Element "Current.4"

0 setlinejoin
0 setlinecap
1 0 0 SetFgColor
2 setlinewidth
[  10 5] 0 setdash
/DashesProc {} def
/DashesProc {} def
 newpath 104 8.50433 moveto
 120.232 8.50433 lineto
DashesProc stroke
 newpath  120.232 8.50433 moveto
 139.357 8.50433 lineto
 158.481 8.50433 lineto
 177.606 8.50341 lineto
 196.73 8.17578 lineto
 206.292 9.17851 lineto
 212.508 30.6669 lineto
 216.548 80.2712 lineto
 217.861 111.621 lineto
 219.568 167.068 lineto
 221.787 241.641 lineto
 224.672 325.157 lineto
 228.422 397.199 lineto
 233.297 420 lineto
 239.634 368.808 lineto
 247.873 285.363 lineto
 258.584 225.465 lineto
 258.639 225.217 lineto
 258.709 224.855 lineto
 258.801 224.37 lineto
 258.921 223.738 lineto
 259.076 222.922 lineto
 259.278 221.871 lineto
 259.54 220.523 lineto
 259.882 218.811 lineto
 260.325 216.667 lineto
 260.902 214.036 lineto
 261.652 210.881 lineto
 262.627 207.178 lineto
 263.894 202.925 lineto
 265.541 198.142 lineto
 267.683 192.879 lineto
 270.467 187.219 lineto
 274.086 181.265 lineto
 278.791 175.122 lineto
 284.907 168.878 lineto
 292.859 162.583 lineto
 303.196 156.255 lineto
 316.634 149.9 lineto
 334.103 143.546 lineto
 353.227 138.033 lineto
 362.789 135.554 lineto
 369.005 134.045 lineto
 377.085 132.232 lineto
 387.589 130.072 lineto
 401.245 127.508 lineto
 410.121 125.924 lineto
 421.659 123.975 lineto
 429.159 122.747 lineto
 434.035 121.964 lineto
 440.372 120.968 lineto
 448.611 119.708 lineto
 453.967 118.902 lineto
 460.928 117.873 lineto
 469.979 116.567 lineto
 481.745 114.915 lineto
 497.04 112.834 lineto
 516.165 110.322 lineto
 517 110.216 lineto
DashesProc stroke
1 1 1 SetBgColor
401 167 115 94 Box fill

0 0 0 SetBgColor
401 260 115 1 Box fill

515 167 1 94 Box fill

0 0 0 SetBgColor
newpath 401 261 moveto
401 167 lineto
516 167 lineto
515 168 lineto
402 168 lineto
402 260 lineto
401 261 lineto
401 261  lineto closepath Fill
0 setlinejoin
0 setlinecap
1 0 0 SetFgColor
4 setlinewidth
[  10 5] 0 setdash
/DashesProc {} def
421 179 30 Li
60 17 0 470 179.5 BeginText
12 /Helvetica-Bold SetFont
0 0 0 SetFgColor
(2 deg) 60 0 15 DrawAdjText
EndText
0 setlinejoin
0 setlinecap
0 1 0 SetFgColor
4 setlinewidth
[ ] 0 setdash
/DashesProc {} def
421 202 30 Li
72 17 0 476 202.5 BeginText
12 /Helvetica-Bold SetFont
0 0 0 SetFgColor
(45 deg) 72 0 15 DrawAdjText
EndText
0 setlinejoin
0 setlinecap
0 0 1 SetFgColor
4 setlinewidth
[ ] 0 setdash
/DashesProc {} def
421 225 30 Li
72 17 0 476 225.5 BeginText
12 /Helvetica-Bold SetFont
0 0 0 SetFgColor
(60 deg) 72 0 15 DrawAdjText
EndText
0 setlinejoin
0 setlinecap
1 0 1 SetFgColor
4 setlinewidth
[ ] 0 setdash
/DashesProc {} def
421 248 30 Li
72 17 0 476 248.5 BeginText
12 /Helvetica-Bold SetFont
0 0 0 SetFgColor
(90 deg) 72 0 15 DrawAdjText
EndText

% Unset clipping
grestore

1 1 1 SetBgColor
0 0 525 8 Box fill

0 8 104 412 Box fill

517 8 8 412 Box fill

0 420 525 50 Box fill

1 1 1 SetBgColor
102 420 417 2 Box fill

517 6 2 416 Box fill

newpath 102 422 moveto
102 6 lineto
519 6 lineto
517 8 lineto
104 8 lineto
104 420 lineto
102 422 lineto
102 422  lineto closepath Fill
0 setlinejoin
0 setlinecap
0 0 0 SetFgColor
1 setlinewidth
[ ] 0 setdash
/DashesProc {} def
 newpath 104 420 moveto
 517 420 lineto
DashesProc stroke
0 setlinejoin
0 setlinecap
0 0 0 SetFgColor
1 setlinewidth
[ ] 0 setdash
/DashesProc {} def
 newpath 104 420 moveto
 104 8 lineto
DashesProc stroke
0 setlinejoin
0 setlinecap
0 0 0 SetFgColor
1 setlinewidth
[ ] 0 setdash
/DashesProc {} def
 newpath 104 8 moveto
 517 8 lineto
DashesProc stroke
0 setlinejoin
0 setlinecap
0 0 0 SetFgColor
1 setlinewidth
[ ] 0 setdash
/DashesProc {} def
 newpath 517 420 moveto
 517 8 lineto
DashesProc stroke
80 16 0 310 459 BeginText
12 /Helvetica-Bold SetFont
0 0 0 SetFgColor
(Time \(s\)) 80 0 14 DrawAdjText
EndText
49 13 0 186.851 436.5 BeginText
12 /Helvetica-Bold SetFont
0 0 0 SetFgColor
(5e-11) 45 2 12 DrawAdjText
EndText
49 13 0 378.096 436.5 BeginText
12 /Helvetica-Bold SetFont
0 0 0 SetFgColor
(1e-10) 45 2 12 DrawAdjText
EndText
0 setlinejoin
0 setlinecap
0 0 0 SetFgColor
1 setlinewidth
[ ] 0 setdash
/DashesProc {} def
104 420 moveto
 517 420 lineto
DashesProc stroke
110.353 420 moveto
 110.353 425 lineto
DashesProc stroke
148.602 420 moveto
 148.602 425 lineto
DashesProc stroke
225.1 420 moveto
 225.1 425 lineto
DashesProc stroke
263.349 420 moveto
 263.349 425 lineto
DashesProc stroke
301.598 420 moveto
 301.598 425 lineto
DashesProc stroke
339.847 420 moveto
 339.847 425 lineto
DashesProc stroke
186.851 420 moveto
 186.851 428 lineto
DashesProc stroke
416.345 420 moveto
 416.345 425 lineto
DashesProc stroke
454.594 420 moveto
 454.594 425 lineto
DashesProc stroke
492.843 420 moveto
 492.843 425 lineto
DashesProc stroke
378.096 420 moveto
 378.096 428 lineto
DashesProc stroke
110 16 90 11 214 BeginText
12 /Helvetica-Bold SetFont
0 0 0 SetFgColor
(Current \(A\)) 110 0 14 DrawAdjText
EndText
67 13 0 60.5 403.714 BeginText
12 /Helvetica-Bold SetFont
0 0 0 SetFgColor
(-0.0015) 63 2 12 DrawAdjText
EndText
58 13 0 65 198.54 BeginText
12 /Helvetica-Bold SetFont
0 0 0 SetFgColor
(-0.001) 54 2 12 DrawAdjText
EndText
0 setlinejoin
0 setlinecap
0 0 0 SetFgColor
1 setlinewidth
[ ] 0 setdash
/DashesProc {} def
104 420 moveto
 104 8 lineto
DashesProc stroke
104 362.679 moveto
 99 362.679 lineto
DashesProc stroke
104 321.644 moveto
 99 321.644 lineto
DashesProc stroke
104 280.609 moveto
 99 280.609 lineto
DashesProc stroke
104 239.575 moveto
 99 239.575 lineto
DashesProc stroke
104 403.714 moveto
 96 403.714 lineto
DashesProc stroke
104 157.505 moveto
 99 157.505 lineto
DashesProc stroke
104 116.47 moveto
 99 116.47 lineto
DashesProc stroke
104 75.435 moveto
 99 75.435 lineto
DashesProc stroke
104 34.4002 moveto
 99 34.4002 lineto
DashesProc stroke
104 198.54 moveto
 96 198.54 lineto
DashesProc stroke
showpage
%Trailer
grestore
end
%EOF
