number,Vgate1,Vsource1,Vdrain1,Vgate2,Vsource2,Vdrain2,LET,length,radius,xdir,ydir,xlocation,ylocation,angle
1,1.2,0,1.2,1.2,1.2,0,0.11,6,0.43,1,1.732,-0.05,0,60
2,1.2,0,1.2,1.2,1.2,0,0.11,6,0.43,1,1.732,0,0,60
3,1.2,0,1.2,1.2,1.2,0,0.11,6,0.43,1,1.732,0.1,0,60
4,1.2,0,1.2,1.2,1.2,0,0.11,6,0.43,1,1.732,0.15,0,60
5,1.2,0,1.2,1.2,1.2,0,0.11,6,0.43,1,1.732,0.2,0.35,60
6,1.2,0,1.2,1.2,1.2,0,0.11,6,0.43,1,1.732,0.25,0.35,60
7,1.2,0,1.2,1.2,1.2,0,0.11,6,0.43,1,1.732,0.3,0,60
8,1.2,0,1.2,1.2,1.2,0,0.11,6,0.43,1,1.732,0.35,0,60
9,1.2,0,1.2,1.2,1.2,0,0.11,6,0.43,1,1.732,0.4,0.35,60
10,1.2,0,1.2,1.2,1.2,0,0.11,6,0.43,1,1.732,0.45,0.35,60
11,1.2,0,1.2,1.2,1.2,0,0.11,6,0.43,1,1.732,0.5,0,60
12,1.2,0,1.2,1.2,1.2,0,0.11,6,0.43,1,1.732,0.55,0,60
13,1.2,0,1.2,1.2,1.2,0,0.11,6,0.43,1,1.732,0.6,0,60
14,1.2,0,1.2,1.2,1.2,0,0.11,6,0.43,1,1.732,0.667,0,60
15,1.2,0,1.2,1.2,1.2,0,0.11,6,0.43,1,1.732,0.75,0,60
16,1.2,0,1.2,1.2,1.2,0,0.11,6,0.43,1,0.57,-0.05,0,30
17,1.2,0,1.2,1.2,1.2,0,0.11,6,0.43,1,0.57,0,0,30
18,1.2,0,1.2,1.2,1.2,0,0.11,6,0.43,1,0.57,0.1,0,30
19,1.2,0,1.2,1.2,1.2,0,0.11,6,0.43,1,0.57,0.15,0,30
20,1.2,0,1.2,1.2,1.2,0,0.11,6,0.43,1,0.57,0.2,0.35,30
21,1.2,0,1.2,1.2,1.2,0,0.11,6,0.43,1,0.57,0.25,0.35,30
22,1.2,0,1.2,1.2,1.2,0,0.11,6,0.43,1,0.57,0.3,0,30
23,1.2,0,1.2,1.2,1.2,0,0.11,6,0.43,1,0.57,0.35,0,30
24,1.2,0,1.2,1.2,1.2,0,0.11,6,0.43,1,0.57,0.4,0.35,30
25,1.2,0,1.2,1.2,1.2,0,0.11,6,0.43,1,0.57,0.45,0.35,30
26,1.2,0,1.2,1.2,1.2,0,0.11,6,0.43,1,0.57,0.5,0,30
27,1.2,0,1.2,1.2,1.2,0,0.11,6,0.43,1,0.57,0.55,0,30
28,1.2,0,1.2,1.2,1.2,0,0.11,6,0.43,1,0.57,0.6,0,30
29,1.2,0,1.2,1.2,1.2,0,0.11,6,0.43,1,0.57,0.667,0,30
30,1.2,0,1.2,1.2,1.2,0,0.11,6,0.43,1,0.57,0.75,0,30
31,1.2,0,1.2,1.2,1.2,0,0.11,6,0.43,0,1,-0.05,0,90
32,1.2,0,1.2,1.2,1.2,0,0.11,6,0.43,0,1,0,0,90
33,1.2,0,1.2,1.2,1.2,0,0.11,6,0.43,0,1,0.1,0,90
34,1.2,0,1.2,1.2,1.2,0,0.11,6,0.43,0,1,0.15,0,90
35,1.2,0,1.2,1.2,1.2,0,0.11,6,0.43,0,1,0.2,0.35,90
36,1.2,0,1.2,1.2,1.2,0,0.11,6,0.43,0,1,0.25,0.35,90
37,1.2,0,1.2,1.2,1.2,0,0.11,6,0.43,0,1,0.3,0,90
38,1.2,0,1.2,1.2,1.2,0,0.11,6,0.43,0,1,0.35,0,90
39,1.2,0,1.2,1.2,1.2,0,0.11,6,0.43,0,1,0.4,0.35,90
40,1.2,0,1.2,1.2,1.2,0,0.11,6,0.43,0,1,0.45,0.35,90
41,1.2,0,1.2,1.2,1.2,0,0.11,6,0.43,0,1,0.5,0,90
42,1.2,0,1.2,1.2,1.2,0,0.11,6,0.43,0,1,0.55,0,90
43,1.2,0,1.2,1.2,1.2,0,0.11,6,0.43,0,1,0.6,0,90
44,1.2,0,1.2,1.2,1.2,0,0.11,6,0.43,0,1,0.667,0,90
45,1.2,0,1.2,1.2,1.2,0,0.11,6,0.43,0,1,0.75,0,90
46,1.2,0,1.2,1.2,1.2,0,0.11,6,0.43,1,1,-0.05,0,45
47,1.2,0,1.2,1.2,1.2,0,0.11,6,0.43,1,1,0,0,45
48,1.2,0,1.2,1.2,1.2,0,0.11,6,0.43,1,1,0.1,0,45
49,1.2,0,1.2,1.2,1.2,0,0.11,6,0.43,1,1,0.15,0,45
50,1.2,0,1.2,1.2,1.2,0,0.11,6,0.43,1,1,0.2,0.35,45
51,1.2,0,1.2,1.2,1.2,0,0.11,6,0.43,1,1,0.25,0.35,45
52,1.2,0,1.2,1.2,1.2,0,0.11,6,0.43,1,1,0.3,0,45
53,1.2,0,1.2,1.2,1.2,0,0.11,6,0.43,1,1,0.35,0,45
54,1.2,0,1.2,1.2,1.2,0,0.11,6,0.43,1,1,0.4,0.35,45
55,1.2,0,1.2,1.2,1.2,0,0.11,6,0.43,1,1,0.45,0.35,45
56,1.2,0,1.2,1.2,1.2,0,0.11,6,0.43,1,1,0.5,0,45
57,1.2,0,1.2,1.2,1.2,0,0.11,6,0.43,1,1,0.55,0,45
58,1.2,0,1.2,1.2,1.2,0,0.11,6,0.43,1,1,0.6,0,45
59,1.2,0,1.2,1.2,1.2,0,0.11,6,0.43,1,1,0.667,0,45
60,1.2,0,1.2,1.2,1.2,0,0.11,6,0.43,1,1,0.75,0,45
61,1.2,0,1.2,1.2,1.2,0,0.11,6,0.43,1,0.035,-0.05,0,2
62,1.2,0,1.2,1.2,1.2,0,0.11,6,0.43,1,0.035,0,0,2
63,1.2,0,1.2,1.2,1.2,0,0.11,6,0.43,1,0.035,0.1,0,2
64,1.2,0,1.2,1.2,1.2,0,0.11,6,0.43,1,0.035,0.15,0,2
65,1.2,0,1.2,1.2,1.2,0,0.11,6,0.43,1,0.035,0.2,0.35,2
66,1.2,0,1.2,1.2,1.2,0,0.11,6,0.43,1,0.035,0.25,0.35,2
67,1.2,0,1.2,1.2,1.2,0,0.11,6,0.43,1,0.035,0.3,0,2
68,1.2,0,1.2,1.2,1.2,0,0.11,6,0.43,1,0.035,0.35,0,2
69,1.2,0,1.2,1.2,1.2,0,0.11,6,0.43,1,0.035,0.4,0.35,2
70,1.2,0,1.2,1.2,1.2,0,0.11,6,0.43,1,0.035,0.45,0.35,2
71,1.2,0,1.2,1.2,1.2,0,0.11,6,0.43,1,0.035,0.5,0,2
72,1.2,0,1.2,1.2,1.2,0,0.11,6,0.43,1,0.035,0.55,0,2
73,1.2,0,1.2,1.2,1.2,0,0.11,6,0.43,1,0.035,0.6,0,2
74,1.2,0,1.2,1.2,1.2,0,0.11,6,0.43,1,0.035,0.667,0,2
75,1.2,0,1.2,1.2,1.2,0,0.11,6,0.43,1,0.035,0.75,0,2
