I_Inv1_out,I_Inv2_out,I_Subs1,I_Subs2,Tau1-inv1,Tau1-inv2,Tau1-subs1,Tau1-subs2,Tau2-inv1,Tau2-inv2,Tau2-subs1,Tau2-subs2,Qcoll-inv1_out,Qcoll-inv2_out,Qcoll-subs1,Qcoll-subs2
-3.63692241286e-06,-3.49280264133e-06,1.75403981174e-05,1.64958108951e-05,6.92526438332e-12,5.97176307479e-12,5.68302719162e-12,5.68302719162e-12,1.06477515311e-10,1.06477515311e-10,1.08469752502e-10,1.08142268039e-10,3.35126465311e-17,3.79881507148e-17,1.06471970454e-15,1.01626655173e-15
-3.10789236115e-06,-3.16291116554e-06,1.72874347969e-05,1.74713370342e-05,7.19157082649e-12,7.19157082649e-12,6.47361359762e-12,6.47361359762e-12,1.05801146367e-10,1.05801146367e-10,1.07679166096e-10,1.07679166096e-10,3.48366225922e-17,3.74849178692e-17,1.06975026011e-15,1.107998346e-15
-3.68021394865e-06,-3.52022770119e-06,1.82593003077e-05,1.75680825505e-05,6.00250705967e-12,5.04883849562e-12,5.87988699837e-12,5.87988699837e-12,1.07400272634e-10,1.07400272634e-10,1.08272892696e-10,1.08272892696e-10,3.78960136032e-17,3.85744880647e-17,1.15559721892e-15,1.12345672989e-15
-3.49478519448e-06,-3.77105675471e-06,1.1298786401e-05,1.05625393093e-05,5.05145255777e-12,5.33569240329e-12,6.37790550148e-12,6.37790550148e-12,1.04872689063e-10,1.04588449217e-10,1.07774874192e-10,1.07774874192e-10,4.84929436252e-17,5.60771501154e-17,1.00680440686e-15,9.58698916148e-16
-3.54218909574e-06,-2.31342166614e-06,1.10768609186e-05,1.13361418632e-05,5.51541539268e-12,1.01029724192e-11,6.21198792813e-12,6.21198792813e-12,1.04256862429e-10,1.03862307275e-10,1.07940791766e-10,1.07940791766e-10,5.06176582651e-17,3.63853934734e-17,1.00710458879e-15,1.04237208994e-15
-1.85689515459e-06,-2.00630941622e-06,1.20621566157e-05,1.15224318235e-05,8.91443877539e-12,8.91443877539e-12,5.63430301171e-12,5.63430301171e-12,1.04488340918e-10,1.04488340918e-10,1.08518476682e-10,1.08518476682e-10,3.72914462612e-17,3.79534289656e-17,1.09341953785e-15,1.06091350719e-15
-2.77457755406e-06,-3.15734626272e-06,1.89654194185e-05,1.79477175756e-05,4.25043775181e-12,4.25043775181e-12,6.60876262968e-12,6.60876262968e-12,1.09612326317e-10,1.09612326317e-10,1.07544017064e-10,1.07544017064e-10,2.94282255977e-17,3.23357696147e-17,1.04311659657e-15,9.9300028791e-16
-2.81058057061e-06,-1.41685042862e-06,1.801841013e-05,1.84164422757e-05,3.09363719926e-12,4.29313165193e-12,7.11533199571e-12,7.11533199571e-12,1.00845787473e-10,9.96462930199e-11,1.07037447698e-10,1.07037447698e-10,2.78500897093e-17,3.09338371224e-17,1.04058548225e-15,1.07201693311e-15
-1.50143472129e-06,-1.66658733328e-06,1.9479893458e-05,1.8767377658e-05,4.40439493768e-12,4.40439493768e-12,6.12939493768e-12,6.12939493768e-12,1.08023384756e-10,1.08023384756e-10,1.08023384756e-10,1.08023384756e-10,3.06237378154e-17,3.17856100782e-17,1.12519984359e-15,1.09282750581e-15
-9.7559086779e-06,-9.57587662545e-06,3.01785962442e-05,2.85368776823e-05,4.77572113941e-12,4.77572113941e-12,7.05621478353e-12,7.05621478353e-12,1.09690595286e-10,1.09690595286e-10,1.08434635388e-10,1.08434635388e-10,4.38017178256e-17,4.98153605162e-17,1.41145433751e-15,1.33912064067e-15
-1.0526491708e-05,-1.04889450061e-05,3.0313048541e-05,3.05107025232e-05,4.63389040066e-12,4.21454022121e-12,6.48765836865e-12,6.48765836865e-12,4.62709867769e-12,1.05314109365e-10,1.08715121325e-10,1.08715121325e-10,4.28184661498e-17,4.7045715502e-17,1.42335572885e-15,1.46010540785e-15
-1.1308248302e-05,-1.04475346253e-05,3.16680036157e-05,3.03051633761e-05,4.35974295711e-12,4.35974295711e-12,6.90561287084e-12,6.90561287084e-12,3.22456765863e-12,1.10104605549e-10,1.08582482622e-10,1.08582482622e-10,4.61837762123e-17,4.61751413029e-17,1.5206867712e-15,1.46419055232e-15
-2.57027419599e-06,-2.9438981505e-06,1.69830477926e-05,1.61884513241e-05,3.54724666858e-12,3.13077837414e-12,6.84659856758e-12,7.06939645181e-12,1.08111160747e-10,1.08111160747e-10,5.57131871431e-11,5.54903892589e-11,5.36994270794e-17,6.0440948974e-17,1.22634353885e-15,1.16717206817e-15
-3.04796260728e-06,-2.93938362084e-06,1.7104389963e-05,1.75724743619e-05,2.80740948073e-12,4.42482553426e-12,6.84580487955e-12,7.09912129325e-12,1.08603270681e-10,1.0999699543e-10,5.04608258314e-11,5.02075094177e-11,5.51886342739e-17,4.3186048655e-17,1.23741283692e-15,1.2836965934e-15
-3.99701473055e-06,-3.16169443645e-06,1.80294295679e-05,1.75007906558e-05,4.37380380988e-12,4.37380380988e-12,7.12801568985e-12,7.12801568985e-12,2.028188464e-12,2.028188464e-12,3.80491329611e-11,4.40491329611e-11,4.49672448693e-17,4.27411310047e-17,1.33525303707e-15,1.29109155076e-15
-1.68626067024e-05,-1.66084355313e-05,3.60324909805e-05,3.39704915574e-05,5.54772596044e-12,5.54772596044e-12,7.23449725139e-12,7.23449725139e-12,5.54772596044e-12,5.54772596044e-12,1.09005569697e-10,1.09005569697e-10,7.61014110971e-17,7.88705435958e-17,1.43995341843e-15,1.36972560158e-15
-1.74224134351e-05,-1.5479234309e-05,3.58202881768e-05,3.56524354629e-05,5.04311000904e-12,4.71348574029e-12,5.07782450892e-12,5.07782450892e-12,5.04311000904e-12,4.21086901149e-12,1.09074955185e-10,1.09074955185e-10,7.69942385524e-17,5.7804676977e-17,1.45327989444e-15,1.48852236834e-15
-1.61101258379e-05,-1.5526999489e-05,3.69247646192e-05,3.51672479355e-05,4.48260695816e-12,4.28711271077e-12,5.18817663013e-12,5.18817663013e-12,4.48260695816e-12,5.27253939348e-12,1.08964603064e-10,1.08964603064e-10,5.72665617402e-17,5.88903397962e-17,1.54999550524e-15,1.49400297412e-15
-1.41900405044e-05,-1.38644371928e-05,4.47237363651e-05,4.17019453216e-05,3.87480321736e-12,4.64077738464e-12,7.86001976923e-12,7.86001976923e-12,9.85825642206e-11,1.10582564221e-10,1.08842759925e-10,1.08842759925e-10,4.805329314e-17,5.36286922663e-17,1.7068367257e-15,1.61621049368e-15
-1.46128460237e-05,-1.446931593e-05,4.45500683932e-05,4.35646608776e-05,4.84857527862e-12,4.49029674481e-12,7.78893781682e-12,7.78893781682e-12,5.77987606552e-12,9.31952907348e-11,1.08913841877e-10,1.08913841877e-10,4.65327102983e-17,5.21617245861e-17,1.71795495818e-15,1.7394011274e-15
-1.5540916651e-05,-1.44790397869e-05,4.62560269778e-05,4.35515578842e-05,4.1767859188e-12,4.1767859188e-12,8.49533881142e-12,8.49533881142e-12,1.11025993775e-10,9.51671947152e-11,1.08657440882e-10,1.08657440882e-10,4.99047305931e-17,5.1028397874e-17,1.81466507003e-15,1.74185333701e-15
-4.51422820659e-06,-3.74602972681e-06,2.61876670154e-05,2.39807375016e-05,2.35796763622e-12,2.20104732134e-12,8.73351797791e-12,8.73351797791e-12,1.10088424491e-10,1.10088424491e-10,7.76448902803e-11,7.16448902803e-11,4.97635593196e-17,5.21358313534e-17,1.45164751336e-15,1.35556755077e-15
-5.41359060627e-06,-5.60258112808e-06,2.63449939769e-05,2.57539910568e-05,1.92805509908e-12,3.50638560165e-12,8.54620376756e-12,8.54620376756e-12,1.10245677594e-10,1.8204967879e-12,7.16682501679e-11,7.76682501679e-11,5.02872275507e-17,4.22207162559e-17,1.4631834861e-15,1.48257888165e-15
-5.6104451748e-06,-6.15765078675e-06,2.76394500782e-05,2.57162836104e-05,3.96983389071e-12,3.96983389071e-12,8.66540482959e-12,8.66540482959e-12,1.85837561851e-12,1.85837561851e-12,6.49105363346e-11,6.49105363346e-11,4.34039491397e-17,4.17132714407e-17,1.56430368421e-15,1.4873990488e-15
-2.4192335428e-05,-2.40647097846e-05,5.07270256374e-05,4.71629406752e-05,9.33878767039e-12,9.33878767039e-12,6.41312771704e-12,6.41312771704e-12,9.33878767039e-12,9.33878767039e-12,1.08789651977e-10,1.08789651977e-10,1.24591482599e-16,1.24488778637e-16,1.76497893861e-15,1.67666032107e-15
-2.51470513022e-05,-2.23308394942e-05,5.07791997449e-05,4.91385372458e-05,8.78888764486e-12,4.72204076978e-12,6.53808454382e-12,6.53808454382e-12,8.78888764486e-12,8.78888764486e-12,1.0866469515e-10,1.0866469515e-10,1.21981603008e-16,8.53474330789e-17,1.77354553816e-15,1.7907140518e-15
-2.22344393302e-05,-2.14400714026e-05,5.22774666745e-05,4.89250930977e-05,4.45617838772e-12,4.45617838772e-12,8.27342001097e-12,6.32342001097e-12,8.0299987389e-12,8.0299987389e-12,1.08879359683e-10,1.08879359683e-10,7.18415042111e-17,8.24868208695e-17,1.86743847742e-15,1.79483388659e-15
